<?xml version="1.0" standalone="no"?>
 <!DOCTYPE svg PUBLIC "-//W3C//DTD SVG 1.1//EN" 
 "http://www.w3.org/Graphics/SVG/1.1/DTD/svg11.dtd"> 
<svg xmlns="http://www.w3.org/2000/svg" version="1.1" 
    width="6.05282cm" height="12.3825cm" viewBox="0 0 23830 48750 ">
<title>SVG Picture created as KiCad-Adafruit_ESP32_LiPo_18_Vibration_with_R_C_NPN_Shield-B_Cu.svg date 2021/04/23 21:49:02 </title>
  <desc>Picture generated by PCBNEW </desc>
<g style="fill:#000000; fill-opacity:1;stroke:#000000; stroke-opacity:1;
stroke-linecap:round; stroke-linejoin:round; "
 transform="translate(0 0) scale(1 1)">
</g>
<g style="fill:#000000; fill-opacity:0.0; 
stroke:#000000; stroke-width:-0.000393701; stroke-opacity:1; 
stroke-linecap:round; stroke-linejoin:round;">
<g >
</g>
<g style="fill:#000000; fill-opacity:1.0; 
stroke:#000000; stroke-width:0; stroke-opacity:1; 
stroke-linecap:round; stroke-linejoin:round;">
<circle cx="22213.1" cy="41329.5" r="393.701" /> 
</g>
<g style="fill:#000000; fill-opacity:1.0; 
stroke:#000000; stroke-width:39.3701; stroke-opacity:1; 
stroke-linecap:round; stroke-linejoin:round;">
</g>
<g >
</g>
<g style="fill:#000000; fill-opacity:1.0; 
stroke:#000000; stroke-width:39.3701; stroke-opacity:1; 
stroke-linecap:round; stroke-linejoin:round;">
</g>
<g style="fill:#000000; fill-opacity:1.0; 
stroke:#000000; stroke-width:0; stroke-opacity:1; 
stroke-linecap:round; stroke-linejoin:round;">
<circle cx="22013.1" cy="13629.5" r="393.701" /> 
</g>
<g style="fill:#000000; fill-opacity:1.0; 
stroke:#000000; stroke-width:39.3701; stroke-opacity:1; 
stroke-linecap:round; stroke-linejoin:round;">
</g>
<g >
</g>
<g style="fill:#000000; fill-opacity:1.0; 
stroke:#000000; stroke-width:39.3701; stroke-opacity:1; 
stroke-linecap:round; stroke-linejoin:round;">
</g>
<g style="fill:#000000; fill-opacity:1.0; 
stroke:#000000; stroke-width:0; stroke-opacity:1; 
stroke-linecap:round; stroke-linejoin:round;">
<circle cx="1713.07" cy="1129.53" r="393.701" /> 
</g>
<g style="fill:#000000; fill-opacity:1.0; 
stroke:#000000; stroke-width:39.3701; stroke-opacity:1; 
stroke-linecap:round; stroke-linejoin:round;">
</g>
<g >
</g>
<g style="fill:#000000; fill-opacity:1.0; 
stroke:#000000; stroke-width:39.3701; stroke-opacity:1; 
stroke-linecap:round; stroke-linejoin:round;">
</g>
<g style="fill:#000000; fill-opacity:1.0; 
stroke:#000000; stroke-width:0; stroke-opacity:1; 
stroke-linecap:round; stroke-linejoin:round;">
<circle cx="22113.1" cy="47129.5" r="393.701" /> 
</g>
<g style="fill:#000000; fill-opacity:1.0; 
stroke:#000000; stroke-width:39.3701; stroke-opacity:1; 
stroke-linecap:round; stroke-linejoin:round;">
</g>
<g >
</g>
<g style="fill:#000000; fill-opacity:1.0; 
stroke:#000000; stroke-width:39.3701; stroke-opacity:1; 
stroke-linecap:round; stroke-linejoin:round;">
</g>
<g style="fill:#000000; fill-opacity:1.0; 
stroke:#000000; stroke-width:0; stroke-opacity:1; 
stroke-linecap:round; stroke-linejoin:round;">
<circle cx="22113.1" cy="1129.53" r="393.701" /> 
</g>
<g style="fill:#000000; fill-opacity:1.0; 
stroke:#000000; stroke-width:39.3701; stroke-opacity:1; 
stroke-linecap:round; stroke-linejoin:round;">
</g>
<g >
</g>
<g style="fill:#000000; fill-opacity:1.0; 
stroke:#000000; stroke-width:39.3701; stroke-opacity:1; 
stroke-linecap:round; stroke-linejoin:round;">
</g>
<g style="fill:#000000; fill-opacity:1.0; 
stroke:#000000; stroke-width:0; stroke-opacity:1; 
stroke-linecap:round; stroke-linejoin:round;">
<circle cx="1713.07" cy="47529.5" r="393.701" /> 
</g>
<g style="fill:#000000; fill-opacity:1.0; 
stroke:#000000; stroke-width:39.3701; stroke-opacity:1; 
stroke-linecap:round; stroke-linejoin:round;">
</g>
<g >
</g>
<g style="fill:#000000; fill-opacity:1.0; 
stroke:#000000; stroke-width:39.3701; stroke-opacity:1; 
stroke-linecap:round; stroke-linejoin:round;">
</g>
<g style="fill:#000000; fill-opacity:1.0; 
stroke:#000000; stroke-width:0; stroke-opacity:1; 
stroke-linecap:round; stroke-linejoin:round;">
<circle cx="1613.07" cy="35929.5" r="393.701" /> 
</g>
<g style="fill:#000000; fill-opacity:1.0; 
stroke:#000000; stroke-width:39.3701; stroke-opacity:1; 
stroke-linecap:round; stroke-linejoin:round;">
</g>
<g >
</g>
<g style="fill:#000000; fill-opacity:1.0; 
stroke:#000000; stroke-width:39.3701; stroke-opacity:1; 
stroke-linecap:round; stroke-linejoin:round;">
</g>
<g style="fill:#000000; fill-opacity:1.0; 
stroke:#000000; stroke-width:0; stroke-opacity:1; 
stroke-linecap:round; stroke-linejoin:round;">
<circle cx="1813.07" cy="13529.5" r="393.701" /> 
</g>
<g style="fill:#000000; fill-opacity:1.0; 
stroke:#000000; stroke-width:39.3701; stroke-opacity:1; 
stroke-linecap:round; stroke-linejoin:round;">
</g>
<g >
</g>
<g >
</g>
<g >
</g>
<g >
</g>
<g >
</g>
<g >
</g>
<g >
</g>
<g >
</g>
<g >
</g>
<g >
</g>
<g >
</g>
<g >
</g>
<g >
</g>
<g >
</g>
<g >
</g>
<g >
</g>
<g >
</g>
<g >
</g>
<g >
</g>
<g >
</g>
<g >
</g>
<g >
</g>
<g >
</g>
<g >
</g>
<g >
</g>
<g >
</g>
<g >
</g>
<g >
</g>
<g >
</g>
<g >
</g>
<g >
</g>
<g >
</g>
<g >
</g>
<g >
</g>
<g >
</g>
<g >
</g>
<g >
</g>
<g >
</g>
<g >
</g>
<g >
</g>
<g >
</g>
<g >
</g>
<g >
</g>
<g >
</g>
<g >
</g>
<g >
</g>
<g >
</g>
<g >
</g>
<g >
</g>
<g >
</g>
<g >
</g>
<g >
</g>
<g >
</g>
<g >
</g>
<g >
</g>
<g >
</g>
<g >
</g>
<g >
</g>
<g >
</g>
<g >
</g>
<g >
</g>
<g >
</g>
<g >
</g>
<g >
</g>
<g >
</g>
<g >
</g>
<g >
</g>
<g >
</g>
<g >
</g>
<g >
</g>
<g >
</g>
<g >
</g>
<g >
</g>
<g >
</g>
<g >
</g>
<g >
</g>
<g >
</g>
<g >
</g>
<g >
</g>
<g >
</g>
<g >
</g>
<g >
</g>
<g >
</g>
<g >
</g>
<g >
</g>
<g >
</g>
<g >
</g>
<g >
</g>
<g >
</g>
<g >
</g>
<g >
</g>
<g >
</g>
<g >
</g>
<g >
</g>
<g >
</g>
<g >
</g>
<g >
</g>
<g >
</g>
<g >
</g>
<g >
</g>
<g style="fill:#000000; fill-opacity:1.0; 
stroke:#000000; stroke-width:39.3701; stroke-opacity:1; 
stroke-linecap:round; stroke-linejoin:round;">
</g>
<g style="fill:#000000; fill-opacity:1.0; 
stroke:#000000; stroke-width:0; stroke-opacity:1; 
stroke-linecap:round; stroke-linejoin:round;">
<circle cx="19513.1" cy="35629.5" r="314.961" /> 
</g>
<g style="fill:#000000; fill-opacity:1.0; 
stroke:#000000; stroke-width:39.3701; stroke-opacity:1; 
stroke-linecap:round; stroke-linejoin:round;">
</g>
<g style="fill:#000000; fill-opacity:1.0; 
stroke:#000000; stroke-width:0; stroke-opacity:1; 
stroke-linecap:round; stroke-linejoin:round;">
<circle cx="19013.1" cy="1429.53" r="314.961" /> 
</g>
<g style="fill:#000000; fill-opacity:1.0; 
stroke:#000000; stroke-width:39.3701; stroke-opacity:1; 
stroke-linecap:round; stroke-linejoin:round;">
</g>
<g style="fill:#000000; fill-opacity:1.0; 
stroke:#000000; stroke-width:0; stroke-opacity:1; 
stroke-linecap:round; stroke-linejoin:round;">
<circle cx="9413.07" cy="1029.53" r="314.961" /> 
</g>
<g style="fill:#000000; fill-opacity:1.0; 
stroke:#000000; stroke-width:39.3701; stroke-opacity:1; 
stroke-linecap:round; stroke-linejoin:round;">
</g>
<g style="fill:#000000; fill-opacity:1.0; 
stroke:#000000; stroke-width:0; stroke-opacity:1; 
stroke-linecap:round; stroke-linejoin:round;">
<circle cx="11213.1" cy="42329.5" r="314.961" /> 
</g>
<g style="fill:#000000; fill-opacity:1.0; 
stroke:#000000; stroke-width:39.3701; stroke-opacity:1; 
stroke-linecap:round; stroke-linejoin:round;">
</g>
<g style="fill:#000000; fill-opacity:1.0; 
stroke:#000000; stroke-width:0; stroke-opacity:1; 
stroke-linecap:round; stroke-linejoin:round;">
<circle cx="7813.07" cy="5629.53" r="314.961" /> 
</g>
<g style="fill:#000000; fill-opacity:1.0; 
stroke:#000000; stroke-width:39.3701; stroke-opacity:1; 
stroke-linecap:round; stroke-linejoin:round;">
</g>
<g style="fill:#000000; fill-opacity:1.0; 
stroke:#000000; stroke-width:0; stroke-opacity:1; 
stroke-linecap:round; stroke-linejoin:round;">
<circle cx="7513.07" cy="39229.5" r="314.961" /> 
</g>
<g style="fill:#000000; fill-opacity:1.0; 
stroke:#000000; stroke-width:39.3701; stroke-opacity:1; 
stroke-linecap:round; stroke-linejoin:round;">
</g>
<g style="fill:#000000; fill-opacity:1.0; 
stroke:#000000; stroke-width:0; stroke-opacity:1; 
stroke-linecap:round; stroke-linejoin:round;">
<circle cx="5943" cy="22429.5" r="314.961" /> 
</g>
<g style="fill:#000000; fill-opacity:1.0; 
stroke:#000000; stroke-width:39.3701; stroke-opacity:1; 
stroke-linecap:round; stroke-linejoin:round;">
</g>
<g style="fill:#000000; fill-opacity:1.0; 
stroke:#000000; stroke-width:0; stroke-opacity:1; 
stroke-linecap:round; stroke-linejoin:round;">
<circle cx="6013.07" cy="37629.5" r="314.961" /> 
</g>
<g style="fill:#000000; fill-opacity:1.0; 
stroke:#000000; stroke-width:39.3701; stroke-opacity:1; 
stroke-linecap:round; stroke-linejoin:round;">
</g>
<g style="fill:#000000; fill-opacity:1.0; 
stroke:#000000; stroke-width:0; stroke-opacity:1; 
stroke-linecap:round; stroke-linejoin:round;">
<circle cx="4113.07" cy="1129.53" r="314.961" /> 
</g>
<g style="fill:#000000; fill-opacity:1.0; 
stroke:#000000; stroke-width:39.3701; stroke-opacity:1; 
stroke-linecap:round; stroke-linejoin:round;">
</g>
<g style="fill:#000000; fill-opacity:1.0; 
stroke:#000000; stroke-width:0; stroke-opacity:1; 
stroke-linecap:round; stroke-linejoin:round;">
<circle cx="5661.89" cy="35529.5" r="314.961" /> 
</g>
<g style="fill:#000000; fill-opacity:1.0; 
stroke:#000000; stroke-width:39.3701; stroke-opacity:1; 
stroke-linecap:round; stroke-linejoin:round;">
</g>
<g style="fill:#000000; fill-opacity:1.0; 
stroke:#000000; stroke-width:0; stroke-opacity:1; 
stroke-linecap:round; stroke-linejoin:round;">
<circle cx="14513.1" cy="22429.5" r="314.961" /> 
</g>
<g style="fill:#000000; fill-opacity:1.0; 
stroke:#000000; stroke-width:39.3701; stroke-opacity:1; 
stroke-linecap:round; stroke-linejoin:round;">
</g>
<g style="fill:#000000; fill-opacity:1.0; 
stroke:#000000; stroke-width:0; stroke-opacity:1; 
stroke-linecap:round; stroke-linejoin:round;">
<circle cx="12713.1" cy="43429.5" r="314.961" /> 
</g>
<g style="fill:#000000; fill-opacity:1.0; 
stroke:#000000; stroke-width:39.3701; stroke-opacity:1; 
stroke-linecap:round; stroke-linejoin:round;">
</g>
<g style="fill:#000000; fill-opacity:1.0; 
stroke:#000000; stroke-width:0; stroke-opacity:1; 
stroke-linecap:round; stroke-linejoin:round;">
<circle cx="11713.1" cy="37229.5" r="314.961" /> 
</g>
<g style="fill:#000000; fill-opacity:1.0; 
stroke:#000000; stroke-width:39.3701; stroke-opacity:1; 
stroke-linecap:round; stroke-linejoin:round;">
</g>
<g style="fill:#000000; fill-opacity:1.0; 
stroke:#000000; stroke-width:0; stroke-opacity:1; 
stroke-linecap:round; stroke-linejoin:round;">
<circle cx="11413.1" cy="22629.5" r="314.961" /> 
</g>
<g style="fill:#000000; fill-opacity:1.0; 
stroke:#000000; stroke-width:39.3701; stroke-opacity:1; 
stroke-linecap:round; stroke-linejoin:round;">
</g>
<g style="fill:#000000; fill-opacity:1.0; 
stroke:#000000; stroke-width:0; stroke-opacity:1; 
stroke-linecap:round; stroke-linejoin:round;">
<circle cx="11213.1" cy="35329.5" r="314.961" /> 
</g>
<g style="fill:#000000; fill-opacity:1.0; 
stroke:#000000; stroke-width:39.3701; stroke-opacity:1; 
stroke-linecap:round; stroke-linejoin:round;">
</g>
<g style="fill:#000000; fill-opacity:1.0; 
stroke:#000000; stroke-width:0; stroke-opacity:1; 
stroke-linecap:round; stroke-linejoin:round;">
<circle cx="11813.1" cy="6529.53" r="314.961" /> 
</g>
<g style="fill:#000000; fill-opacity:1.0; 
stroke:#000000; stroke-width:39.3701; stroke-opacity:1; 
stroke-linecap:round; stroke-linejoin:round;">
</g>
<g style="fill:#000000; fill-opacity:1.0; 
stroke:#000000; stroke-width:0; stroke-opacity:1; 
stroke-linecap:round; stroke-linejoin:round;">
<circle cx="18813.1" cy="36529.5" r="314.961" /> 
</g>
<g style="fill:#000000; fill-opacity:1.0; 
stroke:#000000; stroke-width:39.3701; stroke-opacity:1; 
stroke-linecap:round; stroke-linejoin:round;">
</g>
<g style="fill:#000000; fill-opacity:1.0; 
stroke:#000000; stroke-width:0; stroke-opacity:1; 
stroke-linecap:round; stroke-linejoin:round;">
<circle cx="18961.9" cy="7198.82" r="314.961" /> 
</g>
<g style="fill:#000000; fill-opacity:1.0; 
stroke:#000000; stroke-width:39.3701; stroke-opacity:1; 
stroke-linecap:round; stroke-linejoin:round;">
</g>
<g style="fill:#000000; fill-opacity:1.0; 
stroke:#000000; stroke-width:0; stroke-opacity:1; 
stroke-linecap:round; stroke-linejoin:round;">
<circle cx="14013.1" cy="1029.53" r="314.961" /> 
</g>
<g style="fill:#000000; fill-opacity:1.0; 
stroke:#000000; stroke-width:39.3701; stroke-opacity:1; 
stroke-linecap:round; stroke-linejoin:round;">
</g>
<g style="fill:#000000; fill-opacity:1.0; 
stroke:#000000; stroke-width:0; stroke-opacity:1; 
stroke-linecap:round; stroke-linejoin:round;">
<circle cx="15713.1" cy="39129.5" r="314.961" /> 
</g>
<g style="fill:#000000; fill-opacity:1.0; 
stroke:#000000; stroke-width:39.3701; stroke-opacity:1; 
stroke-linecap:round; stroke-linejoin:round;">
</g>
<g style="fill:#000000; fill-opacity:1.0; 
stroke:#000000; stroke-width:0; stroke-opacity:1; 
stroke-linecap:round; stroke-linejoin:round;">
<circle cx="17313.1" cy="22429.5" r="314.961" /> 
</g>
<g style="fill:#000000; fill-opacity:1.0; 
stroke:#000000; stroke-width:39.3701; stroke-opacity:1; 
stroke-linecap:round; stroke-linejoin:round;">
</g>
<g style="fill:#000000; fill-opacity:1.0; 
stroke:#000000; stroke-width:0; stroke-opacity:1; 
stroke-linecap:round; stroke-linejoin:round;">
<circle cx="16264.3" cy="38029.5" r="314.961" /> 
</g>
<g style="fill:#000000; fill-opacity:1.0; 
stroke:#000000; stroke-width:39.3701; stroke-opacity:1; 
stroke-linecap:round; stroke-linejoin:round;">
</g>
<g style="fill:#000000; fill-opacity:1.0; 
stroke:#000000; stroke-width:0; stroke-opacity:1; 
stroke-linecap:round; stroke-linejoin:round;">
<circle cx="14013.1" cy="6229.53" r="314.961" /> 
</g>
<g style="fill:#000000; fill-opacity:1.0; 
stroke:#000000; stroke-width:39.3701; stroke-opacity:1; 
stroke-linecap:round; stroke-linejoin:round;">
</g>
<g style="fill:#000000; fill-opacity:1.0; 
stroke:#000000; stroke-width:0; stroke-opacity:1; 
stroke-linecap:round; stroke-linejoin:round;">
<circle cx="15113.1" cy="40429.5" r="314.961" /> 
</g>
<g style="fill:#000000; fill-opacity:1.0; 
stroke:#000000; stroke-width:39.3701; stroke-opacity:1; 
stroke-linecap:round; stroke-linejoin:round;">
</g>
<g style="fill:#000000; fill-opacity:1.0; 
stroke:#000000; stroke-width:0; stroke-opacity:1; 
stroke-linecap:round; stroke-linejoin:round;">
<circle cx="5313.07" cy="16129.5" r="314.961" /> 
</g>
<g style="fill:#000000; fill-opacity:1.0; 
stroke:#000000; stroke-width:39.3701; stroke-opacity:1; 
stroke-linecap:round; stroke-linejoin:round;">
</g>
<g style="fill:#000000; fill-opacity:1.0; 
stroke:#000000; stroke-width:0; stroke-opacity:1; 
stroke-linecap:round; stroke-linejoin:round;">
<circle cx="22413.1" cy="29129.5" r="314.961" /> 
</g>
<g style="fill:#000000; fill-opacity:1.0; 
stroke:#000000; stroke-width:39.3701; stroke-opacity:1; 
stroke-linecap:round; stroke-linejoin:round;">
</g>
<g style="fill:#000000; fill-opacity:1.0; 
stroke:#000000; stroke-width:0; stroke-opacity:1; 
stroke-linecap:round; stroke-linejoin:round;">
<circle cx="7013.07" cy="6429.53" r="314.961" /> 
</g>
<g style="fill:#000000; fill-opacity:1.0; 
stroke:#000000; stroke-width:39.3701; stroke-opacity:1; 
stroke-linecap:round; stroke-linejoin:round;">
</g>
<g style="fill:#000000; fill-opacity:1.0; 
stroke:#000000; stroke-width:0; stroke-opacity:1; 
stroke-linecap:round; stroke-linejoin:round;">
<circle cx="8013.07" cy="1029.53" r="314.961" /> 
</g>
<g style="fill:#000000; fill-opacity:1.0; 
stroke:#000000; stroke-width:39.3701; stroke-opacity:1; 
stroke-linecap:round; stroke-linejoin:round;">
</g>
<g style="fill:#000000; fill-opacity:1.0; 
stroke:#000000; stroke-width:0; stroke-opacity:1; 
stroke-linecap:round; stroke-linejoin:round;">
<circle cx="5413.07" cy="28129.5" r="314.961" /> 
</g>
<g style="fill:#000000; fill-opacity:1.0; 
stroke:#000000; stroke-width:39.3701; stroke-opacity:1; 
stroke-linecap:round; stroke-linejoin:round;">
</g>
<g style="fill:#000000; fill-opacity:1.0; 
stroke:#000000; stroke-width:0; stroke-opacity:1; 
stroke-linecap:round; stroke-linejoin:round;">
<circle cx="5413.07" cy="34129.5" r="314.961" /> 
</g>
<g style="fill:#000000; fill-opacity:1.0; 
stroke:#000000; stroke-width:39.3701; stroke-opacity:1; 
stroke-linecap:round; stroke-linejoin:round;">
</g>
<g style="fill:#000000; fill-opacity:1.0; 
stroke:#000000; stroke-width:0; stroke-opacity:1; 
stroke-linecap:round; stroke-linejoin:round;">
<circle cx="20713.1" cy="22329.5" r="314.961" /> 
</g>
<g style="fill:#000000; fill-opacity:1.0; 
stroke:#000000; stroke-width:39.3701; stroke-opacity:1; 
stroke-linecap:round; stroke-linejoin:round;">
</g>
<g style="fill:#000000; fill-opacity:1.0; 
stroke:#000000; stroke-width:0; stroke-opacity:1; 
stroke-linecap:round; stroke-linejoin:round;">
<circle cx="2113.07" cy="4829.53" r="314.961" /> 
</g>
<g style="fill:#000000; fill-opacity:1.0; 
stroke:#000000; stroke-width:39.3701; stroke-opacity:1; 
stroke-linecap:round; stroke-linejoin:round;">
</g>
<g style="fill:#000000; fill-opacity:1.0; 
stroke:#000000; stroke-width:0; stroke-opacity:1; 
stroke-linecap:round; stroke-linejoin:round;">
<circle cx="16913.1" cy="19329.5" r="314.961" /> 
</g>
<g style="fill:#000000; fill-opacity:1.0; 
stroke:#000000; stroke-width:39.3701; stroke-opacity:1; 
stroke-linecap:round; stroke-linejoin:round;">
</g>
<g style="fill:#000000; fill-opacity:1.0; 
stroke:#000000; stroke-width:0; stroke-opacity:1; 
stroke-linecap:round; stroke-linejoin:round;">
<circle cx="11913.1" cy="10229.5" r="314.961" /> 
</g>
<g style="fill:#000000; fill-opacity:1.0; 
stroke:#000000; stroke-width:39.3701; stroke-opacity:1; 
stroke-linecap:round; stroke-linejoin:round;">
</g>
<g style="fill:#000000; fill-opacity:1.0; 
stroke:#000000; stroke-width:0; stroke-opacity:1; 
stroke-linecap:round; stroke-linejoin:round;">
<circle cx="21513.1" cy="24329.5" r="314.961" /> 
</g>
<g style="fill:#000000; fill-opacity:1.0; 
stroke:#000000; stroke-width:39.3701; stroke-opacity:1; 
stroke-linecap:round; stroke-linejoin:round;">
</g>
<g style="fill:#000000; fill-opacity:1.0; 
stroke:#000000; stroke-width:0; stroke-opacity:1; 
stroke-linecap:round; stroke-linejoin:round;">
<circle cx="16813.1" cy="4529.53" r="314.961" /> 
</g>
<g style="fill:#000000; fill-opacity:1.0; 
stroke:#000000; stroke-width:39.3701; stroke-opacity:1; 
stroke-linecap:round; stroke-linejoin:round;">
</g>
<g style="fill:#000000; fill-opacity:1.0; 
stroke:#000000; stroke-width:0; stroke-opacity:1; 
stroke-linecap:round; stroke-linejoin:round;">
<circle cx="7013.07" cy="10329.5" r="314.961" /> 
</g>
<g style="fill:#000000; fill-opacity:1.0; 
stroke:#000000; stroke-width:39.3701; stroke-opacity:1; 
stroke-linecap:round; stroke-linejoin:round;">
</g>
<g style="fill:#000000; fill-opacity:1.0; 
stroke:#000000; stroke-width:0; stroke-opacity:1; 
stroke-linecap:round; stroke-linejoin:round;">
<circle cx="11813.1" cy="4659.45" r="314.961" /> 
</g>
<g style="fill:#000000; fill-opacity:1.0; 
stroke:#000000; stroke-width:39.3701; stroke-opacity:1; 
stroke-linecap:round; stroke-linejoin:round;">
</g>
<g style="fill:#000000; fill-opacity:1.0; 
stroke:#000000; stroke-width:0; stroke-opacity:1; 
stroke-linecap:round; stroke-linejoin:round;">
<circle cx="2613.07" cy="21329.5" r="314.961" /> 
</g>
<g style="fill:#000000; fill-opacity:1.0; 
stroke:#000000; stroke-width:39.3701; stroke-opacity:1; 
stroke-linecap:round; stroke-linejoin:round;">
</g>
<g style="fill:#000000; fill-opacity:1.0; 
stroke:#000000; stroke-width:0; stroke-opacity:1; 
stroke-linecap:round; stroke-linejoin:round;">
<circle cx="1979.22" cy="24829.5" r="314.961" /> 
</g>
<g style="fill:#000000; fill-opacity:1.0; 
stroke:#000000; stroke-width:39.3701; stroke-opacity:1; 
stroke-linecap:round; stroke-linejoin:round;">
</g>
<g style="fill:#000000; fill-opacity:1.0; 
stroke:#000000; stroke-width:0; stroke-opacity:1; 
stroke-linecap:round; stroke-linejoin:round;">
<circle cx="18913.1" cy="11278.3" r="314.961" /> 
</g>
<g style="fill:#000000; fill-opacity:1.0; 
stroke:#000000; stroke-width:39.3701; stroke-opacity:1; 
stroke-linecap:round; stroke-linejoin:round;">
</g>
<g style="fill:#000000; fill-opacity:1.0; 
stroke:#000000; stroke-width:0; stroke-opacity:1; 
stroke-linecap:round; stroke-linejoin:round;">
<circle cx="11861.9" cy="18529.5" r="314.961" /> 
</g>
<g style="fill:#000000; fill-opacity:1.0; 
stroke:#000000; stroke-width:39.3701; stroke-opacity:1; 
stroke-linecap:round; stroke-linejoin:round;">
</g>
<g style="fill:#000000; fill-opacity:1.0; 
stroke:#000000; stroke-width:0; stroke-opacity:1; 
stroke-linecap:round; stroke-linejoin:round;">
<circle cx="6864.26" cy="19229.5" r="314.961" /> 
</g>
<g style="fill:#000000; fill-opacity:1.0; 
stroke:#000000; stroke-width:39.3701; stroke-opacity:1; 
stroke-linecap:round; stroke-linejoin:round;">
</g>
<g style="fill:#000000; fill-opacity:1.0; 
stroke:#000000; stroke-width:0; stroke-opacity:1; 
stroke-linecap:round; stroke-linejoin:round;">
<circle cx="16813.1" cy="10229.5" r="314.961" /> 
</g>
<g style="fill:#000000; fill-opacity:1.0; 
stroke:#000000; stroke-width:39.3701; stroke-opacity:1; 
stroke-linecap:round; stroke-linejoin:round;">
</g>
<g style="fill:#000000; fill-opacity:1.0; 
stroke:#000000; stroke-width:0; stroke-opacity:1; 
stroke-linecap:round; stroke-linejoin:round;">
<circle cx="11461.9" cy="23929.5" r="314.961" /> 
</g>
<g style="fill:#000000; fill-opacity:1.0; 
stroke:#000000; stroke-width:39.3701; stroke-opacity:1; 
stroke-linecap:round; stroke-linejoin:round;">
</g>
<g style="fill:#000000; fill-opacity:1.0; 
stroke:#000000; stroke-width:0; stroke-opacity:1; 
stroke-linecap:round; stroke-linejoin:round;">
<circle cx="21713.1" cy="4829.53" r="314.961" /> 
</g>
<g style="fill:#000000; fill-opacity:1.0; 
stroke:#000000; stroke-width:39.3701; stroke-opacity:1; 
stroke-linecap:round; stroke-linejoin:round;">
</g>
<g style="fill:#000000; fill-opacity:1.0; 
stroke:#000000; stroke-width:0; stroke-opacity:1; 
stroke-linecap:round; stroke-linejoin:round;">
<circle cx="6361.89" cy="24129.5" r="314.961" /> 
</g>
<g style="fill:#000000; fill-opacity:1.0; 
stroke:#000000; stroke-width:39.3701; stroke-opacity:1; 
stroke-linecap:round; stroke-linejoin:round;">
</g>
<g style="fill:#000000; fill-opacity:1.0; 
stroke:#000000; stroke-width:0; stroke-opacity:1; 
stroke-linecap:round; stroke-linejoin:round;">
<circle cx="9864.26" cy="30329.5" r="314.961" /> 
</g>
<g style="fill:#000000; fill-opacity:1.0; 
stroke:#000000; stroke-width:39.3701; stroke-opacity:1; 
stroke-linecap:round; stroke-linejoin:round;">
</g>
<g style="fill:#000000; fill-opacity:1.0; 
stroke:#000000; stroke-width:0; stroke-opacity:1; 
stroke-linecap:round; stroke-linejoin:round;">
<circle cx="2313.07" cy="34829.5" r="314.961" /> 
</g>
<g style="fill:#000000; fill-opacity:1.0; 
stroke:#000000; stroke-width:39.3701; stroke-opacity:1; 
stroke-linecap:round; stroke-linejoin:round;">
</g>
<g style="fill:#000000; fill-opacity:1.0; 
stroke:#000000; stroke-width:0; stroke-opacity:1; 
stroke-linecap:round; stroke-linejoin:round;">
<circle cx="20564.3" cy="28729.5" r="314.961" /> 
</g>
<g style="fill:#000000; fill-opacity:1.0; 
stroke:#000000; stroke-width:39.3701; stroke-opacity:1; 
stroke-linecap:round; stroke-linejoin:round;">
</g>
<g >
</g>
<g style="fill:#000000; fill-opacity:1.0; 
stroke:#000000; stroke-width:39.3701; stroke-opacity:1; 
stroke-linecap:round; stroke-linejoin:round;">
</g>
<g style="fill:#000000; fill-opacity:1.0; 
stroke:#000000; stroke-width:157.48; stroke-opacity:1; 
stroke-linecap:round; stroke-linejoin:round;">
</g>
<g style="fill:#000000; fill-opacity:0.0; 
stroke:#000000; stroke-width:157.48; stroke-opacity:1; 
stroke-linecap:round; stroke-linejoin:round;">
<path d="M19513 35629
L19513 1929
" />
<path d="M19513 1929
L19328 1744
" />
<path d="M19328 1744
L19013 1429
" />
<path d="M10898 42014
L11213 42329
" />
<path d="M9413 1029
L9313 1129
" />
<path d="M9313 40429
L10898 42014
" />
<path d="M9313 1129
L9313 40429
" />
<path d="M8128 38614
L7828 38914
" />
<path d="M7828 38914
L7513 39229
" />
<path d="M8128 5944
L8128 38614
" />
<path d="M7813 5629
L8128 5944
" />
<path d="M6413 22429
L6013 22429
" />
<path d="M6413 22429
L5942 22429
" />
<path d="M6328 37314
L6013 37629
" />
<path d="M6413 22429
L6928 22944
" />
<path d="M6928 36714
L6328 37314
" />
<path d="M6928 22944
L6928 36714
" />
<path d="M4113 34426
L5216 35529
" />
<path d="M4113 1129
L4113 34426
" />
<path d="M5216 35529
L5661 35529
" />
<path d="M14513 22429
L14513 41629
" />
<path d="M14513 41629
L13028 43114
" />
<path d="M13028 43114
L12713 43429
" />
<path d="M12413 36529
L12028 36914
" />
<path d="M12413 23629
L12413 36529
" />
<path d="M12028 36914
L11713 37229
" />
<path d="M11413 22629
L12413 23629
" />
<path d="M11498 6844
L11813 6529
" />
<path d="M10613 7729
L11498 6844
" />
<path d="M10613 34729
L10613 7729
" />
<path d="M11213 35329
L10613 34729
" />
<path d="M18646 7513
L18961 7198
" />
<path d="M18213 35929
L18213 7947
" />
<path d="M18213 7947
L18646 7513
" />
<path d="M18813 36529
L18213 35929
" />
<path d="M15713 2729
L15713 39129
" />
<path d="M14013 1029
L15713 2729
" />
<path d="M17313 22429
L16264 23478
" />
<path d="M16264 37584
L16264 38029
" />
<path d="M16264 23478
L16264 37584
" />
<path d="M14013 6229
L15113 7329
" />
<path d="M15113 7329
L15113 40429
" />
</g>
<g style="fill:#000000; fill-opacity:0.0; 
stroke:#000000; stroke-width:314.961; stroke-opacity:1; 
stroke-linecap:round; stroke-linejoin:round;">
<path d="M5313 15684
L5313 16129
" />
<path d="M5313 8574
L5313 15684
" />
<path d="M7013 6874
L5313 8574
" />
<path d="M7013 6429
L7013 6874
" />
<path d="M7013 2029
L7013 6429
" />
<path d="M8013 1029
L7013 2029
" />
<path d="M5313 28029
L5413 28129
" />
<path d="M5313 16129
L5313 28029
" />
<path d="M5413 28129
L5413 34129
" />
<path d="M22413 28684
L22413 29129
" />
<path d="M22413 23429
L22413 28684
" />
<path d="M21313 22329
L22413 23429
" />
<path d="M20713 22329
L21313 22329
" />
</g>
<g >
</g>
<g style="fill:#000000; fill-opacity:0.0; 
stroke:#000000; stroke-width:314.961; stroke-opacity:1; 
stroke-linecap:round; stroke-linejoin:round;">
</g>
<g style="fill:#000000; fill-opacity:1.0; 
stroke:#000000; stroke-width:100; stroke-opacity:1; 
stroke-linecap:round; stroke-linejoin:round;">
<path style="fill:#000000; fill-opacity:1.0; 
stroke:#000000; stroke-width:100; stroke-opacity:1; 
stroke-linecap:round; stroke-linejoin:round;fill-rule:evenodd;"
d="M 1385.39,13046.9
1402.74,13029.5
1508.16,12959.1
1625.31,12910.6
1749.67,12885.8
1876.47,12885.8
2000.83,12910.6
2117.98,12959.1
2223.41,13029.5
2313.07,13119.2
2383.51,13224.6
2432.03,13341.8
2456.77,13466.1
2456.77,13592.9
2432.03,13717.3
2383.51,13834.4
2313.07,13939.9
2223.41,14029.5
2117.98,14100
2000.83,14148.5
1876.47,14173.2
1749.67,14173.2
1625.31,14148.5
1508.16,14100
1402.74,14029.5
1387.73,14014.5
1439.29,35307.8
1549.67,35285.8
1676.47,35285.8
1800.83,35310.6
1917.98,35359.1
2023.41,35429.5
2113.07,35519.2
2183.51,35624.6
2232.03,35741.8
2256.77,35866.1
2256.77,35992.9
2232.03,36117.3
2183.51,36234.4
2113.07,36339.9
2023.41,36429.5
1917.98,36500
1800.83,36548.5
1676.47,36573.2
1549.67,36573.2
1442.3,36551.9
1462.95,45079.3
22062.7,44979.8
22040.6,41951.5
22025.3,41948.5
21908.2,41900
21802.7,41829.5
21713.1,41739.9
21642.6,41634.4
21594.1,41517.3
21569.4,41392.9
21569.4,41266.1
21594.1,41141.8
21642.6,41024.6
21713.1,40919.2
21802.7,40829.5
21908.2,40759.1
22025.3,40710.6
22031.5,40709.3
21949.4,29452.5
21912.4,29397.1
21869.8,29294.3
21848.1,29185.2
21848.1,29073.9
21869.8,28964.7
21912.4,28861.9
21944.7,28813.6
21905.9,23498.6
21144.3,22737
21104.6,22737
21073.2,22768.4
20980.7,22830.2
20877.9,22872.8
20768.7,22894.5
20657.4,22894.5
20548.3,22872.8
20445.5,22830.2
20352.9,22768.4
20274.2,22689.7
20212.4,22597.1
20169.8,22494.3
20148.1,22385.2
20148.1,22273.9
20169.8,22164.7
20212.4,22061.9
20274.2,21969.4
20352.9,21890.7
20445.5,21828.9
20548.3,21786.3
20657.4,21764.6
20768.7,21764.6
20877.9,21786.3
20980.7,21828.9
21073.2,21890.7
21104.6,21922
21293.1,21922
21313.1,21920.1
21333.1,21922
21333.1,21922
21393,21927.9
21469.8,21951.2
21502.7,21968.9
21540.5,21989.1
21587,22027.2
21602.6,22040
21615.4,22055.5
21897.4,22337.6
21838.4,14251.1
21825.3,14248.5
21708.2,14200
21602.7,14129.5
21513.1,14039.9
21442.6,13934.4
21394.1,13817.3
21369.4,13692.9
21369.4,13566.1
21394.1,13441.8
21442.6,13324.6
21513.1,13219.2
21602.7,13129.5
21708.2,13059.1
21825.3,13010.6
21829.3,13009.8
21763.4,3979.29
19841.8,3969.91
19841.8,35169.7
19873.2,35190.7
19951.9,35269.4
20013.7,35361.9
20056.3,35464.7
20078,35573.9
20078,35685.2
20056.3,35794.3
20013.7,35897.1
19951.9,35989.7
19873.2,36068.4
19780.7,36130.2
19677.9,36172.8
19568.7,36194.5
19457.4,36194.5
19348.3,36172.8
19245.5,36130.2
19152.9,36068.4
19074.2,35989.7
19012.4,35897.1
18969.8,35794.3
18948.1,35685.2
18948.1,35573.9
18969.8,35464.7
19012.4,35361.9
19074.2,35269.4
19152.9,35190.7
19184.3,35169.7
19184.3,7718.19
19126.7,7742.07
19017.5,7763.78
18906.2,7763.78
18869.2,7756.41
18868,7757.65
18868,7757.65
18541.8,8083.8
18541.8,35793.4
18720.4,35971.9
18757.4,35964.6
18868.7,35964.6
18977.9,35986.3
19080.7,36028.9
19173.2,36090.7
19251.9,36169.4
19313.7,36261.9
19356.3,36364.7
19378,36473.9
19378,36585.2
19356.3,36694.3
19313.7,36797.1
19251.9,36889.7
19173.2,36968.4
19080.7,37030.2
18977.9,37072.8
18868.7,37094.5
18757.4,37094.5
18648.3,37072.8
18545.5,37030.2
18452.9,36968.4
18374.2,36889.7
18312.4,36797.1
18269.8,36694.3
18248.1,36585.2
18248.1,36473.9
18255.5,36436.8
17992,36173.4
17979.5,36163.1
17938.4,36113
17907.9,36055.9
17889.1,35994
17884.3,35945.7
17884.3,35945.7
17882.7,35929.5
17884.3,35913.4
17884.3,7963.78
17882.7,7947.63
17884.3,7931.49
17884.3,7931.48
17889.1,7883.19
17907.9,7821.22
17938.4,7764.11
17979.5,7714.05
17992,7703.76
18403.1,7292.74
18403.1,7292.74
18404.3,7291.5
18396.9,7254.46
18396.9,7143.17
18418.6,7034.02
18461.2,6931.21
18523.1,6838.68
18601.7,6759.98
18694.3,6698.16
18797.1,6655.57
18906.2,6633.86
19017.5,6633.86
19126.7,6655.57
19184.3,6679.45
19184.3,3966.71
16041.8,3951.38
16041.8,23235.6
16043.2,23234.5
16755.5,22522.2
16748.1,22485.2
16748.1,22373.9
16769.8,22264.7
16812.4,22161.9
16874.2,22069.4
16952.9,21990.7
17045.5,21928.9
17148.3,21886.3
17257.4,21864.6
17368.7,21864.6
17477.9,21886.3
17580.7,21928.9
17673.2,21990.7
17751.9,22069.4
17813.7,22161.9
17856.3,22264.7
17878,22373.9
17878,22485.2
17856.3,22594.3
17813.7,22697.1
17751.9,22789.7
17673.2,22868.4
17580.7,22930.2
17477.9,22972.8
17368.7,22994.5
17257.4,22994.5
17220.4,22987.1
16593,23614.5
16593,37568
16593,37568
16593,37569.7
16624.4,37590.7
16703.1,37669.4
16764.9,37761.9
16807.5,37864.7
16829.2,37973.9
16829.2,38085.2
16807.5,38194.3
16764.9,38297.1
16703.1,38389.7
16624.4,38468.4
16531.9,38530.2
16429,38572.8
16319.9,38594.5
16208.6,38594.5
16099.5,38572.8
16041.8,38548.9
16041.8,38669.7
16073.2,38690.7
16151.9,38769.4
16213.7,38861.9
16256.3,38964.7
16278,39073.9
16278,39185.2
16256.3,39294.3
16213.7,39397.1
16151.9,39489.7
16073.2,39568.4
15980.7,39630.2
15877.9,39672.8
15768.7,39694.5
15657.4,39694.5
15548.3,39672.8
15445.5,39630.2
15441.8,39627.7
15441.8,39969.7
15473.2,39990.7
15551.9,40069.4
15613.7,40161.9
15656.3,40264.7
15678,40373.9
15678,40485.2
15656.3,40594.3
15613.7,40697.1
15551.9,40789.7
15473.2,40868.4
15380.7,40930.2
15277.9,40972.8
15168.7,40994.5
15057.4,40994.5
14948.3,40972.8
14845.5,40930.2
14841.8,40927.7
14841.8,41613.4
14843.4,41629.5
14837.1,41694
14818.3,41755.9
14798.2,41793.5
14787.7,41813.1
14746.6,41863.1
14734.1,41873.4
13270.7,43336.8
13278,43373.9
13278,43485.2
13256.3,43594.3
13213.7,43697.1
13151.9,43789.7
13073.2,43868.4
12980.7,43930.2
12877.9,43972.8
12768.7,43994.5
12657.4,43994.5
12548.3,43972.8
12445.5,43930.2
12352.9,43868.4
12274.2,43789.7
12212.4,43697.1
12169.8,43594.3
12148.1,43485.2
12148.1,43373.9
12169.8,43264.7
12212.4,43161.9
12274.2,43069.4
12352.9,42990.7
12445.5,42928.9
12548.3,42886.3
12657.4,42864.6
12768.7,42864.6
12805.8,42871.9
14184.3,41493.4
14184.3,23629.5
12743.4,23629.5
12741.8,23645.7
12741.8,36513.4
12743.4,36529.5
12737.1,36594
12718.3,36655.9
12698.2,36693.5
12687.7,36713.1
12646.6,36763.1
12634.1,36773.4
12270.7,37136.8
12278,37173.9
12278,37285.2
12256.3,37394.3
12213.7,37497.1
12151.9,37589.7
12073.2,37668.4
11980.7,37730.2
11877.9,37772.8
11768.7,37794.5
11657.4,37794.5
11548.3,37772.8
11445.5,37730.2
11352.9,37668.4
11274.2,37589.7
11212.4,37497.1
11169.8,37394.3
11148.1,37285.2
11148.1,37173.9
11169.8,37064.7
11212.4,36961.9
11274.2,36869.4
11352.9,36790.7
11445.5,36728.9
11548.3,36686.3
11657.4,36664.6
11768.7,36664.6
11805.8,36671.9
12084.3,36393.4
12084.3,23765.7
11505.8,23187.1
11468.7,23194.5
11357.4,23194.5
11248.3,23172.8
11145.5,23130.2
11052.9,23068.4
10974.2,22989.7
10941.8,22941.1
10941.8,34593.4
11120.4,34771.9
11157.4,34764.6
11268.7,34764.6
11377.9,34786.3
11480.7,34828.9
11573.2,34890.7
11651.9,34969.4
11713.7,35061.9
11756.3,35164.7
11778,35273.9
11778,35385.2
11756.3,35494.3
11713.7,35597.1
11651.9,35689.7
11573.2,35768.4
11480.7,35830.2
11377.9,35872.8
11268.7,35894.5
11157.4,35894.5
11048.3,35872.8
10945.5,35830.2
10852.9,35768.4
10774.2,35689.7
10712.4,35597.1
10669.8,35494.3
10648.1,35385.2
10648.1,35273.9
10655.5,35236.8
10392,34973.4
10379.5,34963.1
10338.4,34913
10307.9,34855.9
10289.1,34794
10284.3,34745.7
10284.3,34745.7
10282.7,34729.5
10284.3,34713.4
10284.3,7745.68
10282.7,7729.53
10284.3,7713.38
10289.1,7665.08
10307.9,7603.12
10338.4,7546.01
10379.5,7495.95
10392,7485.65
11254.2,6623.45
11254.2,6623.45
11255.5,6622.21
11248.1,6585.17
11248.1,6473.88
11269.8,6364.74
11312.4,6261.92
11374.2,6169.39
11452.9,6090.69
11545.5,6028.87
11648.3,5986.28
11757.4,5964.57
11868.7,5964.57
11977.9,5986.28
12080.7,6028.87
12173.2,6090.69
12251.9,6169.39
12313.7,6261.92
12356.3,6364.74
12378,6473.88
12378,6585.17
12356.3,6694.32
12313.7,6797.14
12251.9,6889.67
12173.2,6968.36
12080.7,7030.19
11977.9,7072.78
11868.7,7094.49
11757.4,7094.49
11720.4,7087.12
11719.1,7088.36
11719.1,7088.36
10941.8,7865.7
10941.8,22317.9
10974.2,22269.4
11052.9,22190.7
11145.5,22128.9
11248.3,22086.3
11357.4,22064.6
11468.7,22064.6
11577.9,22086.3
11680.7,22128.9
11773.2,22190.7
11851.9,22269.4
11913.7,22361.9
11956.3,22464.7
11978,22573.9
11978,22685.2
11970.7,22722.2
12634.1,23385.7
12646.6,23395.9
12687.7,23446
12687.7,23446
12718.3,23503.1
12737.1,23565.1
12743.4,23629.5
14184.3,23629.5
14184.3,22889.3
14152.9,22868.4
14074.2,22789.7
14012.4,22697.1
13969.8,22594.3
13948.1,22485.2
13948.1,22373.9
13969.8,22264.7
14012.4,22161.9
14074.2,22069.4
14152.9,21990.7
14245.5,21928.9
14348.3,21886.3
14457.4,21864.6
14568.7,21864.6
14677.9,21886.3
14780.7,21928.9
14784.3,21931.3
14784.3,7465.7
14105.8,6787.12
14068.7,6794.49
13957.4,6794.49
13848.3,6772.78
13745.5,6730.19
13652.9,6668.36
13574.2,6589.67
13512.4,6497.14
13469.8,6394.32
13448.1,6285.17
13448.1,6173.88
13469.8,6064.74
13512.4,5961.92
13574.2,5869.39
13652.9,5790.69
13745.5,5728.87
13848.3,5686.28
13957.4,5664.57
14068.7,5664.57
14177.9,5686.28
14280.7,5728.87
14373.2,5790.69
14451.9,5869.39
14513.7,5961.92
14556.3,6064.74
14578,6173.88
14578,6285.17
14570.7,6322.21
15334.1,7085.65
15346.6,7095.95
15378.2,7134.37
15384.3,7141.86
15384.3,3948.17
9641.81,3920.16
9641.81,40293.4
11120.4,41771.9
11157.4,41764.6
11268.7,41764.6
11377.9,41786.3
11480.7,41828.9
11573.2,41890.7
11651.9,41969.4
11713.7,42061.9
11756.3,42164.7
11778,42273.9
11778,42385.2
11756.3,42494.3
11713.7,42597.1
11651.9,42689.7
11573.2,42768.4
11480.7,42830.2
11377.9,42872.8
11268.7,42894.5
11157.4,42894.5
11048.3,42872.8
10945.5,42830.2
10852.9,42768.4
10774.2,42689.7
10712.4,42597.1
10669.8,42494.3
10648.1,42385.2
10648.1,42273.9
10655.5,42236.8
9092.04,40673.4
9079.49,40663.1
9038.41,40613.1
9007.88,40555.9
8989.09,40494
8984.33,40445.7
8984.33,40445.7
8982.74,40429.5
8984.33,40413.4
8984.33,3916.95
7420.55,3909.32
7420.55,5223.07
7452.93,5190.69
7545.46,5128.87
7648.28,5086.28
7757.43,5064.57
7868.71,5064.57
7977.86,5086.28
8080.68,5128.87
8173.21,5190.69
8251.9,5269.39
8313.73,5361.92
8356.32,5464.74
8378.03,5573.88
8378.03,5685.17
8370.71,5721.99
8398.57,5755.94
8402.69,5760.97
8433.22,5818.08
8452.01,5880.04
8458.36,5944.49
8456.77,5960.64
8456.77,38598.4
8458.36,38614.6
8452.01,38679
8433.22,38741
8402.69,38798.1
8402.69,38798.1
8361.61,38848.1
8349.06,38858.4
8070.66,39136.8
8078.03,39173.9
8078.03,39285.2
8056.32,39394.3
8013.73,39497.1
7951.9,39589.7
7873.21,39668.4
7780.68,39730.2
7677.86,39772.8
7568.71,39794.5
7457.43,39794.5
7348.28,39772.8
7245.46,39730.2
7152.93,39668.4
7074.24,39589.7
7012.41,39497.1
6969.82,39394.3
6948.11,39285.2
6948.11,39173.9
6969.82,39064.7
7012.41,38961.9
7074.24,38869.4
7152.93,38790.7
7245.46,38728.9
7348.28,38686.3
7457.43,38664.6
7568.71,38664.6
7605.75,38671.9
7799.29,38478.4
7799.29,6194.49
7757.43,6194.49
7648.28,6172.78
7545.46,6130.19
7452.93,6068.36
7420.55,6035.98
7420.55,6038.03
7451.9,6069.39
7513.73,6161.92
7556.32,6264.74
7578.03,6373.88
7578.03,6485.17
7556.32,6594.32
7513.73,6697.14
7451.9,6789.67
7420.55,6821.02
7420.55,6854.93
7422.52,6874.95
7414.65,6954.83
7391.35,7031.64
7353.52,7102.43
7317.75,7146.01
7302.6,7164.48
7287.05,7177.23
5720.55,8743.73
5720.55,15664.1
5720.55,15664.1
5720.55,15738
5751.9,15769.4
5813.73,15861.9
5856.32,15964.7
5878.03,16073.9
5878.03,16185.2
5856.32,16294.3
5813.73,16397.1
5751.9,16489.7
5720.55,16521
5720.55,21910.2
5778.2,21886.3
5887.35,21864.6
5998.64,21864.6
6107.79,21886.3
6210.6,21928.9
6303.14,21990.7
6381.83,22069.4
6402.45,22100.2
6413.07,22099.2
6477.51,22105.5
6539.48,22124.3
6596.59,22154.9
6618.49,22172.8
6646.65,22195.9
6656.94,22208.5
7149.06,22700.6
7161.61,22710.9
7196.57,22753.5
7202.69,22761
7233.22,22818.1
7252.01,22880
7258.36,22944.5
7256.77,22960.6
7256.77,36698.4
7258.36,36714.6
7252.01,36779
7233.22,36841
7202.69,36898.1
7202.69,36898.1
7161.61,36948.1
7149.06,36958.4
6570.66,37536.8
6578.03,37573.9
6578.03,37685.2
6556.32,37794.3
6513.73,37897.1
6451.9,37989.7
6373.21,38068.4
6280.68,38130.2
6177.86,38172.8
6068.71,38194.5
5957.43,38194.5
5848.28,38172.8
5745.46,38130.2
5652.93,38068.4
5574.24,37989.7
5512.41,37897.1
5469.82,37794.3
5448.11,37685.2
5448.11,37573.9
5469.82,37464.7
5512.41,37361.9
5574.24,37269.4
5652.93,37190.7
5745.46,37128.9
5848.28,37086.3
5957.43,37064.6
6068.71,37064.6
6105.76,37071.9
6599.29,36578.4
6599.29,23080.7
6345.07,22826.4
6303.14,22868.4
6210.6,22930.2
6107.79,22972.8
5998.64,22994.5
5887.35,22994.5
5778.2,22972.8
5720.55,22948.9
5720.55,27655.5
5773.21,27690.7
5851.9,27769.4
5913.73,27861.9
5956.32,27964.7
5978.03,28073.9
5978.03,28185.2
5956.32,28294.3
5913.73,28397.1
5851.9,28489.7
5820.55,28521
5820.55,33738
5851.9,33769.4
5913.73,33861.9
5956.32,33964.7
5978.03,34073.9
5978.03,34185.2
5956.32,34294.3
5913.73,34397.1
5851.9,34489.7
5773.21,34568.4
5680.68,34630.2
5577.86,34672.8
5468.71,34694.5
5357.43,34694.5
5248.28,34672.8
5145.46,34630.2
5052.93,34568.4
4974.24,34489.7
4912.41,34397.1
4869.82,34294.3
4848.11,34185.2
4848.11,34073.9
4869.82,33964.7
4912.41,33861.9
4974.24,33769.4
5005.59,33738
5005.59,28521
4974.24,28489.7
4912.41,28397.1
4869.82,28294.3
4848.11,28185.2
4848.11,28073.9
4869.82,27964.7
4905.59,27878.4
4905.59,16521
4874.24,16489.7
4812.41,16397.1
4769.82,16294.3
4748.11,16185.2
4748.11,16073.9
4769.82,15964.7
4812.41,15861.9
4874.24,15769.4
4905.59,15738
4905.59,8594.96
4903.62,8574.95
4905.59,8554.94
4905.59,8554.93
4911.49,8495.07
4934.79,8418.26
4952.4,8385.31
4972.62,8347.47
5010.79,8300.97
5023.54,8285.42
5039.09,8272.66
6553.35,6758.41
6512.41,6697.14
6469.82,6594.32
6448.11,6485.17
6448.11,6373.88
6469.82,6264.74
6512.41,6161.92
6574.24,6069.39
6605.59,6038.03
6605.59,3905.35
4441.81,3894.79
4441.81,34290
5272.14,35120.3
5301.74,35090.7
5394.28,35028.9
5497.09,34986.3
5606.24,34964.6
5717.53,34964.6
5826.68,34986.3
5929.49,35028.9
6022.03,35090.7
6100.72,35169.4
6162.55,35261.9
6205.13,35364.7
6226.85,35473.9
6226.85,35585.2
6205.13,35694.3
6162.55,35797.1
6100.72,35889.7
6022.03,35968.4
5929.49,36030.2
5826.68,36072.8
5717.53,36094.5
5606.24,36094.5
5497.09,36072.8
5394.28,36030.2
5301.74,35968.4
5223.05,35889.7
5202.19,35858.5
5200.32,35858.3
5200.31,35858.3
5152.02,35853.5
5090.05,35834.7
5032.94,35804.2
4982.89,35763.1
4972.59,35750.6
3892.04,34670
3879.49,34659.7
3838.41,34609.7
3807.88,34552.5
3789.09,34490.6
3784.33,34442.3
3784.33,34442.3
3782.74,34426.1
3784.33,34410
3784.33,3891.58
1363.19,3879.77
Z" /> 
</g>
</g>
<g style="fill:#FFFFFF; fill-opacity:1.0; 
stroke:#FFFFFF; stroke-width:100; stroke-opacity:1; 
stroke-linecap:round; stroke-linejoin:round;">
</g>
<g style="fill:#FFFFFF; fill-opacity:1.0; 
stroke:#FFFFFF; stroke-width:0; stroke-opacity:1; 
stroke-linecap:round; stroke-linejoin:round;">
<circle cx="19513.1" cy="35629.5" r="157.48" /> 
</g>
<g style="fill:#FFFFFF; fill-opacity:1.0; 
stroke:#FFFFFF; stroke-width:39.3701; stroke-opacity:1; 
stroke-linecap:round; stroke-linejoin:round;">
</g>
<g style="fill:#FFFFFF; fill-opacity:1.0; 
stroke:#FFFFFF; stroke-width:0; stroke-opacity:1; 
stroke-linecap:round; stroke-linejoin:round;">
<circle cx="19013.1" cy="1429.53" r="157.48" /> 
</g>
<g style="fill:#FFFFFF; fill-opacity:1.0; 
stroke:#FFFFFF; stroke-width:39.3701; stroke-opacity:1; 
stroke-linecap:round; stroke-linejoin:round;">
</g>
<g style="fill:#FFFFFF; fill-opacity:1.0; 
stroke:#FFFFFF; stroke-width:0; stroke-opacity:1; 
stroke-linecap:round; stroke-linejoin:round;">
<circle cx="9413.07" cy="1029.53" r="157.48" /> 
</g>
<g style="fill:#FFFFFF; fill-opacity:1.0; 
stroke:#FFFFFF; stroke-width:39.3701; stroke-opacity:1; 
stroke-linecap:round; stroke-linejoin:round;">
</g>
<g style="fill:#FFFFFF; fill-opacity:1.0; 
stroke:#FFFFFF; stroke-width:0; stroke-opacity:1; 
stroke-linecap:round; stroke-linejoin:round;">
<circle cx="11213.1" cy="42329.5" r="157.48" /> 
</g>
<g style="fill:#FFFFFF; fill-opacity:1.0; 
stroke:#FFFFFF; stroke-width:39.3701; stroke-opacity:1; 
stroke-linecap:round; stroke-linejoin:round;">
</g>
<g style="fill:#FFFFFF; fill-opacity:1.0; 
stroke:#FFFFFF; stroke-width:0; stroke-opacity:1; 
stroke-linecap:round; stroke-linejoin:round;">
<circle cx="7813.07" cy="5629.53" r="157.48" /> 
</g>
<g style="fill:#FFFFFF; fill-opacity:1.0; 
stroke:#FFFFFF; stroke-width:39.3701; stroke-opacity:1; 
stroke-linecap:round; stroke-linejoin:round;">
</g>
<g style="fill:#FFFFFF; fill-opacity:1.0; 
stroke:#FFFFFF; stroke-width:0; stroke-opacity:1; 
stroke-linecap:round; stroke-linejoin:round;">
<circle cx="7513.07" cy="39229.5" r="157.48" /> 
</g>
<g style="fill:#FFFFFF; fill-opacity:1.0; 
stroke:#FFFFFF; stroke-width:39.3701; stroke-opacity:1; 
stroke-linecap:round; stroke-linejoin:round;">
</g>
<g style="fill:#FFFFFF; fill-opacity:1.0; 
stroke:#FFFFFF; stroke-width:0; stroke-opacity:1; 
stroke-linecap:round; stroke-linejoin:round;">
<circle cx="5943" cy="22429.5" r="157.48" /> 
</g>
<g style="fill:#FFFFFF; fill-opacity:1.0; 
stroke:#FFFFFF; stroke-width:39.3701; stroke-opacity:1; 
stroke-linecap:round; stroke-linejoin:round;">
</g>
<g style="fill:#FFFFFF; fill-opacity:1.0; 
stroke:#FFFFFF; stroke-width:0; stroke-opacity:1; 
stroke-linecap:round; stroke-linejoin:round;">
<circle cx="6013.07" cy="37629.5" r="157.48" /> 
</g>
<g style="fill:#FFFFFF; fill-opacity:1.0; 
stroke:#FFFFFF; stroke-width:39.3701; stroke-opacity:1; 
stroke-linecap:round; stroke-linejoin:round;">
</g>
<g style="fill:#FFFFFF; fill-opacity:1.0; 
stroke:#FFFFFF; stroke-width:0; stroke-opacity:1; 
stroke-linecap:round; stroke-linejoin:round;">
<circle cx="4113.07" cy="1129.53" r="157.48" /> 
</g>
<g style="fill:#FFFFFF; fill-opacity:1.0; 
stroke:#FFFFFF; stroke-width:39.3701; stroke-opacity:1; 
stroke-linecap:round; stroke-linejoin:round;">
</g>
<g style="fill:#FFFFFF; fill-opacity:1.0; 
stroke:#FFFFFF; stroke-width:0; stroke-opacity:1; 
stroke-linecap:round; stroke-linejoin:round;">
<circle cx="5661.89" cy="35529.5" r="157.48" /> 
</g>
<g style="fill:#FFFFFF; fill-opacity:1.0; 
stroke:#FFFFFF; stroke-width:39.3701; stroke-opacity:1; 
stroke-linecap:round; stroke-linejoin:round;">
</g>
<g style="fill:#FFFFFF; fill-opacity:1.0; 
stroke:#FFFFFF; stroke-width:0; stroke-opacity:1; 
stroke-linecap:round; stroke-linejoin:round;">
<circle cx="14513.1" cy="22429.5" r="157.48" /> 
</g>
<g style="fill:#FFFFFF; fill-opacity:1.0; 
stroke:#FFFFFF; stroke-width:39.3701; stroke-opacity:1; 
stroke-linecap:round; stroke-linejoin:round;">
</g>
<g style="fill:#FFFFFF; fill-opacity:1.0; 
stroke:#FFFFFF; stroke-width:0; stroke-opacity:1; 
stroke-linecap:round; stroke-linejoin:round;">
<circle cx="12713.1" cy="43429.5" r="157.48" /> 
</g>
<g style="fill:#FFFFFF; fill-opacity:1.0; 
stroke:#FFFFFF; stroke-width:39.3701; stroke-opacity:1; 
stroke-linecap:round; stroke-linejoin:round;">
</g>
<g style="fill:#FFFFFF; fill-opacity:1.0; 
stroke:#FFFFFF; stroke-width:0; stroke-opacity:1; 
stroke-linecap:round; stroke-linejoin:round;">
<circle cx="11713.1" cy="37229.5" r="157.48" /> 
</g>
<g style="fill:#FFFFFF; fill-opacity:1.0; 
stroke:#FFFFFF; stroke-width:39.3701; stroke-opacity:1; 
stroke-linecap:round; stroke-linejoin:round;">
</g>
<g style="fill:#FFFFFF; fill-opacity:1.0; 
stroke:#FFFFFF; stroke-width:0; stroke-opacity:1; 
stroke-linecap:round; stroke-linejoin:round;">
<circle cx="11413.1" cy="22629.5" r="157.48" /> 
</g>
<g style="fill:#FFFFFF; fill-opacity:1.0; 
stroke:#FFFFFF; stroke-width:39.3701; stroke-opacity:1; 
stroke-linecap:round; stroke-linejoin:round;">
</g>
<g style="fill:#FFFFFF; fill-opacity:1.0; 
stroke:#FFFFFF; stroke-width:0; stroke-opacity:1; 
stroke-linecap:round; stroke-linejoin:round;">
<circle cx="11213.1" cy="35329.5" r="157.48" /> 
</g>
<g style="fill:#FFFFFF; fill-opacity:1.0; 
stroke:#FFFFFF; stroke-width:39.3701; stroke-opacity:1; 
stroke-linecap:round; stroke-linejoin:round;">
</g>
<g style="fill:#FFFFFF; fill-opacity:1.0; 
stroke:#FFFFFF; stroke-width:0; stroke-opacity:1; 
stroke-linecap:round; stroke-linejoin:round;">
<circle cx="11813.1" cy="6529.53" r="157.48" /> 
</g>
<g style="fill:#FFFFFF; fill-opacity:1.0; 
stroke:#FFFFFF; stroke-width:39.3701; stroke-opacity:1; 
stroke-linecap:round; stroke-linejoin:round;">
</g>
<g style="fill:#FFFFFF; fill-opacity:1.0; 
stroke:#FFFFFF; stroke-width:0; stroke-opacity:1; 
stroke-linecap:round; stroke-linejoin:round;">
<circle cx="18813.1" cy="36529.5" r="157.48" /> 
</g>
<g style="fill:#FFFFFF; fill-opacity:1.0; 
stroke:#FFFFFF; stroke-width:39.3701; stroke-opacity:1; 
stroke-linecap:round; stroke-linejoin:round;">
</g>
<g style="fill:#FFFFFF; fill-opacity:1.0; 
stroke:#FFFFFF; stroke-width:0; stroke-opacity:1; 
stroke-linecap:round; stroke-linejoin:round;">
<circle cx="18961.9" cy="7198.82" r="157.48" /> 
</g>
<g style="fill:#FFFFFF; fill-opacity:1.0; 
stroke:#FFFFFF; stroke-width:39.3701; stroke-opacity:1; 
stroke-linecap:round; stroke-linejoin:round;">
</g>
<g style="fill:#FFFFFF; fill-opacity:1.0; 
stroke:#FFFFFF; stroke-width:0; stroke-opacity:1; 
stroke-linecap:round; stroke-linejoin:round;">
<circle cx="14013.1" cy="1029.53" r="157.48" /> 
</g>
<g style="fill:#FFFFFF; fill-opacity:1.0; 
stroke:#FFFFFF; stroke-width:39.3701; stroke-opacity:1; 
stroke-linecap:round; stroke-linejoin:round;">
</g>
<g style="fill:#FFFFFF; fill-opacity:1.0; 
stroke:#FFFFFF; stroke-width:0; stroke-opacity:1; 
stroke-linecap:round; stroke-linejoin:round;">
<circle cx="15713.1" cy="39129.5" r="157.48" /> 
</g>
<g style="fill:#FFFFFF; fill-opacity:1.0; 
stroke:#FFFFFF; stroke-width:39.3701; stroke-opacity:1; 
stroke-linecap:round; stroke-linejoin:round;">
</g>
<g style="fill:#FFFFFF; fill-opacity:1.0; 
stroke:#FFFFFF; stroke-width:0; stroke-opacity:1; 
stroke-linecap:round; stroke-linejoin:round;">
<circle cx="17313.1" cy="22429.5" r="157.48" /> 
</g>
<g style="fill:#FFFFFF; fill-opacity:1.0; 
stroke:#FFFFFF; stroke-width:39.3701; stroke-opacity:1; 
stroke-linecap:round; stroke-linejoin:round;">
</g>
<g style="fill:#FFFFFF; fill-opacity:1.0; 
stroke:#FFFFFF; stroke-width:0; stroke-opacity:1; 
stroke-linecap:round; stroke-linejoin:round;">
<circle cx="16264.3" cy="38029.5" r="157.48" /> 
</g>
<g style="fill:#FFFFFF; fill-opacity:1.0; 
stroke:#FFFFFF; stroke-width:39.3701; stroke-opacity:1; 
stroke-linecap:round; stroke-linejoin:round;">
</g>
<g style="fill:#FFFFFF; fill-opacity:1.0; 
stroke:#FFFFFF; stroke-width:0; stroke-opacity:1; 
stroke-linecap:round; stroke-linejoin:round;">
<circle cx="14013.1" cy="6229.53" r="157.48" /> 
</g>
<g style="fill:#FFFFFF; fill-opacity:1.0; 
stroke:#FFFFFF; stroke-width:39.3701; stroke-opacity:1; 
stroke-linecap:round; stroke-linejoin:round;">
</g>
<g style="fill:#FFFFFF; fill-opacity:1.0; 
stroke:#FFFFFF; stroke-width:0; stroke-opacity:1; 
stroke-linecap:round; stroke-linejoin:round;">
<circle cx="15113.1" cy="40429.5" r="157.48" /> 
</g>
<g style="fill:#FFFFFF; fill-opacity:1.0; 
stroke:#FFFFFF; stroke-width:39.3701; stroke-opacity:1; 
stroke-linecap:round; stroke-linejoin:round;">
</g>
<g style="fill:#FFFFFF; fill-opacity:1.0; 
stroke:#FFFFFF; stroke-width:0; stroke-opacity:1; 
stroke-linecap:round; stroke-linejoin:round;">
<circle cx="5313.07" cy="16129.5" r="157.48" /> 
</g>
<g style="fill:#FFFFFF; fill-opacity:1.0; 
stroke:#FFFFFF; stroke-width:39.3701; stroke-opacity:1; 
stroke-linecap:round; stroke-linejoin:round;">
</g>
<g style="fill:#FFFFFF; fill-opacity:1.0; 
stroke:#FFFFFF; stroke-width:0; stroke-opacity:1; 
stroke-linecap:round; stroke-linejoin:round;">
<circle cx="22413.1" cy="29129.5" r="157.48" /> 
</g>
<g style="fill:#FFFFFF; fill-opacity:1.0; 
stroke:#FFFFFF; stroke-width:39.3701; stroke-opacity:1; 
stroke-linecap:round; stroke-linejoin:round;">
</g>
<g style="fill:#FFFFFF; fill-opacity:1.0; 
stroke:#FFFFFF; stroke-width:0; stroke-opacity:1; 
stroke-linecap:round; stroke-linejoin:round;">
<circle cx="7013.07" cy="6429.53" r="157.48" /> 
</g>
<g style="fill:#FFFFFF; fill-opacity:1.0; 
stroke:#FFFFFF; stroke-width:39.3701; stroke-opacity:1; 
stroke-linecap:round; stroke-linejoin:round;">
</g>
<g style="fill:#FFFFFF; fill-opacity:1.0; 
stroke:#FFFFFF; stroke-width:0; stroke-opacity:1; 
stroke-linecap:round; stroke-linejoin:round;">
<circle cx="8013.07" cy="1029.53" r="157.48" /> 
</g>
<g style="fill:#FFFFFF; fill-opacity:1.0; 
stroke:#FFFFFF; stroke-width:39.3701; stroke-opacity:1; 
stroke-linecap:round; stroke-linejoin:round;">
</g>
<g style="fill:#FFFFFF; fill-opacity:1.0; 
stroke:#FFFFFF; stroke-width:0; stroke-opacity:1; 
stroke-linecap:round; stroke-linejoin:round;">
<circle cx="5413.07" cy="28129.5" r="157.48" /> 
</g>
<g style="fill:#FFFFFF; fill-opacity:1.0; 
stroke:#FFFFFF; stroke-width:39.3701; stroke-opacity:1; 
stroke-linecap:round; stroke-linejoin:round;">
</g>
<g style="fill:#FFFFFF; fill-opacity:1.0; 
stroke:#FFFFFF; stroke-width:0; stroke-opacity:1; 
stroke-linecap:round; stroke-linejoin:round;">
<circle cx="5413.07" cy="34129.5" r="157.48" /> 
</g>
<g style="fill:#FFFFFF; fill-opacity:1.0; 
stroke:#FFFFFF; stroke-width:39.3701; stroke-opacity:1; 
stroke-linecap:round; stroke-linejoin:round;">
</g>
<g style="fill:#FFFFFF; fill-opacity:1.0; 
stroke:#FFFFFF; stroke-width:0; stroke-opacity:1; 
stroke-linecap:round; stroke-linejoin:round;">
<circle cx="20713.1" cy="22329.5" r="157.48" /> 
</g>
<g style="fill:#FFFFFF; fill-opacity:1.0; 
stroke:#FFFFFF; stroke-width:39.3701; stroke-opacity:1; 
stroke-linecap:round; stroke-linejoin:round;">
</g>
<g style="fill:#FFFFFF; fill-opacity:1.0; 
stroke:#FFFFFF; stroke-width:0; stroke-opacity:1; 
stroke-linecap:round; stroke-linejoin:round;">
<circle cx="2113.07" cy="4829.53" r="157.48" /> 
</g>
<g style="fill:#FFFFFF; fill-opacity:1.0; 
stroke:#FFFFFF; stroke-width:39.3701; stroke-opacity:1; 
stroke-linecap:round; stroke-linejoin:round;">
</g>
<g style="fill:#FFFFFF; fill-opacity:1.0; 
stroke:#FFFFFF; stroke-width:0; stroke-opacity:1; 
stroke-linecap:round; stroke-linejoin:round;">
<circle cx="16913.1" cy="19329.5" r="157.48" /> 
</g>
<g style="fill:#FFFFFF; fill-opacity:1.0; 
stroke:#FFFFFF; stroke-width:39.3701; stroke-opacity:1; 
stroke-linecap:round; stroke-linejoin:round;">
</g>
<g style="fill:#FFFFFF; fill-opacity:1.0; 
stroke:#FFFFFF; stroke-width:0; stroke-opacity:1; 
stroke-linecap:round; stroke-linejoin:round;">
<circle cx="11913.1" cy="10229.5" r="157.48" /> 
</g>
<g style="fill:#FFFFFF; fill-opacity:1.0; 
stroke:#FFFFFF; stroke-width:39.3701; stroke-opacity:1; 
stroke-linecap:round; stroke-linejoin:round;">
</g>
<g style="fill:#FFFFFF; fill-opacity:1.0; 
stroke:#FFFFFF; stroke-width:0; stroke-opacity:1; 
stroke-linecap:round; stroke-linejoin:round;">
<circle cx="21513.1" cy="24329.5" r="157.48" /> 
</g>
<g style="fill:#FFFFFF; fill-opacity:1.0; 
stroke:#FFFFFF; stroke-width:39.3701; stroke-opacity:1; 
stroke-linecap:round; stroke-linejoin:round;">
</g>
<g style="fill:#FFFFFF; fill-opacity:1.0; 
stroke:#FFFFFF; stroke-width:0; stroke-opacity:1; 
stroke-linecap:round; stroke-linejoin:round;">
<circle cx="16813.1" cy="4529.53" r="157.48" /> 
</g>
<g style="fill:#FFFFFF; fill-opacity:1.0; 
stroke:#FFFFFF; stroke-width:39.3701; stroke-opacity:1; 
stroke-linecap:round; stroke-linejoin:round;">
</g>
<g style="fill:#FFFFFF; fill-opacity:1.0; 
stroke:#FFFFFF; stroke-width:0; stroke-opacity:1; 
stroke-linecap:round; stroke-linejoin:round;">
<circle cx="7013.07" cy="10329.5" r="157.48" /> 
</g>
<g style="fill:#FFFFFF; fill-opacity:1.0; 
stroke:#FFFFFF; stroke-width:39.3701; stroke-opacity:1; 
stroke-linecap:round; stroke-linejoin:round;">
</g>
<g style="fill:#FFFFFF; fill-opacity:1.0; 
stroke:#FFFFFF; stroke-width:0; stroke-opacity:1; 
stroke-linecap:round; stroke-linejoin:round;">
<circle cx="11813.1" cy="4659.45" r="157.48" /> 
</g>
<g style="fill:#FFFFFF; fill-opacity:1.0; 
stroke:#FFFFFF; stroke-width:39.3701; stroke-opacity:1; 
stroke-linecap:round; stroke-linejoin:round;">
</g>
<g style="fill:#FFFFFF; fill-opacity:1.0; 
stroke:#FFFFFF; stroke-width:0; stroke-opacity:1; 
stroke-linecap:round; stroke-linejoin:round;">
<circle cx="2613.07" cy="21329.5" r="157.48" /> 
</g>
<g style="fill:#FFFFFF; fill-opacity:1.0; 
stroke:#FFFFFF; stroke-width:39.3701; stroke-opacity:1; 
stroke-linecap:round; stroke-linejoin:round;">
</g>
<g style="fill:#FFFFFF; fill-opacity:1.0; 
stroke:#FFFFFF; stroke-width:0; stroke-opacity:1; 
stroke-linecap:round; stroke-linejoin:round;">
<circle cx="1979.22" cy="24829.5" r="157.48" /> 
</g>
<g style="fill:#FFFFFF; fill-opacity:1.0; 
stroke:#FFFFFF; stroke-width:39.3701; stroke-opacity:1; 
stroke-linecap:round; stroke-linejoin:round;">
</g>
<g style="fill:#FFFFFF; fill-opacity:1.0; 
stroke:#FFFFFF; stroke-width:0; stroke-opacity:1; 
stroke-linecap:round; stroke-linejoin:round;">
<circle cx="18913.1" cy="11278.3" r="157.48" /> 
</g>
<g style="fill:#FFFFFF; fill-opacity:1.0; 
stroke:#FFFFFF; stroke-width:39.3701; stroke-opacity:1; 
stroke-linecap:round; stroke-linejoin:round;">
</g>
<g style="fill:#FFFFFF; fill-opacity:1.0; 
stroke:#FFFFFF; stroke-width:0; stroke-opacity:1; 
stroke-linecap:round; stroke-linejoin:round;">
<circle cx="11861.9" cy="18529.5" r="157.48" /> 
</g>
<g style="fill:#FFFFFF; fill-opacity:1.0; 
stroke:#FFFFFF; stroke-width:39.3701; stroke-opacity:1; 
stroke-linecap:round; stroke-linejoin:round;">
</g>
<g style="fill:#FFFFFF; fill-opacity:1.0; 
stroke:#FFFFFF; stroke-width:0; stroke-opacity:1; 
stroke-linecap:round; stroke-linejoin:round;">
<circle cx="6864.26" cy="19229.5" r="157.48" /> 
</g>
<g style="fill:#FFFFFF; fill-opacity:1.0; 
stroke:#FFFFFF; stroke-width:39.3701; stroke-opacity:1; 
stroke-linecap:round; stroke-linejoin:round;">
</g>
<g style="fill:#FFFFFF; fill-opacity:1.0; 
stroke:#FFFFFF; stroke-width:0; stroke-opacity:1; 
stroke-linecap:round; stroke-linejoin:round;">
<circle cx="16813.1" cy="10229.5" r="157.48" /> 
</g>
<g style="fill:#FFFFFF; fill-opacity:1.0; 
stroke:#FFFFFF; stroke-width:39.3701; stroke-opacity:1; 
stroke-linecap:round; stroke-linejoin:round;">
</g>
<g style="fill:#FFFFFF; fill-opacity:1.0; 
stroke:#FFFFFF; stroke-width:0; stroke-opacity:1; 
stroke-linecap:round; stroke-linejoin:round;">
<circle cx="11461.9" cy="23929.5" r="157.48" /> 
</g>
<g style="fill:#FFFFFF; fill-opacity:1.0; 
stroke:#FFFFFF; stroke-width:39.3701; stroke-opacity:1; 
stroke-linecap:round; stroke-linejoin:round;">
</g>
<g style="fill:#FFFFFF; fill-opacity:1.0; 
stroke:#FFFFFF; stroke-width:0; stroke-opacity:1; 
stroke-linecap:round; stroke-linejoin:round;">
<circle cx="21713.1" cy="4829.53" r="157.48" /> 
</g>
<g style="fill:#FFFFFF; fill-opacity:1.0; 
stroke:#FFFFFF; stroke-width:39.3701; stroke-opacity:1; 
stroke-linecap:round; stroke-linejoin:round;">
</g>
<g style="fill:#FFFFFF; fill-opacity:1.0; 
stroke:#FFFFFF; stroke-width:0; stroke-opacity:1; 
stroke-linecap:round; stroke-linejoin:round;">
<circle cx="6361.89" cy="24129.5" r="157.48" /> 
</g>
<g style="fill:#FFFFFF; fill-opacity:1.0; 
stroke:#FFFFFF; stroke-width:39.3701; stroke-opacity:1; 
stroke-linecap:round; stroke-linejoin:round;">
</g>
<g style="fill:#FFFFFF; fill-opacity:1.0; 
stroke:#FFFFFF; stroke-width:0; stroke-opacity:1; 
stroke-linecap:round; stroke-linejoin:round;">
<circle cx="9864.26" cy="30329.5" r="157.48" /> 
</g>
<g style="fill:#FFFFFF; fill-opacity:1.0; 
stroke:#FFFFFF; stroke-width:39.3701; stroke-opacity:1; 
stroke-linecap:round; stroke-linejoin:round;">
</g>
<g style="fill:#FFFFFF; fill-opacity:1.0; 
stroke:#FFFFFF; stroke-width:0; stroke-opacity:1; 
stroke-linecap:round; stroke-linejoin:round;">
<circle cx="2313.07" cy="34829.5" r="157.48" /> 
</g>
<g style="fill:#FFFFFF; fill-opacity:1.0; 
stroke:#FFFFFF; stroke-width:39.3701; stroke-opacity:1; 
stroke-linecap:round; stroke-linejoin:round;">
</g>
<g style="fill:#FFFFFF; fill-opacity:1.0; 
stroke:#FFFFFF; stroke-width:0; stroke-opacity:1; 
stroke-linecap:round; stroke-linejoin:round;">
<circle cx="20564.3" cy="28729.5" r="157.48" /> 
</g>
<g style="fill:#FFFFFF; fill-opacity:1.0; 
stroke:#FFFFFF; stroke-width:39.3701; stroke-opacity:1; 
stroke-linecap:round; stroke-linejoin:round;">
</g>
<g style="fill:#FFFFFF; fill-opacity:1.0; 
stroke:#FFFFFF; stroke-width:0; stroke-opacity:1; 
stroke-linecap:round; stroke-linejoin:round;">
<circle cx="22213.1" cy="41329.5" r="393.701" /> 
</g>
<g style="fill:#FFFFFF; fill-opacity:1.0; 
stroke:#FFFFFF; stroke-width:39.3701; stroke-opacity:1; 
stroke-linecap:round; stroke-linejoin:round;">
</g>
<g style="fill:#FFFFFF; fill-opacity:1.0; 
stroke:#FFFFFF; stroke-width:0; stroke-opacity:1; 
stroke-linecap:round; stroke-linejoin:round;">
<circle cx="22013.1" cy="13629.5" r="393.701" /> 
</g>
<g style="fill:#FFFFFF; fill-opacity:1.0; 
stroke:#FFFFFF; stroke-width:39.3701; stroke-opacity:1; 
stroke-linecap:round; stroke-linejoin:round;">
</g>
<g style="fill:#FFFFFF; fill-opacity:1.0; 
stroke:#FFFFFF; stroke-width:0; stroke-opacity:1; 
stroke-linecap:round; stroke-linejoin:round;">
<circle cx="1713.07" cy="1129.53" r="393.701" /> 
</g>
<g style="fill:#FFFFFF; fill-opacity:1.0; 
stroke:#FFFFFF; stroke-width:39.3701; stroke-opacity:1; 
stroke-linecap:round; stroke-linejoin:round;">
</g>
<g style="fill:#FFFFFF; fill-opacity:1.0; 
stroke:#FFFFFF; stroke-width:0; stroke-opacity:1; 
stroke-linecap:round; stroke-linejoin:round;">
<circle cx="22113.1" cy="47129.5" r="393.701" /> 
</g>
<g style="fill:#FFFFFF; fill-opacity:1.0; 
stroke:#FFFFFF; stroke-width:39.3701; stroke-opacity:1; 
stroke-linecap:round; stroke-linejoin:round;">
</g>
<g style="fill:#FFFFFF; fill-opacity:1.0; 
stroke:#FFFFFF; stroke-width:0; stroke-opacity:1; 
stroke-linecap:round; stroke-linejoin:round;">
<circle cx="22113.1" cy="1129.53" r="393.701" /> 
</g>
<g style="fill:#FFFFFF; fill-opacity:1.0; 
stroke:#FFFFFF; stroke-width:39.3701; stroke-opacity:1; 
stroke-linecap:round; stroke-linejoin:round;">
</g>
<g style="fill:#FFFFFF; fill-opacity:1.0; 
stroke:#FFFFFF; stroke-width:0; stroke-opacity:1; 
stroke-linecap:round; stroke-linejoin:round;">
<circle cx="1713.07" cy="47529.5" r="393.701" /> 
</g>
<g style="fill:#FFFFFF; fill-opacity:1.0; 
stroke:#FFFFFF; stroke-width:39.3701; stroke-opacity:1; 
stroke-linecap:round; stroke-linejoin:round;">
</g>
<g style="fill:#FFFFFF; fill-opacity:1.0; 
stroke:#FFFFFF; stroke-width:0; stroke-opacity:1; 
stroke-linecap:round; stroke-linejoin:round;">
<circle cx="1613.07" cy="35929.5" r="393.701" /> 
</g>
<g style="fill:#FFFFFF; fill-opacity:1.0; 
stroke:#FFFFFF; stroke-width:39.3701; stroke-opacity:1; 
stroke-linecap:round; stroke-linejoin:round;">
</g>
<g style="fill:#FFFFFF; fill-opacity:1.0; 
stroke:#FFFFFF; stroke-width:0; stroke-opacity:1; 
stroke-linecap:round; stroke-linejoin:round;">
<circle cx="1813.07" cy="13529.5" r="393.701" /> 
</g>
<g style="fill:#FFFFFF; fill-opacity:1.0; 
stroke:#FFFFFF; stroke-width:39.3701; stroke-opacity:1; 
stroke-linecap:round; stroke-linejoin:round;">
</g>
<g style="fill:#000000; fill-opacity:1.0; 
stroke:#000000; stroke-width:39.3701; stroke-opacity:1; 
stroke-linecap:round; stroke-linejoin:round;">
</g> 
</svg>
