<?xml version="1.0" standalone="no"?>
 <!DOCTYPE svg PUBLIC "-//W3C//DTD SVG 1.1//EN" 
 "http://www.w3.org/Graphics/SVG/1.1/DTD/svg11.dtd"> 
<svg xmlns="http://www.w3.org/2000/svg" version="1.1" 
    width="5.50418cm" height="7.1247cm" viewBox="0 0 21670 28050 ">
<title>SVG Picture created as KiCad-Adafruit_ESP32_LiPo_18_Vibration_Shield_2_ribbons-F_Cu.svg date 2021/04/10 11:01:56 </title>
  <desc>Picture generated by PCBNEW </desc>
<g style="fill:#000000; fill-opacity:1;stroke:#000000; stroke-opacity:1;
stroke-linecap:round; stroke-linejoin:round; "
 transform="translate(0 0) scale(1 1)">
</g>
<g style="fill:#000000; fill-opacity:0.0; 
stroke:#000000; stroke-width:-0.000393701; stroke-opacity:1; 
stroke-linecap:round; stroke-linejoin:round;">
<g >
</g>
<g style="fill:#000000; fill-opacity:1.0; 
stroke:#000000; stroke-width:0; stroke-opacity:1; 
stroke-linecap:round; stroke-linejoin:round;">
<circle cx="1960.63" cy="18779.5" r="393.701" /> 
</g>
<g style="fill:#000000; fill-opacity:1.0; 
stroke:#000000; stroke-width:39.3701; stroke-opacity:1; 
stroke-linecap:round; stroke-linejoin:round;">
</g>
<g >
</g>
<g style="fill:#000000; fill-opacity:1.0; 
stroke:#000000; stroke-width:39.3701; stroke-opacity:1; 
stroke-linecap:round; stroke-linejoin:round;">
</g>
<g style="fill:#000000; fill-opacity:1.0; 
stroke:#000000; stroke-width:0; stroke-opacity:1; 
stroke-linecap:round; stroke-linejoin:round;">
<circle cx="2210.63" cy="25779.5" r="393.701" /> 
</g>
<g style="fill:#000000; fill-opacity:1.0; 
stroke:#000000; stroke-width:39.3701; stroke-opacity:1; 
stroke-linecap:round; stroke-linejoin:round;">
</g>
<g >
</g>
<g style="fill:#000000; fill-opacity:1.0; 
stroke:#000000; stroke-width:39.3701; stroke-opacity:1; 
stroke-linecap:round; stroke-linejoin:round;">
</g>
<g style="fill:#000000; fill-opacity:1.0; 
stroke:#000000; stroke-width:0; stroke-opacity:1; 
stroke-linecap:round; stroke-linejoin:round;">
<circle cx="19460.6" cy="25779.5" r="393.701" /> 
</g>
<g style="fill:#000000; fill-opacity:1.0; 
stroke:#000000; stroke-width:39.3701; stroke-opacity:1; 
stroke-linecap:round; stroke-linejoin:round;">
</g>
<g >
</g>
<g style="fill:#000000; fill-opacity:1.0; 
stroke:#000000; stroke-width:39.3701; stroke-opacity:1; 
stroke-linecap:round; stroke-linejoin:round;">
</g>
<g style="fill:#000000; fill-opacity:1.0; 
stroke:#000000; stroke-width:0; stroke-opacity:1; 
stroke-linecap:round; stroke-linejoin:round;">
<circle cx="19460.6" cy="2029.53" r="393.701" /> 
</g>
<g style="fill:#000000; fill-opacity:1.0; 
stroke:#000000; stroke-width:39.3701; stroke-opacity:1; 
stroke-linecap:round; stroke-linejoin:round;">
</g>
<g >
</g>
<g style="fill:#000000; fill-opacity:1.0; 
stroke:#000000; stroke-width:39.3701; stroke-opacity:1; 
stroke-linecap:round; stroke-linejoin:round;">
</g>
<g style="fill:#000000; fill-opacity:1.0; 
stroke:#000000; stroke-width:0; stroke-opacity:1; 
stroke-linecap:round; stroke-linejoin:round;">
<circle cx="2210.63" cy="2029.53" r="393.701" /> 
</g>
<g style="fill:#000000; fill-opacity:1.0; 
stroke:#000000; stroke-width:39.3701; stroke-opacity:1; 
stroke-linecap:round; stroke-linejoin:round;">
</g>
<g >
</g>
<g style="fill:#000000; fill-opacity:1.0; 
stroke:#000000; stroke-width:39.3701; stroke-opacity:1; 
stroke-linecap:round; stroke-linejoin:round;">
</g>
<g style="fill:#000000; fill-opacity:1.0; 
stroke:#000000; stroke-width:0; stroke-opacity:1; 
stroke-linecap:round; stroke-linejoin:round;">
<path style="fill:#000000; fill-opacity:1.0; 
stroke:#000000; stroke-width:0; stroke-opacity:1; 
stroke-linecap:round; stroke-linejoin:round;fill-rule:evenodd;"
d="M 11407.5,8637.8
11013.8,8637.8
11013.8,7397.64
11407.5,7397.64
Z" /> 
<path style="fill:#000000; fill-opacity:1.0; 
stroke:#000000; stroke-width:0; stroke-opacity:1; 
stroke-linecap:round; stroke-linejoin:round;fill-rule:evenodd;"
d="M 11407.5,6649.61
11013.8,6649.61
11013.8,5409.45
11407.5,5409.45
Z" /> 
<path style="fill:#000000; fill-opacity:1.0; 
stroke:#000000; stroke-width:0; stroke-opacity:1; 
stroke-linecap:round; stroke-linejoin:round;fill-rule:evenodd;"
d="M 12407.5,8637.8
12013.8,8637.8
12013.8,7397.64
12407.5,7397.64
Z" /> 
<path style="fill:#000000; fill-opacity:1.0; 
stroke:#000000; stroke-width:0; stroke-opacity:1; 
stroke-linecap:round; stroke-linejoin:round;fill-rule:evenodd;"
d="M 12407.5,6649.61
12013.8,6649.61
12013.8,5409.45
12407.5,5409.45
Z" /> 
<path style="fill:#000000; fill-opacity:1.0; 
stroke:#000000; stroke-width:0; stroke-opacity:1; 
stroke-linecap:round; stroke-linejoin:round;fill-rule:evenodd;"
d="M 13407.5,8637.8
13013.8,8637.8
13013.8,7397.64
13407.5,7397.64
Z" /> 
<path style="fill:#000000; fill-opacity:1.0; 
stroke:#000000; stroke-width:0; stroke-opacity:1; 
stroke-linecap:round; stroke-linejoin:round;fill-rule:evenodd;"
d="M 13407.5,6649.61
13013.8,6649.61
13013.8,5409.45
13407.5,5409.45
Z" /> 
<path style="fill:#000000; fill-opacity:1.0; 
stroke:#000000; stroke-width:0; stroke-opacity:1; 
stroke-linecap:round; stroke-linejoin:round;fill-rule:evenodd;"
d="M 14407.5,8637.8
14013.8,8637.8
14013.8,7397.64
14407.5,7397.64
Z" /> 
<path style="fill:#000000; fill-opacity:1.0; 
stroke:#000000; stroke-width:0; stroke-opacity:1; 
stroke-linecap:round; stroke-linejoin:round;fill-rule:evenodd;"
d="M 14407.5,6649.61
14013.8,6649.61
14013.8,5409.45
14407.5,5409.45
Z" /> 
<path style="fill:#000000; fill-opacity:1.0; 
stroke:#000000; stroke-width:0; stroke-opacity:1; 
stroke-linecap:round; stroke-linejoin:round;fill-rule:evenodd;"
d="M 15407.5,8637.8
15013.8,8637.8
15013.8,7397.64
15407.5,7397.64
Z" /> 
<path style="fill:#000000; fill-opacity:1.0; 
stroke:#000000; stroke-width:0; stroke-opacity:1; 
stroke-linecap:round; stroke-linejoin:round;fill-rule:evenodd;"
d="M 15407.5,6649.61
15013.8,6649.61
15013.8,5409.45
15407.5,5409.45
Z" /> 
</g>
<g >
</g>
<g style="fill:#000000; fill-opacity:1.0; 
stroke:#000000; stroke-width:0; stroke-opacity:1; 
stroke-linecap:round; stroke-linejoin:round;">
<path style="fill:#000000; fill-opacity:1.0; 
stroke:#000000; stroke-width:0; stroke-opacity:1; 
stroke-linecap:round; stroke-linejoin:round;fill-rule:evenodd;"
d="M 15586.6,24976.4
15586.6,24582.7
16334.6,24582.7
16334.6,24976.4
Z" /> 
<path style="fill:#000000; fill-opacity:1.0; 
stroke:#000000; stroke-width:0; stroke-opacity:1; 
stroke-linecap:round; stroke-linejoin:round;fill-rule:evenodd;"
d="M 15586.6,22976.4
15586.6,22582.7
16334.6,22582.7
16334.6,22976.4
Z" /> 
<path style="fill:#000000; fill-opacity:1.0; 
stroke:#000000; stroke-width:0; stroke-opacity:1; 
stroke-linecap:round; stroke-linejoin:round;fill-rule:evenodd;"
d="M 15586.6,20976.4
15586.6,20582.7
16334.6,20582.7
16334.6,20976.4
Z" /> 
<path style="fill:#000000; fill-opacity:1.0; 
stroke:#000000; stroke-width:0; stroke-opacity:1; 
stroke-linecap:round; stroke-linejoin:round;fill-rule:evenodd;"
d="M 15586.6,18976.4
15586.6,18582.7
16334.6,18582.7
16334.6,18976.4
Z" /> 
<path style="fill:#000000; fill-opacity:1.0; 
stroke:#000000; stroke-width:0; stroke-opacity:1; 
stroke-linecap:round; stroke-linejoin:round;fill-rule:evenodd;"
d="M 15586.6,16976.4
15586.6,16582.7
16334.6,16582.7
16334.6,16976.4
Z" /> 
<path style="fill:#000000; fill-opacity:1.0; 
stroke:#000000; stroke-width:0; stroke-opacity:1; 
stroke-linecap:round; stroke-linejoin:round;fill-rule:evenodd;"
d="M 15586.6,14976.4
15586.6,14582.7
16334.6,14582.7
16334.6,14976.4
Z" /> 
<path style="fill:#000000; fill-opacity:1.0; 
stroke:#000000; stroke-width:0; stroke-opacity:1; 
stroke-linecap:round; stroke-linejoin:round;fill-rule:evenodd;"
d="M 15586.6,12976.4
15586.6,12582.7
16334.6,12582.7
16334.6,12976.4
Z" /> 
<path style="fill:#000000; fill-opacity:1.0; 
stroke:#000000; stroke-width:0; stroke-opacity:1; 
stroke-linecap:round; stroke-linejoin:round;fill-rule:evenodd;"
d="M 15586.6,10976.4
15586.6,10582.7
16334.6,10582.7
16334.6,10976.4
Z" /> 
<path style="fill:#000000; fill-opacity:1.0; 
stroke:#000000; stroke-width:0; stroke-opacity:1; 
stroke-linecap:round; stroke-linejoin:round;fill-rule:evenodd;"
d="M 14287.4,25976.4
14287.4,25582.7
15035.4,25582.7
15035.4,25976.4
Z" /> 
<path style="fill:#000000; fill-opacity:1.0; 
stroke:#000000; stroke-width:0; stroke-opacity:1; 
stroke-linecap:round; stroke-linejoin:round;fill-rule:evenodd;"
d="M 14287.4,23976.4
14287.4,23582.7
15035.4,23582.7
15035.4,23976.4
Z" /> 
<path style="fill:#000000; fill-opacity:1.0; 
stroke:#000000; stroke-width:0; stroke-opacity:1; 
stroke-linecap:round; stroke-linejoin:round;fill-rule:evenodd;"
d="M 14287.4,21976.4
14287.4,21582.7
15035.4,21582.7
15035.4,21976.4
Z" /> 
<path style="fill:#000000; fill-opacity:1.0; 
stroke:#000000; stroke-width:0; stroke-opacity:1; 
stroke-linecap:round; stroke-linejoin:round;fill-rule:evenodd;"
d="M 14287.4,19976.4
14287.4,19582.7
15035.4,19582.7
15035.4,19976.4
Z" /> 
<path style="fill:#000000; fill-opacity:1.0; 
stroke:#000000; stroke-width:0; stroke-opacity:1; 
stroke-linecap:round; stroke-linejoin:round;fill-rule:evenodd;"
d="M 14287.4,17976.4
14287.4,17582.7
15035.4,17582.7
15035.4,17976.4
Z" /> 
<path style="fill:#000000; fill-opacity:1.0; 
stroke:#000000; stroke-width:0; stroke-opacity:1; 
stroke-linecap:round; stroke-linejoin:round;fill-rule:evenodd;"
d="M 14287.4,15976.4
14287.4,15582.7
15035.4,15582.7
15035.4,15976.4
Z" /> 
<path style="fill:#000000; fill-opacity:1.0; 
stroke:#000000; stroke-width:0; stroke-opacity:1; 
stroke-linecap:round; stroke-linejoin:round;fill-rule:evenodd;"
d="M 14287.4,13976.4
14287.4,13582.7
15035.4,13582.7
15035.4,13976.4
Z" /> 
<path style="fill:#000000; fill-opacity:1.0; 
stroke:#000000; stroke-width:0; stroke-opacity:1; 
stroke-linecap:round; stroke-linejoin:round;fill-rule:evenodd;"
d="M 14287.4,11976.4
14287.4,11582.7
15035.4,11582.7
15035.4,11976.4
Z" /> 
</g>
<g >
</g>
<g style="fill:#000000; fill-opacity:1.0; 
stroke:#000000; stroke-width:0; stroke-opacity:1; 
stroke-linecap:round; stroke-linejoin:round;">
<path style="fill:#000000; fill-opacity:1.0; 
stroke:#000000; stroke-width:0; stroke-opacity:1; 
stroke-linecap:round; stroke-linejoin:round;fill-rule:evenodd;"
d="M 7486.22,20976.4
7486.22,20582.7
8234.25,20582.7
8234.25,20976.4
Z" /> 
<path style="fill:#000000; fill-opacity:1.0; 
stroke:#000000; stroke-width:0; stroke-opacity:1; 
stroke-linecap:round; stroke-linejoin:round;fill-rule:evenodd;"
d="M 7486.22,18976.4
7486.22,18582.7
8234.25,18582.7
8234.25,18976.4
Z" /> 
<path style="fill:#000000; fill-opacity:1.0; 
stroke:#000000; stroke-width:0; stroke-opacity:1; 
stroke-linecap:round; stroke-linejoin:round;fill-rule:evenodd;"
d="M 7486.22,16976.4
7486.22,16582.7
8234.25,16582.7
8234.25,16976.4
Z" /> 
<path style="fill:#000000; fill-opacity:1.0; 
stroke:#000000; stroke-width:0; stroke-opacity:1; 
stroke-linecap:round; stroke-linejoin:round;fill-rule:evenodd;"
d="M 7486.22,14976.4
7486.22,14582.7
8234.25,14582.7
8234.25,14976.4
Z" /> 
<path style="fill:#000000; fill-opacity:1.0; 
stroke:#000000; stroke-width:0; stroke-opacity:1; 
stroke-linecap:round; stroke-linejoin:round;fill-rule:evenodd;"
d="M 7486.22,12976.4
7486.22,12582.7
8234.25,12582.7
8234.25,12976.4
Z" /> 
<path style="fill:#000000; fill-opacity:1.0; 
stroke:#000000; stroke-width:0; stroke-opacity:1; 
stroke-linecap:round; stroke-linejoin:round;fill-rule:evenodd;"
d="M 7486.22,10976.4
7486.22,10582.7
8234.25,10582.7
8234.25,10976.4
Z" /> 
<path style="fill:#000000; fill-opacity:1.0; 
stroke:#000000; stroke-width:0; stroke-opacity:1; 
stroke-linecap:round; stroke-linejoin:round;fill-rule:evenodd;"
d="M 6187.01,21976.4
6187.01,21582.7
6935.04,21582.7
6935.04,21976.4
Z" /> 
<path style="fill:#000000; fill-opacity:1.0; 
stroke:#000000; stroke-width:0; stroke-opacity:1; 
stroke-linecap:round; stroke-linejoin:round;fill-rule:evenodd;"
d="M 6187.01,19976.4
6187.01,19582.7
6935.04,19582.7
6935.04,19976.4
Z" /> 
<path style="fill:#000000; fill-opacity:1.0; 
stroke:#000000; stroke-width:0; stroke-opacity:1; 
stroke-linecap:round; stroke-linejoin:round;fill-rule:evenodd;"
d="M 6187.01,17976.4
6187.01,17582.7
6935.04,17582.7
6935.04,17976.4
Z" /> 
<path style="fill:#000000; fill-opacity:1.0; 
stroke:#000000; stroke-width:0; stroke-opacity:1; 
stroke-linecap:round; stroke-linejoin:round;fill-rule:evenodd;"
d="M 6187.01,15976.4
6187.01,15582.7
6935.04,15582.7
6935.04,15976.4
Z" /> 
<path style="fill:#000000; fill-opacity:1.0; 
stroke:#000000; stroke-width:0; stroke-opacity:1; 
stroke-linecap:round; stroke-linejoin:round;fill-rule:evenodd;"
d="M 6187.01,13976.4
6187.01,13582.7
6935.04,13582.7
6935.04,13976.4
Z" /> 
<path style="fill:#000000; fill-opacity:1.0; 
stroke:#000000; stroke-width:0; stroke-opacity:1; 
stroke-linecap:round; stroke-linejoin:round;fill-rule:evenodd;"
d="M 6187.01,11976.4
6187.01,11582.7
6935.04,11582.7
6935.04,11976.4
Z" /> 
</g>
<g >
</g>
<g style="fill:#000000; fill-opacity:1.0; 
stroke:#000000; stroke-width:0; stroke-opacity:1; 
stroke-linecap:round; stroke-linejoin:round;">
<path style="fill:#000000; fill-opacity:1.0; 
stroke:#000000; stroke-width:0; stroke-opacity:1; 
stroke-linecap:round; stroke-linejoin:round;fill-rule:evenodd;"
d="M 18586.6,18726.4
18586.6,18332.7
19334.6,18332.7
19334.6,18726.4
Z" /> 
<path style="fill:#000000; fill-opacity:1.0; 
stroke:#000000; stroke-width:0; stroke-opacity:1; 
stroke-linecap:round; stroke-linejoin:round;fill-rule:evenodd;"
d="M 18586.6,16726.4
18586.6,16332.7
19334.6,16332.7
19334.6,16726.4
Z" /> 
<path style="fill:#000000; fill-opacity:1.0; 
stroke:#000000; stroke-width:0; stroke-opacity:1; 
stroke-linecap:round; stroke-linejoin:round;fill-rule:evenodd;"
d="M 18586.6,14726.4
18586.6,14332.7
19334.6,14332.7
19334.6,14726.4
Z" /> 
<path style="fill:#000000; fill-opacity:1.0; 
stroke:#000000; stroke-width:0; stroke-opacity:1; 
stroke-linecap:round; stroke-linejoin:round;fill-rule:evenodd;"
d="M 18586.6,12726.4
18586.6,12332.7
19334.6,12332.7
19334.6,12726.4
Z" /> 
<path style="fill:#000000; fill-opacity:1.0; 
stroke:#000000; stroke-width:0; stroke-opacity:1; 
stroke-linecap:round; stroke-linejoin:round;fill-rule:evenodd;"
d="M 18586.6,10726.4
18586.6,10332.7
19334.6,10332.7
19334.6,10726.4
Z" /> 
<path style="fill:#000000; fill-opacity:1.0; 
stroke:#000000; stroke-width:0; stroke-opacity:1; 
stroke-linecap:round; stroke-linejoin:round;fill-rule:evenodd;"
d="M 17287.4,17726.4
17287.4,17332.7
18035.4,17332.7
18035.4,17726.4
Z" /> 
<path style="fill:#000000; fill-opacity:1.0; 
stroke:#000000; stroke-width:0; stroke-opacity:1; 
stroke-linecap:round; stroke-linejoin:round;fill-rule:evenodd;"
d="M 17287.4,15726.4
17287.4,15332.7
18035.4,15332.7
18035.4,15726.4
Z" /> 
<path style="fill:#000000; fill-opacity:1.0; 
stroke:#000000; stroke-width:0; stroke-opacity:1; 
stroke-linecap:round; stroke-linejoin:round;fill-rule:evenodd;"
d="M 17287.4,13726.4
17287.4,13332.7
18035.4,13332.7
18035.4,13726.4
Z" /> 
<path style="fill:#000000; fill-opacity:1.0; 
stroke:#000000; stroke-width:0; stroke-opacity:1; 
stroke-linecap:round; stroke-linejoin:round;fill-rule:evenodd;"
d="M 17287.4,11726.4
17287.4,11332.7
18035.4,11332.7
18035.4,11726.4
Z" /> 
</g>
<g >
</g>
<g style="fill:#000000; fill-opacity:1.0; 
stroke:#000000; stroke-width:0; stroke-opacity:1; 
stroke-linecap:round; stroke-linejoin:round;">
<path style="fill:#000000; fill-opacity:1.0; 
stroke:#000000; stroke-width:0; stroke-opacity:1; 
stroke-linecap:round; stroke-linejoin:round;fill-rule:evenodd;"
d="M 18635.8,22726.4
18635.8,22332.7
19383.9,22332.7
19383.9,22726.4
Z" /> 
<path style="fill:#000000; fill-opacity:1.0; 
stroke:#000000; stroke-width:0; stroke-opacity:1; 
stroke-linecap:round; stroke-linejoin:round;fill-rule:evenodd;"
d="M 17336.6,23726.4
17336.6,23332.7
18084.6,23332.7
18084.6,23726.4
Z" /> 
<path style="fill:#000000; fill-opacity:1.0; 
stroke:#000000; stroke-width:0; stroke-opacity:1; 
stroke-linecap:round; stroke-linejoin:round;fill-rule:evenodd;"
d="M 17336.6,21726.4
17336.6,21332.7
18084.6,21332.7
18084.6,21726.4
Z" /> 
</g>
<g >
</g>
<g style="fill:#000000; fill-opacity:1.0; 
stroke:#000000; stroke-width:0; stroke-opacity:1; 
stroke-linecap:round; stroke-linejoin:round;">
<path style="fill:#000000; fill-opacity:1.0; 
stroke:#000000; stroke-width:0; stroke-opacity:1; 
stroke-linecap:round; stroke-linejoin:round;fill-rule:evenodd;"
d="M 3935.04,17832.7
3935.04,18226.4
3187.01,18226.4
3187.01,17832.7
Z" /> 
<path style="fill:#000000; fill-opacity:1.0; 
stroke:#000000; stroke-width:0; stroke-opacity:1; 
stroke-linecap:round; stroke-linejoin:round;fill-rule:evenodd;"
d="M 3935.04,19832.7
3935.04,20226.4
3187.01,20226.4
3187.01,19832.7
Z" /> 
<path style="fill:#000000; fill-opacity:1.0; 
stroke:#000000; stroke-width:0; stroke-opacity:1; 
stroke-linecap:round; stroke-linejoin:round;fill-rule:evenodd;"
d="M 5234.25,16832.7
5234.25,17226.4
4486.22,17226.4
4486.22,16832.7
Z" /> 
<path style="fill:#000000; fill-opacity:1.0; 
stroke:#000000; stroke-width:0; stroke-opacity:1; 
stroke-linecap:round; stroke-linejoin:round;fill-rule:evenodd;"
d="M 5234.25,18832.7
5234.25,19226.4
4486.22,19226.4
4486.22,18832.7
Z" /> 
</g>
<g >
</g>
<g style="fill:#000000; fill-opacity:1.0; 
stroke:#000000; stroke-width:0; stroke-opacity:1; 
stroke-linecap:round; stroke-linejoin:round;">
<path style="fill:#000000; fill-opacity:1.0; 
stroke:#000000; stroke-width:0; stroke-opacity:1; 
stroke-linecap:round; stroke-linejoin:round;fill-rule:evenodd;"
d="M 4915.35,23505.9
3734.25,23505.9
3734.25,22876
4915.35,22876
Z" /> 
<path style="fill:#000000; fill-opacity:1.0; 
stroke:#000000; stroke-width:0; stroke-opacity:1; 
stroke-linecap:round; stroke-linejoin:round;fill-rule:evenodd;"
d="M 4915.35,26183.1
3734.25,26183.1
3734.25,25553.2
4915.35,25553.2
Z" /> 
<path style="fill:#000000; fill-opacity:1.0; 
stroke:#000000; stroke-width:0; stroke-opacity:1; 
stroke-linecap:round; stroke-linejoin:round;fill-rule:evenodd;"
d="M 6293.31,24332.7
4127.95,24332.7
4127.95,23939
6293.31,23939
Z" /> 
<path style="fill:#000000; fill-opacity:1.0; 
stroke:#000000; stroke-width:0; stroke-opacity:1; 
stroke-linecap:round; stroke-linejoin:round;fill-rule:evenodd;"
d="M 6293.31,25120.1
4127.95,25120.1
4127.95,24726.4
6293.31,24726.4
Z" /> 
</g>
<g >
</g>
<g style="fill:#000000; fill-opacity:1.0; 
stroke:#000000; stroke-width:0; stroke-opacity:1; 
stroke-linecap:round; stroke-linejoin:round;">
<path style="fill:#000000; fill-opacity:1.0; 
stroke:#000000; stroke-width:0; stroke-opacity:1; 
stroke-linecap:round; stroke-linejoin:round;fill-rule:evenodd;"
d="M 8531.3,25656
8540.86,25657.4
8550.23,25659.8
8559.32,25663
8568.05,25667.1
8576.34,25672.1
8584.09,25677.9
8591.25,25684.3
8597.74,25691.5
8603.49,25699.3
8608.46,25707.5
8612.59,25716.3
8615.84,25725.4
8618.19,25734.7
8619.61,25744.3
8620.08,25753.9
8620.08,26157.5
8619.61,26167.1
8618.19,26176.7
8615.84,26186.1
8612.59,26195.1
8608.46,26203.9
8603.49,26212.2
8597.74,26219.9
8591.25,26227.1
8584.09,26233.6
8576.34,26239.3
8568.05,26244.3
8559.32,26248.4
8550.23,26251.7
8540.86,26254
8531.3,26255.4
8521.65,26255.9
7399.61,26255.9
7389.96,26255.4
7380.4,26254
7371.04,26251.7
7361.94,26248.4
7353.21,26244.3
7344.92,26239.3
7337.17,26233.6
7330.01,26227.1
7323.52,26219.9
7317.77,26212.2
7312.8,26203.9
7308.67,26195.1
7305.42,26186.1
7303.07,26176.7
7301.66,26167.1
7301.18,26157.5
7301.18,25753.9
7301.66,25744.3
7303.07,25734.7
7305.42,25725.4
7308.67,25716.3
7312.8,25707.5
7317.77,25699.3
7323.52,25691.5
7330.01,25684.3
7337.17,25677.9
7344.92,25672.1
7353.21,25667.1
7361.94,25663
7371.04,25659.8
7380.4,25657.4
7389.96,25656
7399.61,25655.5
8521.65,25655.5
Z" /> 
<path style="fill:#000000; fill-opacity:1.0; 
stroke:#000000; stroke-width:0; stroke-opacity:1; 
stroke-linecap:round; stroke-linejoin:round;fill-rule:evenodd;"
d="M 8531.3,23303.6
8540.86,23305
8550.23,23307.4
8559.32,23310.6
8568.05,23314.8
8576.34,23319.7
8584.09,23325.5
8591.25,23332
8597.74,23339.1
8603.49,23346.9
8608.46,23355.2
8612.59,23363.9
8615.84,23373
8618.19,23382.4
8619.61,23391.9
8620.08,23401.6
8620.08,23805.1
8619.61,23814.8
8618.19,23824.3
8615.84,23833.7
8612.59,23842.8
8608.46,23851.5
8603.49,23859.8
8597.74,23867.6
8591.25,23874.7
8584.09,23881.2
8576.34,23887
8568.05,23891.9
8559.32,23896.1
8550.23,23899.3
8540.86,23901.7
8531.3,23903.1
8521.65,23903.5
7399.61,23903.5
7389.96,23903.1
7380.4,23901.7
7371.04,23899.3
7361.94,23896.1
7353.21,23891.9
7344.92,23887
7337.17,23881.2
7330.01,23874.7
7323.52,23867.6
7317.77,23859.8
7312.8,23851.5
7308.67,23842.8
7305.42,23833.7
7303.07,23824.3
7301.66,23814.8
7301.18,23805.1
7301.18,23401.6
7301.66,23391.9
7303.07,23382.4
7305.42,23373
7308.67,23363.9
7312.8,23355.2
7317.77,23346.9
7323.52,23339.1
7330.01,23332
7337.17,23325.5
7344.92,23319.7
7353.21,23314.8
7361.94,23310.6
7371.04,23307.4
7380.4,23305
7389.96,23303.6
7399.61,23303.2
8521.65,23303.2
Z" /> 
</g>
<g >
</g>
<g style="fill:#000000; fill-opacity:1.0; 
stroke:#000000; stroke-width:0; stroke-opacity:1; 
stroke-linecap:round; stroke-linejoin:round;">
<path style="fill:#000000; fill-opacity:1.0; 
stroke:#000000; stroke-width:0; stroke-opacity:1; 
stroke-linecap:round; stroke-linejoin:round;fill-rule:evenodd;"
d="M 10876,23385.8
11545.3,23385.8
11545.3,24173.2
10876,24173.2
Z" /> 
<path style="fill:#000000; fill-opacity:1.0; 
stroke:#000000; stroke-width:0; stroke-opacity:1; 
stroke-linecap:round; stroke-linejoin:round;fill-rule:evenodd;"
d="M 11876,23385.8
12545.3,23385.8
12545.3,24173.2
11876,24173.2
Z" /> 
</g>
<g >
</g>
<g style="fill:#000000; fill-opacity:1.0; 
stroke:#000000; stroke-width:0; stroke-opacity:1; 
stroke-linecap:round; stroke-linejoin:round;">
<path style="fill:#000000; fill-opacity:1.0; 
stroke:#000000; stroke-width:0; stroke-opacity:1; 
stroke-linecap:round; stroke-linejoin:round;fill-rule:evenodd;"
d="M 9907.48,3899.61
9513.78,3899.61
9513.78,2659.45
9907.48,2659.45
Z" /> 
<path style="fill:#000000; fill-opacity:1.0; 
stroke:#000000; stroke-width:0; stroke-opacity:1; 
stroke-linecap:round; stroke-linejoin:round;fill-rule:evenodd;"
d="M 9907.48,5887.8
9513.78,5887.8
9513.78,4647.64
9907.48,4647.64
Z" /> 
<path style="fill:#000000; fill-opacity:1.0; 
stroke:#000000; stroke-width:0; stroke-opacity:1; 
stroke-linecap:round; stroke-linejoin:round;fill-rule:evenodd;"
d="M 8907.48,3899.61
8513.78,3899.61
8513.78,2659.45
8907.48,2659.45
Z" /> 
<path style="fill:#000000; fill-opacity:1.0; 
stroke:#000000; stroke-width:0; stroke-opacity:1; 
stroke-linecap:round; stroke-linejoin:round;fill-rule:evenodd;"
d="M 8907.48,5887.8
8513.78,5887.8
8513.78,4647.64
8907.48,4647.64
Z" /> 
<path style="fill:#000000; fill-opacity:1.0; 
stroke:#000000; stroke-width:0; stroke-opacity:1; 
stroke-linecap:round; stroke-linejoin:round;fill-rule:evenodd;"
d="M 7907.48,3899.61
7513.78,3899.61
7513.78,2659.45
7907.48,2659.45
Z" /> 
<path style="fill:#000000; fill-opacity:1.0; 
stroke:#000000; stroke-width:0; stroke-opacity:1; 
stroke-linecap:round; stroke-linejoin:round;fill-rule:evenodd;"
d="M 7907.48,5887.8
7513.78,5887.8
7513.78,4647.64
7907.48,4647.64
Z" /> 
<path style="fill:#000000; fill-opacity:1.0; 
stroke:#000000; stroke-width:0; stroke-opacity:1; 
stroke-linecap:round; stroke-linejoin:round;fill-rule:evenodd;"
d="M 6907.48,3899.61
6513.78,3899.61
6513.78,2659.45
6907.48,2659.45
Z" /> 
<path style="fill:#000000; fill-opacity:1.0; 
stroke:#000000; stroke-width:0; stroke-opacity:1; 
stroke-linecap:round; stroke-linejoin:round;fill-rule:evenodd;"
d="M 6907.48,5887.8
6513.78,5887.8
6513.78,4647.64
6907.48,4647.64
Z" /> 
<path style="fill:#000000; fill-opacity:1.0; 
stroke:#000000; stroke-width:0; stroke-opacity:1; 
stroke-linecap:round; stroke-linejoin:round;fill-rule:evenodd;"
d="M 5907.48,3899.61
5513.78,3899.61
5513.78,2659.45
5907.48,2659.45
Z" /> 
<path style="fill:#000000; fill-opacity:1.0; 
stroke:#000000; stroke-width:0; stroke-opacity:1; 
stroke-linecap:round; stroke-linejoin:round;fill-rule:evenodd;"
d="M 5907.48,5887.8
5513.78,5887.8
5513.78,4647.64
5907.48,4647.64
Z" /> 
</g>
<g >
</g>
<g style="fill:#000000; fill-opacity:1.0; 
stroke:#000000; stroke-width:0; stroke-opacity:1; 
stroke-linecap:round; stroke-linejoin:round;">
<circle cx="5710.63" cy="9279.53" r="314.961" /> 
</g>
<g style="fill:#000000; fill-opacity:1.0; 
stroke:#000000; stroke-width:39.3701; stroke-opacity:1; 
stroke-linecap:round; stroke-linejoin:round;">
</g>
<g style="fill:#000000; fill-opacity:1.0; 
stroke:#000000; stroke-width:0; stroke-opacity:1; 
stroke-linecap:round; stroke-linejoin:round;">
<circle cx="4210.63" cy="21779.5" r="314.961" /> 
</g>
<g style="fill:#000000; fill-opacity:1.0; 
stroke:#000000; stroke-width:39.3701; stroke-opacity:1; 
stroke-linecap:round; stroke-linejoin:round;">
</g>
<g style="fill:#000000; fill-opacity:1.0; 
stroke:#000000; stroke-width:0; stroke-opacity:1; 
stroke-linecap:round; stroke-linejoin:round;">
<circle cx="18960.6" cy="19529.5" r="314.961" /> 
</g>
<g style="fill:#000000; fill-opacity:1.0; 
stroke:#000000; stroke-width:39.3701; stroke-opacity:1; 
stroke-linecap:round; stroke-linejoin:round;">
</g>
<g style="fill:#000000; fill-opacity:1.0; 
stroke:#000000; stroke-width:0; stroke-opacity:1; 
stroke-linecap:round; stroke-linejoin:round;">
<circle cx="11238.2" cy="22557.1" r="314.961" /> 
</g>
<g style="fill:#000000; fill-opacity:1.0; 
stroke:#000000; stroke-width:39.3701; stroke-opacity:1; 
stroke-linecap:round; stroke-linejoin:round;">
</g>
<g style="fill:#000000; fill-opacity:1.0; 
stroke:#000000; stroke-width:0; stroke-opacity:1; 
stroke-linecap:round; stroke-linejoin:round;">
<circle cx="17437" cy="12779.5" r="314.961" /> 
</g>
<g style="fill:#000000; fill-opacity:1.0; 
stroke:#000000; stroke-width:39.3701; stroke-opacity:1; 
stroke-linecap:round; stroke-linejoin:round;">
</g>
<g style="fill:#000000; fill-opacity:1.0; 
stroke:#000000; stroke-width:0; stroke-opacity:1; 
stroke-linecap:round; stroke-linejoin:round;">
<circle cx="17210.6" cy="16580.7" r="314.961" /> 
</g>
<g style="fill:#000000; fill-opacity:1.0; 
stroke:#000000; stroke-width:39.3701; stroke-opacity:1; 
stroke-linecap:round; stroke-linejoin:round;">
</g>
<g style="fill:#000000; fill-opacity:1.0; 
stroke:#000000; stroke-width:0; stroke-opacity:1; 
stroke-linecap:round; stroke-linejoin:round;">
<circle cx="6710.63" cy="7529.53" r="314.961" /> 
</g>
<g style="fill:#000000; fill-opacity:1.0; 
stroke:#000000; stroke-width:39.3701; stroke-opacity:1; 
stroke-linecap:round; stroke-linejoin:round;">
</g>
<g style="fill:#000000; fill-opacity:1.0; 
stroke:#000000; stroke-width:0; stroke-opacity:1; 
stroke-linecap:round; stroke-linejoin:round;">
<circle cx="9710.63" cy="26029.5" r="314.961" /> 
</g>
<g style="fill:#000000; fill-opacity:1.0; 
stroke:#000000; stroke-width:39.3701; stroke-opacity:1; 
stroke-linecap:round; stroke-linejoin:round;">
</g>
<g >
</g>
<g style="fill:#000000; fill-opacity:1.0; 
stroke:#000000; stroke-width:39.3701; stroke-opacity:1; 
stroke-linecap:round; stroke-linejoin:round;">
</g>
<g style="fill:#000000; fill-opacity:1.0; 
stroke:#000000; stroke-width:314.961; stroke-opacity:1; 
stroke-linecap:round; stroke-linejoin:round;">
</g>
<g style="fill:#000000; fill-opacity:0.0; 
stroke:#000000; stroke-width:314.961; stroke-opacity:1; 
stroke-linecap:round; stroke-linejoin:round;">
<path d="M5210 24923
L11775 24923
" />
<path d="M12210 24923
L12210 23779
" />
<path d="M11775 24923
L12210 24923
" />
<path d="M15960 22029
L15960 22779
" />
<path d="M14460 20529
L15960 22029
" />
<path d="M17661 17529
L15460 17529
" />
<path d="M13210 20279
L13460 20529
" />
<path d="M13210 17779
L13210 20279
" />
<path d="M15460 17529
L14960 17029
" />
<path d="M13960 17029
L13210 17779
" />
<path d="M14960 17029
L13960 17029
" />
<path d="M13460 20529
L14460 20529
" />
<path d="M11775 24923
L13854 24923
" />
<path d="M14198 25267
L15311 25267
" />
<path d="M15334 25291
L16586 25291
" />
<path d="M15311 25267
L15334 25291
" />
<path d="M13854 24923
L14198 25267
" />
<path d="M16586 25291
L16706 25171
" />
<path d="M15960 23332
L15960 23291
" />
<path d="M16706 24078
L15960 23332
" />
<path d="M16706 25171
L16706 24078
" />
<path d="M15960 23291
L15960 22779
" />
<path d="M2710 21868
L4122 21868
" />
<path d="M2710 23820
L2710 21868
" />
<path d="M3812 24923
L2710 23820
" />
<path d="M4122 21868
L4210 21779
" />
<path d="M5210 24923
L3812 24923
" />
<path d="M5710 5267
L5710 9279
" />
<path d="M4171 19029
L4860 19029
" />
<path d="M3210 19029
L4171 19029
" />
<path d="M2710 19529
L3210 19029
" />
<path d="M2710 21868
L2710 19529
" />
</g>
<g style="fill:#000000; fill-opacity:0.0; 
stroke:#000000; stroke-width:157.48; stroke-opacity:1; 
stroke-linecap:round; stroke-linejoin:round;">
<path d="M7710 10629
L7860 10779
" />
<path d="M7710 5267
L7710 10629
" />
<path d="M3460 16161
L3460 2779
" />
<path d="M3460 2779
L4446 1793
" />
<path d="M4328 17029
L3460 16161
" />
<path d="M8210 5122
L8064 5267
" />
<path d="M4860 17029
L4328 17029
" />
<path d="M8210 2537
L8210 5122
" />
<path d="M8064 5267
L7710 5267
" />
<path d="M4446 1793
L7466 1793
" />
<path d="M7466 1793
L8210 2537
" />
<path d="M4092 18029
L3561 18029
" />
<path d="M5307 18029
L4092 18029
" />
<path d="M7210 16125
L5307 18029
" />
<path d="M7210 12429
L7210 16125
" />
<path d="M6561 11779
L7210 12429
" />
<path d="M4960 4029
L5710 3279
" />
<path d="M4960 10179
L4960 4029
" />
<path d="M6561 11779
L4960 10179
" />
</g>
<g style="fill:#000000; fill-opacity:0.0; 
stroke:#000000; stroke-width:314.961; stroke-opacity:1; 
stroke-linecap:round; stroke-linejoin:round;">
<path d="M11210 22557
L11210 23779
" />
<path d="M11724 22557
L11210 22557
" />
<path d="M8499 22557
L11724 22557
" />
<path d="M5250 21029
L6972 21029
" />
<path d="M4250 20029
L5250 21029
" />
<path d="M6972 21029
L8499 22557
" />
<path d="M3561 20029
L4250 20029
" />
<path d="M18960 18529
L18960 19529
" />
<path d="M11433 22557
L11724 22557
" />
<path d="M12238 22557
L11433 22557
" />
<path d="M14460 24779
L12238 22557
" />
<path d="M15960 24779
L14460 24779
" />
</g>
<g style="fill:#000000; fill-opacity:0.0; 
stroke:#000000; stroke-width:157.48; stroke-opacity:1; 
stroke-linecap:round; stroke-linejoin:round;">
<path d="M9710 3029
L9710 3279
" />
<path d="M17710 2029
L10710 2029
" />
<path d="M19710 23529
L19710 4029
" />
<path d="M19710 4029
L17710 2029
" />
<path d="M17464 24279
L18960 24279
" />
<path d="M16645 23460
L17464 24279
" />
<path d="M18960 24279
L19710 23529
" />
<path d="M10710 2029
L9710 3029
" />
<path d="M16645 21464
L16645 23460
" />
<path d="M15960 20779
L16645 21464
" />
<path d="M16210 18779
L15960 18779
" />
<path d="M17710 20279
L16210 18779
" />
<path d="M17710 21529
L17710 20279
" />
<path d="M15960 16779
L15816 16635
" />
<path d="M11210 3029
L11210 6029
" />
<path d="M18271 3590
L17210 2529
" />
<path d="M11710 2529
L11210 3029
" />
<path d="M18271 12919
L18271 3590
" />
<path d="M17210 2529
L11710 2529
" />
<path d="M17661 13529
L18271 12919
" />
<path d="M17661 13003
L17437 12779
" />
<path d="M17661 13529
L17661 13003
" />
<path d="M17011 16779
L15960 16779
" />
<path d="M17210 16580
L17011 16779
" />
<path d="M16210 14529
L18960 14529
" />
<path d="M15960 14779
L16210 14529
" />
<path d="M16885 3454
L16885 14454
" />
<path d="M16885 14454
L16960 14529
" />
<path d="M16460 3029
L16885 3454
" />
<path d="M12460 3029
L16460 3029
" />
<path d="M12210 3279
L12460 3029
" />
<path d="M12210 6029
L12210 3279
" />
<path d="M13210 3786
L13210 6029
" />
<path d="M13467 3529
L13210 3786
" />
<path d="M16570 3889
L16210 3529
" />
<path d="M16570 12169
L16570 3889
" />
<path d="M16210 3529
L13467 3529
" />
<path d="M15960 12779
L16570 12169
" />
<path d="M13210 9029
L13210 8017
" />
<path d="M12710 9529
L13210 9029
" />
<path d="M12710 20586
L12710 9529
" />
<path d="M13903 21779
L12710 20586
" />
<path d="M14661 21779
L13903 21779
" />
<path d="M16960 20279
L16460 19779
" />
<path d="M16460 19779
L15192 19779
" />
<path d="M16960 22779
L16960 20279
" />
<path d="M15192 19779
L14661 19779
" />
<path d="M17710 23529
L16960 22779
" />
<path d="M16311 18133
L15015 18133
" />
<path d="M15015 18133
L14661 17779
" />
<path d="M19009 20832
L16311 18133
" />
<path d="M19009 22529
L19009 20832
" />
<path d="M18460 16029
L18960 16529
" />
<path d="M15710 16029
L18460 16029
" />
<path d="M15460 15779
L15710 16029
" />
<path d="M14661 15779
L15460 15779
" />
<path d="M14210 8779
L14210 8017
" />
<path d="M13710 9279
L14210 8779
" />
<path d="M13710 15029
L13710 9279
" />
<path d="M14460 15779
L13710 15029
" />
<path d="M14661 15779
L14460 15779
" />
<path d="M14460 13779
L14051 13370
" />
<path d="M14661 13779
L14460 13779
" />
<path d="M17129 15529
L17661 15529
" />
<path d="M15714 15529
L17129 15529
" />
<path d="M14661 14476
L15714 15529
" />
<path d="M14661 13779
L14661 14476
" />
<path d="M15210 8795
L15210 8017
" />
<path d="M14051 9954
L15210 8795
" />
<path d="M14051 13370
L14051 9954
" />
<path d="M15710 6529
L15210 6029
" />
<path d="M15710 10029
L15710 6529
" />
<path d="M14661 11078
L15710 10029
" />
<path d="M14661 11779
L14661 11078
" />
<path d="M6710 2779
L6710 3279
" />
<path d="M6354 2423
L6710 2779
" />
<path d="M4968 2779
L5324 2423
" />
<path d="M4460 11779
L4460 3279
" />
<path d="M6460 13779
L4460 11779
" />
<path d="M4960 2779
L4968 2779
" />
<path d="M4460 3279
L4960 2779
" />
<path d="M5324 2423
L6354 2423
" />
<path d="M6561 13779
L6460 13779
" />
<path d="M6029 15779
L3960 13710
" />
<path d="M3960 3029
L4881 2108
" />
<path d="M7710 2501
L7710 3279
" />
<path d="M7316 2108
L7710 2501
" />
<path d="M4881 2108
L7316 2108
" />
<path d="M3960 13710
L3960 3029
" />
<path d="M6561 15779
L6029 15779
" />
<path d="M6561 17779
L6561 17679
" />
<path d="M8710 2279
L8710 3251
" />
<path d="M4011 1478
L7909 1478
" />
<path d="M2710 2779
L4011 1478
" />
<path d="M2710 18175
L2710 2779
" />
<path d="M3064 18529
L2710 18175
" />
<path d="M6165 18529
L3064 18529
" />
<path d="M6561 18133
L6165 18529
" />
<path d="M7909 1478
L8710 2279
" />
<path d="M6561 17779
L6561 18133
" />
<path d="M8710 11929
L8710 5267
" />
<path d="M7860 12779
L8710 11929
" />
<path d="M9710 13029
L9710 5267
" />
<path d="M7960 14779
L9710 13029
" />
<path d="M7860 14779
L7960 14779
" />
<path d="M11210 13529
L11210 8017
" />
<path d="M7960 16779
L11210 13529
" />
<path d="M7860 16779
L7960 16779
" />
<path d="M12210 14529
L12210 8017
" />
<path d="M7960 18779
L12210 14529
" />
<path d="M7860 18779
L7960 18779
" />
</g>
<g style="fill:#000000; fill-opacity:0.0; 
stroke:#000000; stroke-width:314.961; stroke-opacity:1; 
stroke-linecap:round; stroke-linejoin:round;">
<path d="M5743 23603
L5210 24135
" />
<path d="M7960 23603
L5743 23603
" />
<path d="M8034 26029
L7960 25955
" />
<path d="M9710 26029
L8034 26029
" />
<path d="M6710 5267
L6710 7529
" />
</g>
<g style="fill:#000000; fill-opacity:0.0; 
stroke:#000000; stroke-width:157.48; stroke-opacity:1; 
stroke-linecap:round; stroke-linejoin:round;">
<path d="M14210 5029
L14210 6029
" />
<path d="M15710 4529
L14710 4529
" />
<path d="M16210 5029
L15710 4529
" />
<path d="M14710 4529
L14210 5029
" />
<path d="M16210 10529
L16210 5029
" />
<path d="M15960 10779
L16210 10529
" />
</g>
<g >
</g>
</g>
<g style="fill:#FFFFFF; fill-opacity:0.0; 
stroke:#FFFFFF; stroke-width:157.48; stroke-opacity:1; 
stroke-linecap:round; stroke-linejoin:round;">
</g>
<g style="fill:#FFFFFF; fill-opacity:1.0; 
stroke:#FFFFFF; stroke-width:0; stroke-opacity:1; 
stroke-linecap:round; stroke-linejoin:round;">
<circle cx="5710.63" cy="9279.53" r="157.48" /> 
</g>
<g style="fill:#FFFFFF; fill-opacity:1.0; 
stroke:#FFFFFF; stroke-width:39.3701; stroke-opacity:1; 
stroke-linecap:round; stroke-linejoin:round;">
</g>
<g style="fill:#FFFFFF; fill-opacity:1.0; 
stroke:#FFFFFF; stroke-width:0; stroke-opacity:1; 
stroke-linecap:round; stroke-linejoin:round;">
<circle cx="4210.63" cy="21779.5" r="157.48" /> 
</g>
<g style="fill:#FFFFFF; fill-opacity:1.0; 
stroke:#FFFFFF; stroke-width:39.3701; stroke-opacity:1; 
stroke-linecap:round; stroke-linejoin:round;">
</g>
<g style="fill:#FFFFFF; fill-opacity:1.0; 
stroke:#FFFFFF; stroke-width:0; stroke-opacity:1; 
stroke-linecap:round; stroke-linejoin:round;">
<circle cx="18960.6" cy="19529.5" r="157.48" /> 
</g>
<g style="fill:#FFFFFF; fill-opacity:1.0; 
stroke:#FFFFFF; stroke-width:39.3701; stroke-opacity:1; 
stroke-linecap:round; stroke-linejoin:round;">
</g>
<g style="fill:#FFFFFF; fill-opacity:1.0; 
stroke:#FFFFFF; stroke-width:0; stroke-opacity:1; 
stroke-linecap:round; stroke-linejoin:round;">
<circle cx="11238.2" cy="22557.1" r="157.48" /> 
</g>
<g style="fill:#FFFFFF; fill-opacity:1.0; 
stroke:#FFFFFF; stroke-width:39.3701; stroke-opacity:1; 
stroke-linecap:round; stroke-linejoin:round;">
</g>
<g style="fill:#FFFFFF; fill-opacity:1.0; 
stroke:#FFFFFF; stroke-width:0; stroke-opacity:1; 
stroke-linecap:round; stroke-linejoin:round;">
<circle cx="17437" cy="12779.5" r="157.48" /> 
</g>
<g style="fill:#FFFFFF; fill-opacity:1.0; 
stroke:#FFFFFF; stroke-width:39.3701; stroke-opacity:1; 
stroke-linecap:round; stroke-linejoin:round;">
</g>
<g style="fill:#FFFFFF; fill-opacity:1.0; 
stroke:#FFFFFF; stroke-width:0; stroke-opacity:1; 
stroke-linecap:round; stroke-linejoin:round;">
<circle cx="17210.6" cy="16580.7" r="157.48" /> 
</g>
<g style="fill:#FFFFFF; fill-opacity:1.0; 
stroke:#FFFFFF; stroke-width:39.3701; stroke-opacity:1; 
stroke-linecap:round; stroke-linejoin:round;">
</g>
<g style="fill:#FFFFFF; fill-opacity:1.0; 
stroke:#FFFFFF; stroke-width:0; stroke-opacity:1; 
stroke-linecap:round; stroke-linejoin:round;">
<circle cx="6710.63" cy="7529.53" r="157.48" /> 
</g>
<g style="fill:#FFFFFF; fill-opacity:1.0; 
stroke:#FFFFFF; stroke-width:39.3701; stroke-opacity:1; 
stroke-linecap:round; stroke-linejoin:round;">
</g>
<g style="fill:#FFFFFF; fill-opacity:1.0; 
stroke:#FFFFFF; stroke-width:0; stroke-opacity:1; 
stroke-linecap:round; stroke-linejoin:round;">
<circle cx="9710.63" cy="26029.5" r="157.48" /> 
</g>
<g style="fill:#FFFFFF; fill-opacity:1.0; 
stroke:#FFFFFF; stroke-width:39.3701; stroke-opacity:1; 
stroke-linecap:round; stroke-linejoin:round;">
</g>
<g style="fill:#FFFFFF; fill-opacity:1.0; 
stroke:#FFFFFF; stroke-width:0; stroke-opacity:1; 
stroke-linecap:round; stroke-linejoin:round;">
<circle cx="1960.63" cy="18779.5" r="393.701" /> 
</g>
<g style="fill:#FFFFFF; fill-opacity:1.0; 
stroke:#FFFFFF; stroke-width:39.3701; stroke-opacity:1; 
stroke-linecap:round; stroke-linejoin:round;">
</g>
<g style="fill:#FFFFFF; fill-opacity:1.0; 
stroke:#FFFFFF; stroke-width:0; stroke-opacity:1; 
stroke-linecap:round; stroke-linejoin:round;">
<circle cx="2210.63" cy="25779.5" r="393.701" /> 
</g>
<g style="fill:#FFFFFF; fill-opacity:1.0; 
stroke:#FFFFFF; stroke-width:39.3701; stroke-opacity:1; 
stroke-linecap:round; stroke-linejoin:round;">
</g>
<g style="fill:#FFFFFF; fill-opacity:1.0; 
stroke:#FFFFFF; stroke-width:0; stroke-opacity:1; 
stroke-linecap:round; stroke-linejoin:round;">
<circle cx="19460.6" cy="25779.5" r="393.701" /> 
</g>
<g style="fill:#FFFFFF; fill-opacity:1.0; 
stroke:#FFFFFF; stroke-width:39.3701; stroke-opacity:1; 
stroke-linecap:round; stroke-linejoin:round;">
</g>
<g style="fill:#FFFFFF; fill-opacity:1.0; 
stroke:#FFFFFF; stroke-width:0; stroke-opacity:1; 
stroke-linecap:round; stroke-linejoin:round;">
<circle cx="19460.6" cy="2029.53" r="393.701" /> 
</g>
<g style="fill:#FFFFFF; fill-opacity:1.0; 
stroke:#FFFFFF; stroke-width:39.3701; stroke-opacity:1; 
stroke-linecap:round; stroke-linejoin:round;">
</g>
<g style="fill:#FFFFFF; fill-opacity:1.0; 
stroke:#FFFFFF; stroke-width:0; stroke-opacity:1; 
stroke-linecap:round; stroke-linejoin:round;">
<circle cx="2210.63" cy="2029.53" r="393.701" /> 
</g>
<g style="fill:#FFFFFF; fill-opacity:1.0; 
stroke:#FFFFFF; stroke-width:39.3701; stroke-opacity:1; 
stroke-linecap:round; stroke-linejoin:round;">
</g>
<g style="fill:#000000; fill-opacity:1.0; 
stroke:#000000; stroke-width:39.3701; stroke-opacity:1; 
stroke-linecap:round; stroke-linejoin:round;">
</g> 
</svg>
