(kicad_pcb (version 20171130) (host pcbnew "(5.1.5-0)")

  (general
    (thickness 1.6)
    (drawings 10)
    (tracks 194)
    (zones 0)
    (modules 15)
    (nets 26)
  )

  (page A4)
  (layers
    (0 F.Cu signal)
    (31 B.Cu signal)
    (32 B.Adhes user)
    (33 F.Adhes user)
    (34 B.Paste user)
    (35 F.Paste user)
    (36 B.SilkS user)
    (37 F.SilkS user)
    (38 B.Mask user)
    (39 F.Mask user)
    (40 Dwgs.User user hide)
    (41 Cmts.User user)
    (42 Eco1.User user)
    (43 Eco2.User user)
    (44 Edge.Cuts user)
    (45 Margin user)
    (46 B.CrtYd user)
    (47 F.CrtYd user)
    (48 B.Fab user)
    (49 F.Fab user)
  )

  (setup
    (last_trace_width 0.4)
    (trace_clearance 0.4)
    (zone_clearance 0.508)
    (zone_45_only no)
    (trace_min 0.2)
    (via_size 1.6)
    (via_drill 0.8)
    (via_min_size 0.4)
    (via_min_drill 0.3)
    (uvia_size 0.3)
    (uvia_drill 0.1)
    (uvias_allowed no)
    (uvia_min_size 0.2)
    (uvia_min_drill 0.1)
    (edge_width 0.05)
    (segment_width 0.2)
    (pcb_text_width 0.3)
    (pcb_text_size 1.5 1.5)
    (mod_edge_width 0.12)
    (mod_text_size 1 1)
    (mod_text_width 0.15)
    (pad_size 1.524 1.524)
    (pad_drill 0.762)
    (pad_to_mask_clearance 0.051)
    (solder_mask_min_width 0.25)
    (aux_axis_origin 0 0)
    (visible_elements FFFFFF7F)
    (pcbplotparams
      (layerselection 0x010fc_ffffffff)
      (usegerberextensions false)
      (usegerberattributes false)
      (usegerberadvancedattributes false)
      (creategerberjobfile false)
      (excludeedgelayer true)
      (linewidth 0.100000)
      (plotframeref false)
      (viasonmask false)
      (mode 1)
      (useauxorigin false)
      (hpglpennumber 1)
      (hpglpenspeed 20)
      (hpglpendiameter 15.000000)
      (psnegative false)
      (psa4output false)
      (plotreference true)
      (plotvalue true)
      (plotinvisibletext false)
      (padsonsilk false)
      (subtractmaskfromsilk false)
      (outputformat 1)
      (mirror false)
      (drillshape 1)
      (scaleselection 1)
      (outputdirectory ""))
  )

  (net 0 "")
  (net 1 /IO21)
  (net 2 /GND)
  (net 3 /IO23-SDA)
  (net 4 /IO22-SCL)
  (net 5 /3V3-O250mA)
  (net 6 /IO25-A1)
  (net 7 /I39-A3)
  (net 8 /IO4-A5-T2-CS)
  (net 9 /IO18-MOSI)
  (net 10 /IO16-RX)
  (net 11 /IO26-A0)
  (net 12 /I34-A2)
  (net 13 /I36-A4)
  (net 14 /IO5-SCK)
  (net 15 /IO19-MISO)
  (net 16 /IO17-TX)
  (net 17 /IO32-A7-T1)
  (net 18 /IO33-A9-T1)
  (net 19 /IO12-A11)
  (net 20 /IO14-A6-T2)
  (net 21 /IO15-A8-T2)
  (net 22 /IO27-A10-T2)
  (net 23 /IO13-A12-T2)
  (net 24 "Net-(J10-Pad2)")
  (net 25 /Motor-BAT)

  (net_class Default "This is the default net class."
    (clearance 0.4)
    (trace_width 0.4)
    (via_dia 1.6)
    (via_drill 0.8)
    (uvia_dia 0.3)
    (uvia_drill 0.1)
    (add_net /I34-A2)
    (add_net /I36-A4)
    (add_net /I39-A3)
    (add_net /IO12-A11)
    (add_net /IO13-A12-T2)
    (add_net /IO14-A6-T2)
    (add_net /IO15-A8-T2)
    (add_net /IO16-RX)
    (add_net /IO17-TX)
    (add_net /IO18-MOSI)
    (add_net /IO19-MISO)
    (add_net /IO21)
    (add_net /IO22-SCL)
    (add_net /IO23-SDA)
    (add_net /IO25-A1)
    (add_net /IO26-A0)
    (add_net /IO27-A10-T2)
    (add_net /IO32-A7-T1)
    (add_net /IO33-A9-T1)
    (add_net /IO4-A5-T2-CS)
    (add_net /IO5-SCK)
    (add_net "Net-(J10-Pad2)")
  )

  (net_class Power ""
    (clearance 0.4)
    (trace_width 0.8)
    (via_dia 1.6)
    (via_drill 0.8)
    (uvia_dia 0.3)
    (uvia_drill 0.1)
    (add_net /3V3-O250mA)
    (add_net /GND)
    (add_net /Motor-BAT)
  )

  (module custom-footprints:MountHole_2mm (layer F.Cu) (tedit 6070E181) (tstamp 607120B7)
    (at 159.385 40.64)
    (fp_text reference REF** (at 0 0.635) (layer F.SilkS)
      (effects (font (size 1 1) (thickness 0.15)))
    )
    (fp_text value MountHole_2mm (at 0.635 1.27) (layer F.Fab)
      (effects (font (size 1 1) (thickness 0.15)))
    )
    (pad "" thru_hole circle (at 0 0) (size 2 2) (drill 2) (layers *.Cu))
  )

  (module custom-footprints:MountHole_2mm (layer F.Cu) (tedit 6070E181) (tstamp 607120A2)
    (at 140.97 83.185)
    (fp_text reference REF** (at 0.635 1.905) (layer F.SilkS)
      (effects (font (size 1 1) (thickness 0.15)))
    )
    (fp_text value MountHole_2mm (at 4.445 -2.205) (layer F.Fab)
      (effects (font (size 1 1) (thickness 0.15)))
    )
    (pad "" thru_hole circle (at 0 0) (size 2 2) (drill 2) (layers *.Cu))
  )

  (module custom-footprints:MountHole (layer F.Cu) (tedit 6070E008) (tstamp 60711F78)
    (at 141.605 100.965)
    (fp_text reference REF** (at 0 0.635) (layer F.SilkS)
      (effects (font (size 1 1) (thickness 0.15)))
    )
    (fp_text value MountHole (at 1.27 -2.54) (layer F.Fab)
      (effects (font (size 1 1) (thickness 0.15)))
    )
    (pad "" thru_hole circle (at 0 0) (size 2.5 2.5) (drill 2.5) (layers *.Cu))
  )

  (module custom-footprints:MountHole (layer F.Cu) (tedit 6070E008) (tstamp 60711F53)
    (at 185.42 100.965)
    (fp_text reference REF** (at 0 0.635) (layer F.SilkS)
      (effects (font (size 1 1) (thickness 0.15)))
    )
    (fp_text value MountHole (at -1.905 -1.905) (layer F.Fab)
      (effects (font (size 1 1) (thickness 0.15)))
    )
    (pad "" thru_hole circle (at 0 0) (size 2.5 2.5) (drill 2.5) (layers *.Cu))
  )

  (module custom-footprints:MountHole (layer F.Cu) (tedit 6070E008) (tstamp 60711F34)
    (at 141.605 40.64)
    (fp_text reference REF** (at 0 0.635) (layer F.SilkS)
      (effects (font (size 1 1) (thickness 0.15)))
    )
    (fp_text value MountHole (at 3.81 -1.27) (layer F.Fab)
      (effects (font (size 1 1) (thickness 0.15)))
    )
    (pad "" thru_hole circle (at 0 0) (size 2.5 2.5) (drill 2.5) (layers *.Cu))
  )

  (module custom-footprints:MountHole (layer F.Cu) (tedit 6070E008) (tstamp 60711C95)
    (at 185.42 40.64)
    (fp_text reference REF** (at 0 0.5) (layer F.SilkS)
      (effects (font (size 1 1) (thickness 0.15)))
    )
    (fp_text value MountHole (at -3.175 -0.635) (layer F.Fab)
      (effects (font (size 1 1) (thickness 0.15)))
    )
    (pad "" thru_hole circle (at 0 0) (size 2.5 2.5) (drill 2.5) (layers *.Cu))
  )

  (module Connector_PinHeader_2.54mm:PinHeader_2x10_P2.54mm_Vertical_SMD (layer F.Cu) (tedit 59FED5CC) (tstamp 6070CBD9)
    (at 161.925 48.245 90)
    (descr "surface-mounted straight pin header, 2x10, 2.54mm pitch, double rows")
    (tags "Surface mounted pin header SMD 2x10 2.54mm double row")
    (path /607E280B)
    (attr smd)
    (fp_text reference J5 (at 0 -13.76 90) (layer F.SilkS)
      (effects (font (size 1 1) (thickness 0.15)))
    )
    (fp_text value IDC_2x10 (at 3.795 -1.27 180) (layer F.Fab)
      (effects (font (size 1 1) (thickness 0.15)))
    )
    (fp_text user %R (at 0 0) (layer F.Fab)
      (effects (font (size 1 1) (thickness 0.15)))
    )
    (fp_line (start 5.9 -13.2) (end -5.9 -13.2) (layer F.CrtYd) (width 0.05))
    (fp_line (start 5.9 13.2) (end 5.9 -13.2) (layer F.CrtYd) (width 0.05))
    (fp_line (start -5.9 13.2) (end 5.9 13.2) (layer F.CrtYd) (width 0.05))
    (fp_line (start -5.9 -13.2) (end -5.9 13.2) (layer F.CrtYd) (width 0.05))
    (fp_line (start 2.6 9.65) (end 2.6 10.67) (layer F.SilkS) (width 0.12))
    (fp_line (start -2.6 9.65) (end -2.6 10.67) (layer F.SilkS) (width 0.12))
    (fp_line (start 2.6 7.11) (end 2.6 8.13) (layer F.SilkS) (width 0.12))
    (fp_line (start -2.6 7.11) (end -2.6 8.13) (layer F.SilkS) (width 0.12))
    (fp_line (start 2.6 4.57) (end 2.6 5.59) (layer F.SilkS) (width 0.12))
    (fp_line (start -2.6 4.57) (end -2.6 5.59) (layer F.SilkS) (width 0.12))
    (fp_line (start 2.6 2.03) (end 2.6 3.05) (layer F.SilkS) (width 0.12))
    (fp_line (start -2.6 2.03) (end -2.6 3.05) (layer F.SilkS) (width 0.12))
    (fp_line (start 2.6 -0.51) (end 2.6 0.51) (layer F.SilkS) (width 0.12))
    (fp_line (start -2.6 -0.51) (end -2.6 0.51) (layer F.SilkS) (width 0.12))
    (fp_line (start 2.6 -3.05) (end 2.6 -2.03) (layer F.SilkS) (width 0.12))
    (fp_line (start -2.6 -3.05) (end -2.6 -2.03) (layer F.SilkS) (width 0.12))
    (fp_line (start 2.6 -5.59) (end 2.6 -4.57) (layer F.SilkS) (width 0.12))
    (fp_line (start -2.6 -5.59) (end -2.6 -4.57) (layer F.SilkS) (width 0.12))
    (fp_line (start 2.6 -8.13) (end 2.6 -7.11) (layer F.SilkS) (width 0.12))
    (fp_line (start -2.6 -8.13) (end -2.6 -7.11) (layer F.SilkS) (width 0.12))
    (fp_line (start 2.6 -10.67) (end 2.6 -9.65) (layer F.SilkS) (width 0.12))
    (fp_line (start -2.6 -10.67) (end -2.6 -9.65) (layer F.SilkS) (width 0.12))
    (fp_line (start 2.6 12.19) (end 2.6 12.76) (layer F.SilkS) (width 0.12))
    (fp_line (start -2.6 12.19) (end -2.6 12.76) (layer F.SilkS) (width 0.12))
    (fp_line (start 2.6 -12.76) (end 2.6 -12.19) (layer F.SilkS) (width 0.12))
    (fp_line (start -2.6 -12.76) (end -2.6 -12.19) (layer F.SilkS) (width 0.12))
    (fp_line (start -4.04 -12.19) (end -2.6 -12.19) (layer F.SilkS) (width 0.12))
    (fp_line (start -2.6 12.76) (end 2.6 12.76) (layer F.SilkS) (width 0.12))
    (fp_line (start -2.6 -12.76) (end 2.6 -12.76) (layer F.SilkS) (width 0.12))
    (fp_line (start 3.6 11.75) (end 2.54 11.75) (layer F.Fab) (width 0.1))
    (fp_line (start 3.6 11.11) (end 3.6 11.75) (layer F.Fab) (width 0.1))
    (fp_line (start 2.54 11.11) (end 3.6 11.11) (layer F.Fab) (width 0.1))
    (fp_line (start -3.6 11.75) (end -2.54 11.75) (layer F.Fab) (width 0.1))
    (fp_line (start -3.6 11.11) (end -3.6 11.75) (layer F.Fab) (width 0.1))
    (fp_line (start -2.54 11.11) (end -3.6 11.11) (layer F.Fab) (width 0.1))
    (fp_line (start 3.6 9.21) (end 2.54 9.21) (layer F.Fab) (width 0.1))
    (fp_line (start 3.6 8.57) (end 3.6 9.21) (layer F.Fab) (width 0.1))
    (fp_line (start 2.54 8.57) (end 3.6 8.57) (layer F.Fab) (width 0.1))
    (fp_line (start -3.6 9.21) (end -2.54 9.21) (layer F.Fab) (width 0.1))
    (fp_line (start -3.6 8.57) (end -3.6 9.21) (layer F.Fab) (width 0.1))
    (fp_line (start -2.54 8.57) (end -3.6 8.57) (layer F.Fab) (width 0.1))
    (fp_line (start 3.6 6.67) (end 2.54 6.67) (layer F.Fab) (width 0.1))
    (fp_line (start 3.6 6.03) (end 3.6 6.67) (layer F.Fab) (width 0.1))
    (fp_line (start 2.54 6.03) (end 3.6 6.03) (layer F.Fab) (width 0.1))
    (fp_line (start -3.6 6.67) (end -2.54 6.67) (layer F.Fab) (width 0.1))
    (fp_line (start -3.6 6.03) (end -3.6 6.67) (layer F.Fab) (width 0.1))
    (fp_line (start -2.54 6.03) (end -3.6 6.03) (layer F.Fab) (width 0.1))
    (fp_line (start 3.6 4.13) (end 2.54 4.13) (layer F.Fab) (width 0.1))
    (fp_line (start 3.6 3.49) (end 3.6 4.13) (layer F.Fab) (width 0.1))
    (fp_line (start 2.54 3.49) (end 3.6 3.49) (layer F.Fab) (width 0.1))
    (fp_line (start -3.6 4.13) (end -2.54 4.13) (layer F.Fab) (width 0.1))
    (fp_line (start -3.6 3.49) (end -3.6 4.13) (layer F.Fab) (width 0.1))
    (fp_line (start -2.54 3.49) (end -3.6 3.49) (layer F.Fab) (width 0.1))
    (fp_line (start 3.6 1.59) (end 2.54 1.59) (layer F.Fab) (width 0.1))
    (fp_line (start 3.6 0.95) (end 3.6 1.59) (layer F.Fab) (width 0.1))
    (fp_line (start 2.54 0.95) (end 3.6 0.95) (layer F.Fab) (width 0.1))
    (fp_line (start -3.6 1.59) (end -2.54 1.59) (layer F.Fab) (width 0.1))
    (fp_line (start -3.6 0.95) (end -3.6 1.59) (layer F.Fab) (width 0.1))
    (fp_line (start -2.54 0.95) (end -3.6 0.95) (layer F.Fab) (width 0.1))
    (fp_line (start 3.6 -0.95) (end 2.54 -0.95) (layer F.Fab) (width 0.1))
    (fp_line (start 3.6 -1.59) (end 3.6 -0.95) (layer F.Fab) (width 0.1))
    (fp_line (start 2.54 -1.59) (end 3.6 -1.59) (layer F.Fab) (width 0.1))
    (fp_line (start -3.6 -0.95) (end -2.54 -0.95) (layer F.Fab) (width 0.1))
    (fp_line (start -3.6 -1.59) (end -3.6 -0.95) (layer F.Fab) (width 0.1))
    (fp_line (start -2.54 -1.59) (end -3.6 -1.59) (layer F.Fab) (width 0.1))
    (fp_line (start 3.6 -3.49) (end 2.54 -3.49) (layer F.Fab) (width 0.1))
    (fp_line (start 3.6 -4.13) (end 3.6 -3.49) (layer F.Fab) (width 0.1))
    (fp_line (start 2.54 -4.13) (end 3.6 -4.13) (layer F.Fab) (width 0.1))
    (fp_line (start -3.6 -3.49) (end -2.54 -3.49) (layer F.Fab) (width 0.1))
    (fp_line (start -3.6 -4.13) (end -3.6 -3.49) (layer F.Fab) (width 0.1))
    (fp_line (start -2.54 -4.13) (end -3.6 -4.13) (layer F.Fab) (width 0.1))
    (fp_line (start 3.6 -6.03) (end 2.54 -6.03) (layer F.Fab) (width 0.1))
    (fp_line (start 3.6 -6.67) (end 3.6 -6.03) (layer F.Fab) (width 0.1))
    (fp_line (start 2.54 -6.67) (end 3.6 -6.67) (layer F.Fab) (width 0.1))
    (fp_line (start -3.6 -6.03) (end -2.54 -6.03) (layer F.Fab) (width 0.1))
    (fp_line (start -3.6 -6.67) (end -3.6 -6.03) (layer F.Fab) (width 0.1))
    (fp_line (start -2.54 -6.67) (end -3.6 -6.67) (layer F.Fab) (width 0.1))
    (fp_line (start 3.6 -8.57) (end 2.54 -8.57) (layer F.Fab) (width 0.1))
    (fp_line (start 3.6 -9.21) (end 3.6 -8.57) (layer F.Fab) (width 0.1))
    (fp_line (start 2.54 -9.21) (end 3.6 -9.21) (layer F.Fab) (width 0.1))
    (fp_line (start -3.6 -8.57) (end -2.54 -8.57) (layer F.Fab) (width 0.1))
    (fp_line (start -3.6 -9.21) (end -3.6 -8.57) (layer F.Fab) (width 0.1))
    (fp_line (start -2.54 -9.21) (end -3.6 -9.21) (layer F.Fab) (width 0.1))
    (fp_line (start 3.6 -11.11) (end 2.54 -11.11) (layer F.Fab) (width 0.1))
    (fp_line (start 3.6 -11.75) (end 3.6 -11.11) (layer F.Fab) (width 0.1))
    (fp_line (start 2.54 -11.75) (end 3.6 -11.75) (layer F.Fab) (width 0.1))
    (fp_line (start -3.6 -11.11) (end -2.54 -11.11) (layer F.Fab) (width 0.1))
    (fp_line (start -3.6 -11.75) (end -3.6 -11.11) (layer F.Fab) (width 0.1))
    (fp_line (start -2.54 -11.75) (end -3.6 -11.75) (layer F.Fab) (width 0.1))
    (fp_line (start 2.54 -12.7) (end 2.54 12.7) (layer F.Fab) (width 0.1))
    (fp_line (start -2.54 -11.75) (end -1.59 -12.7) (layer F.Fab) (width 0.1))
    (fp_line (start -2.54 12.7) (end -2.54 -11.75) (layer F.Fab) (width 0.1))
    (fp_line (start -1.59 -12.7) (end 2.54 -12.7) (layer F.Fab) (width 0.1))
    (fp_line (start 2.54 12.7) (end -2.54 12.7) (layer F.Fab) (width 0.1))
    (pad 20 smd rect (at 2.525 11.43 90) (size 3.15 1) (layers F.Cu F.Paste F.Mask)
      (net 16 /IO17-TX))
    (pad 19 smd rect (at -2.525 11.43 90) (size 3.15 1) (layers F.Cu F.Paste F.Mask)
      (net 15 /IO19-MISO))
    (pad 18 smd rect (at 2.525 8.89 90) (size 3.15 1) (layers F.Cu F.Paste F.Mask)
      (net 1 /IO21))
    (pad 17 smd rect (at -2.525 8.89 90) (size 3.15 1) (layers F.Cu F.Paste F.Mask)
      (net 14 /IO5-SCK))
    (pad 16 smd rect (at 2.525 6.35 90) (size 3.15 1) (layers F.Cu F.Paste F.Mask)
      (net 10 /IO16-RX))
    (pad 15 smd rect (at -2.525 6.35 90) (size 3.15 1) (layers F.Cu F.Paste F.Mask)
      (net 11 /IO26-A0))
    (pad 14 smd rect (at 2.525 3.81 90) (size 3.15 1) (layers F.Cu F.Paste F.Mask)
      (net 9 /IO18-MOSI))
    (pad 13 smd rect (at -2.525 3.81 90) (size 3.15 1) (layers F.Cu F.Paste F.Mask)
      (net 23 /IO13-A12-T2))
    (pad 12 smd rect (at 2.525 1.27 90) (size 3.15 1) (layers F.Cu F.Paste F.Mask)
      (net 8 /IO4-A5-T2-CS))
    (pad 11 smd rect (at -2.525 1.27 90) (size 3.15 1) (layers F.Cu F.Paste F.Mask)
      (net 22 /IO27-A10-T2))
    (pad 10 smd rect (at 2.525 -1.27 90) (size 3.15 1) (layers F.Cu F.Paste F.Mask)
      (net 6 /IO25-A1))
    (pad 9 smd rect (at -2.525 -1.27 90) (size 3.15 1) (layers F.Cu F.Paste F.Mask)
      (net 21 /IO15-A8-T2))
    (pad 8 smd rect (at 2.525 -3.81 90) (size 3.15 1) (layers F.Cu F.Paste F.Mask)
      (net 19 /IO12-A11))
    (pad 7 smd rect (at -2.525 -3.81 90) (size 3.15 1) (layers F.Cu F.Paste F.Mask)
      (net 20 /IO14-A6-T2))
    (pad 6 smd rect (at 2.525 -6.35 90) (size 3.15 1) (layers F.Cu F.Paste F.Mask)
      (net 18 /IO33-A9-T1))
    (pad 5 smd rect (at -2.525 -6.35 90) (size 3.15 1) (layers F.Cu F.Paste F.Mask)
      (net 3 /IO23-SDA))
    (pad 4 smd rect (at 2.525 -8.89 90) (size 3.15 1) (layers F.Cu F.Paste F.Mask)
      (net 17 /IO32-A7-T1))
    (pad 3 smd rect (at -2.525 -8.89 90) (size 3.15 1) (layers F.Cu F.Paste F.Mask)
      (net 25 /Motor-BAT))
    (pad 2 smd rect (at 2.525 -11.43 90) (size 3.15 1) (layers F.Cu F.Paste F.Mask)
      (net 4 /IO22-SCL))
    (pad 1 smd rect (at -2.525 -11.43 90) (size 3.15 1) (layers F.Cu F.Paste F.Mask)
      (net 2 /GND))
    (model ${KISYS3DMOD}/Connector_PinHeader_2.54mm.3dshapes/PinHeader_2x10_P2.54mm_Vertical_SMD.wrl
      (at (xyz 0 0 0))
      (scale (xyz 1 1 1))
      (rotate (xyz 0 0 0))
    )
  )

  (module Connector_PinSocket_2.54mm:PinSocket_1x16_P2.54mm_Vertical_SMD_Pin1Right (layer F.Cu) (tedit 5A19A428) (tstamp 5F7CE550)
    (at 174.88 81.915)
    (descr "surface-mounted straight socket strip, 1x16, 2.54mm pitch, single row, style 2 (pin 1 right) (https://cdn.harwin.com/pdfs/M20-786.pdf), script generated")
    (tags "Surface mounted socket strip SMD 1x16 2.54mm single row style2 pin1 right")
    (path /5F7D454E)
    (attr smd)
    (fp_text reference J1 (at 0 -24.685001) (layer F.SilkS)
      (effects (font (size 1 1) (thickness 0.15)))
    )
    (fp_text value Adafruit_ESP32-R_1x16 (at -1.525 -22.145001) (layer F.Fab)
      (effects (font (size 1 1) (thickness 0.15)))
    )
    (fp_text user %R (at 0 0 90) (layer F.Fab)
      (effects (font (size 1 1) (thickness 0.15)))
    )
    (fp_line (start -3.1 20.85) (end -3.1 -21) (layer F.CrtYd) (width 0.05))
    (fp_line (start 3.1 20.85) (end -3.1 20.85) (layer F.CrtYd) (width 0.05))
    (fp_line (start 3.1 -21) (end 3.1 20.85) (layer F.CrtYd) (width 0.05))
    (fp_line (start -3.1 -21) (end 3.1 -21) (layer F.CrtYd) (width 0.05))
    (fp_line (start -2.27 19.35) (end -2.27 18.75) (layer F.Fab) (width 0.1))
    (fp_line (start -1.27 19.35) (end -2.27 19.35) (layer F.Fab) (width 0.1))
    (fp_line (start -2.27 18.75) (end -1.27 18.75) (layer F.Fab) (width 0.1))
    (fp_line (start 2.27 16.81) (end 1.27 16.81) (layer F.Fab) (width 0.1))
    (fp_line (start 2.27 16.21) (end 2.27 16.81) (layer F.Fab) (width 0.1))
    (fp_line (start 1.27 16.21) (end 2.27 16.21) (layer F.Fab) (width 0.1))
    (fp_line (start -2.27 14.27) (end -2.27 13.67) (layer F.Fab) (width 0.1))
    (fp_line (start -1.27 14.27) (end -2.27 14.27) (layer F.Fab) (width 0.1))
    (fp_line (start -2.27 13.67) (end -1.27 13.67) (layer F.Fab) (width 0.1))
    (fp_line (start 2.27 11.73) (end 1.27 11.73) (layer F.Fab) (width 0.1))
    (fp_line (start 2.27 11.13) (end 2.27 11.73) (layer F.Fab) (width 0.1))
    (fp_line (start 1.27 11.13) (end 2.27 11.13) (layer F.Fab) (width 0.1))
    (fp_line (start -2.27 9.19) (end -2.27 8.59) (layer F.Fab) (width 0.1))
    (fp_line (start -1.27 9.19) (end -2.27 9.19) (layer F.Fab) (width 0.1))
    (fp_line (start -2.27 8.59) (end -1.27 8.59) (layer F.Fab) (width 0.1))
    (fp_line (start 2.27 6.65) (end 1.27 6.65) (layer F.Fab) (width 0.1))
    (fp_line (start 2.27 6.05) (end 2.27 6.65) (layer F.Fab) (width 0.1))
    (fp_line (start 1.27 6.05) (end 2.27 6.05) (layer F.Fab) (width 0.1))
    (fp_line (start -2.27 4.11) (end -2.27 3.51) (layer F.Fab) (width 0.1))
    (fp_line (start -1.27 4.11) (end -2.27 4.11) (layer F.Fab) (width 0.1))
    (fp_line (start -2.27 3.51) (end -1.27 3.51) (layer F.Fab) (width 0.1))
    (fp_line (start 2.27 1.57) (end 1.27 1.57) (layer F.Fab) (width 0.1))
    (fp_line (start 2.27 0.97) (end 2.27 1.57) (layer F.Fab) (width 0.1))
    (fp_line (start 1.27 0.97) (end 2.27 0.97) (layer F.Fab) (width 0.1))
    (fp_line (start -2.27 -0.97) (end -2.27 -1.57) (layer F.Fab) (width 0.1))
    (fp_line (start -1.27 -0.97) (end -2.27 -0.97) (layer F.Fab) (width 0.1))
    (fp_line (start -2.27 -1.57) (end -1.27 -1.57) (layer F.Fab) (width 0.1))
    (fp_line (start 2.27 -3.51) (end 1.27 -3.51) (layer F.Fab) (width 0.1))
    (fp_line (start 2.27 -4.11) (end 2.27 -3.51) (layer F.Fab) (width 0.1))
    (fp_line (start 1.27 -4.11) (end 2.27 -4.11) (layer F.Fab) (width 0.1))
    (fp_line (start -2.27 -6.05) (end -2.27 -6.65) (layer F.Fab) (width 0.1))
    (fp_line (start -1.27 -6.05) (end -2.27 -6.05) (layer F.Fab) (width 0.1))
    (fp_line (start -2.27 -6.65) (end -1.27 -6.65) (layer F.Fab) (width 0.1))
    (fp_line (start 2.27 -8.59) (end 1.27 -8.59) (layer F.Fab) (width 0.1))
    (fp_line (start 2.27 -9.19) (end 2.27 -8.59) (layer F.Fab) (width 0.1))
    (fp_line (start 1.27 -9.19) (end 2.27 -9.19) (layer F.Fab) (width 0.1))
    (fp_line (start -2.27 -11.13) (end -2.27 -11.73) (layer F.Fab) (width 0.1))
    (fp_line (start -1.27 -11.13) (end -2.27 -11.13) (layer F.Fab) (width 0.1))
    (fp_line (start -2.27 -11.73) (end -1.27 -11.73) (layer F.Fab) (width 0.1))
    (fp_line (start 2.27 -13.67) (end 1.27 -13.67) (layer F.Fab) (width 0.1))
    (fp_line (start 2.27 -14.27) (end 2.27 -13.67) (layer F.Fab) (width 0.1))
    (fp_line (start 1.27 -14.27) (end 2.27 -14.27) (layer F.Fab) (width 0.1))
    (fp_line (start -2.27 -16.21) (end -2.27 -16.81) (layer F.Fab) (width 0.1))
    (fp_line (start -1.27 -16.21) (end -2.27 -16.21) (layer F.Fab) (width 0.1))
    (fp_line (start -2.27 -16.81) (end -1.27 -16.81) (layer F.Fab) (width 0.1))
    (fp_line (start 2.27 -18.75) (end 1.27 -18.75) (layer F.Fab) (width 0.1))
    (fp_line (start 2.27 -19.35) (end 2.27 -18.75) (layer F.Fab) (width 0.1))
    (fp_line (start 1.27 -19.35) (end 2.27 -19.35) (layer F.Fab) (width 0.1))
    (fp_line (start -1.27 20.42) (end -1.27 -20.42) (layer F.Fab) (width 0.1))
    (fp_line (start 1.27 20.42) (end -1.27 20.42) (layer F.Fab) (width 0.1))
    (fp_line (start 1.27 -19.785) (end 1.27 20.42) (layer F.Fab) (width 0.1))
    (fp_line (start 0.635 -20.42) (end 1.27 -19.785) (layer F.Fab) (width 0.1))
    (fp_line (start -1.27 -20.42) (end 0.635 -20.42) (layer F.Fab) (width 0.1))
    (fp_line (start 1.33 -19.81) (end 2.54 -19.81) (layer F.SilkS) (width 0.12))
    (fp_line (start -1.33 19.81) (end -1.33 20.48) (layer F.SilkS) (width 0.12))
    (fp_line (start -1.33 14.73) (end -1.33 18.29) (layer F.SilkS) (width 0.12))
    (fp_line (start -1.33 9.65) (end -1.33 13.21) (layer F.SilkS) (width 0.12))
    (fp_line (start -1.33 4.57) (end -1.33 8.13) (layer F.SilkS) (width 0.12))
    (fp_line (start -1.33 -0.51) (end -1.33 3.05) (layer F.SilkS) (width 0.12))
    (fp_line (start -1.33 -5.59) (end -1.33 -2.03) (layer F.SilkS) (width 0.12))
    (fp_line (start -1.33 -10.67) (end -1.33 -7.11) (layer F.SilkS) (width 0.12))
    (fp_line (start -1.33 -15.75) (end -1.33 -12.19) (layer F.SilkS) (width 0.12))
    (fp_line (start -1.33 -20.48) (end -1.33 -17.27) (layer F.SilkS) (width 0.12))
    (fp_line (start -1.33 20.48) (end 1.33 20.48) (layer F.SilkS) (width 0.12))
    (fp_line (start 1.33 17.27) (end 1.33 20.48) (layer F.SilkS) (width 0.12))
    (fp_line (start 1.33 12.19) (end 1.33 15.75) (layer F.SilkS) (width 0.12))
    (fp_line (start 1.33 7.11) (end 1.33 10.67) (layer F.SilkS) (width 0.12))
    (fp_line (start 1.33 2.03) (end 1.33 5.59) (layer F.SilkS) (width 0.12))
    (fp_line (start 1.33 -3.05) (end 1.33 0.51) (layer F.SilkS) (width 0.12))
    (fp_line (start 1.33 -8.13) (end 1.33 -4.57) (layer F.SilkS) (width 0.12))
    (fp_line (start 1.33 -13.21) (end 1.33 -9.65) (layer F.SilkS) (width 0.12))
    (fp_line (start 1.33 -18.29) (end 1.33 -14.73) (layer F.SilkS) (width 0.12))
    (fp_line (start 1.33 -20.48) (end 1.33 -19.81) (layer F.SilkS) (width 0.12))
    (fp_line (start -1.33 -20.48) (end 1.33 -20.48) (layer F.SilkS) (width 0.12))
    (pad 15 smd rect (at 1.65 16.51) (size 1.9 1) (layers F.Cu F.Paste F.Mask)
      (net 5 /3V3-O250mA))
    (pad 13 smd rect (at 1.65 11.43) (size 1.9 1) (layers F.Cu F.Paste F.Mask)
      (net 2 /GND))
    (pad 11 smd rect (at 1.65 6.35) (size 1.9 1) (layers F.Cu F.Paste F.Mask)
      (net 6 /IO25-A1))
    (pad 9 smd rect (at 1.65 1.27) (size 1.9 1) (layers F.Cu F.Paste F.Mask)
      (net 7 /I39-A3))
    (pad 7 smd rect (at 1.65 -3.81) (size 1.9 1) (layers F.Cu F.Paste F.Mask)
      (net 8 /IO4-A5-T2-CS))
    (pad 5 smd rect (at 1.65 -8.89) (size 1.9 1) (layers F.Cu F.Paste F.Mask)
      (net 9 /IO18-MOSI))
    (pad 3 smd rect (at 1.65 -13.97) (size 1.9 1) (layers F.Cu F.Paste F.Mask)
      (net 10 /IO16-RX))
    (pad 1 smd rect (at 1.65 -19.05) (size 1.9 1) (layers F.Cu F.Paste F.Mask)
      (net 1 /IO21))
    (pad 16 smd rect (at -1.65 19.05) (size 1.9 1) (layers F.Cu F.Paste F.Mask))
    (pad 14 smd rect (at -1.65 13.97) (size 1.9 1) (layers F.Cu F.Paste F.Mask))
    (pad 12 smd rect (at -1.65 8.89) (size 1.9 1) (layers F.Cu F.Paste F.Mask)
      (net 11 /IO26-A0))
    (pad 10 smd rect (at -1.65 3.81) (size 1.9 1) (layers F.Cu F.Paste F.Mask)
      (net 12 /I34-A2))
    (pad 8 smd rect (at -1.65 -1.27) (size 1.9 1) (layers F.Cu F.Paste F.Mask)
      (net 13 /I36-A4))
    (pad 6 smd rect (at -1.65 -6.35) (size 1.9 1) (layers F.Cu F.Paste F.Mask)
      (net 14 /IO5-SCK))
    (pad 4 smd rect (at -1.65 -11.43) (size 1.9 1) (layers F.Cu F.Paste F.Mask)
      (net 15 /IO19-MISO))
    (pad 2 smd rect (at -1.65 -16.51) (size 1.9 1) (layers F.Cu F.Paste F.Mask)
      (net 16 /IO17-TX))
    (model ${KISYS3DMOD}/Connector_PinSocket_2.54mm.3dshapes/PinSocket_1x16_P2.54mm_Vertical_SMD_Pin1Right.wrl
      (at (xyz 0 0 0))
      (scale (xyz 1 1 1))
      (rotate (xyz 0 0 0))
    )
  )

  (module Connector_PinSocket_2.54mm:PinSocket_1x12_P2.54mm_Vertical_SMD_Pin1Right (layer F.Cu) (tedit 5A19A431) (tstamp 6070C25B)
    (at 154.305 76.835)
    (descr "surface-mounted straight socket strip, 1x12, 2.54mm pitch, single row, style 2 (pin 1 right) (https://cdn.harwin.com/pdfs/M20-786.pdf), script generated")
    (tags "Surface mounted socket strip SMD 1x12 2.54mm single row style2 pin1 right")
    (path /5F7E1870)
    (attr smd)
    (fp_text reference J2 (at 0 -16.84) (layer F.SilkS)
      (effects (font (size 1 1) (thickness 0.15)))
    )
    (fp_text value Adafruit_ESP32-L_1x12 (at 0 16.84) (layer F.Fab)
      (effects (font (size 1 1) (thickness 0.15)))
    )
    (fp_text user %R (at 0 0 90) (layer F.Fab)
      (effects (font (size 1 1) (thickness 0.15)))
    )
    (fp_line (start -3.1 15.85) (end -3.1 -15.85) (layer F.CrtYd) (width 0.05))
    (fp_line (start 3.1 15.85) (end -3.1 15.85) (layer F.CrtYd) (width 0.05))
    (fp_line (start 3.1 -15.85) (end 3.1 15.85) (layer F.CrtYd) (width 0.05))
    (fp_line (start -3.1 -15.85) (end 3.1 -15.85) (layer F.CrtYd) (width 0.05))
    (fp_line (start -2.27 14.27) (end -2.27 13.67) (layer F.Fab) (width 0.1))
    (fp_line (start -1.27 14.27) (end -2.27 14.27) (layer F.Fab) (width 0.1))
    (fp_line (start -2.27 13.67) (end -1.27 13.67) (layer F.Fab) (width 0.1))
    (fp_line (start 2.27 11.73) (end 1.27 11.73) (layer F.Fab) (width 0.1))
    (fp_line (start 2.27 11.13) (end 2.27 11.73) (layer F.Fab) (width 0.1))
    (fp_line (start 1.27 11.13) (end 2.27 11.13) (layer F.Fab) (width 0.1))
    (fp_line (start -2.27 9.19) (end -2.27 8.59) (layer F.Fab) (width 0.1))
    (fp_line (start -1.27 9.19) (end -2.27 9.19) (layer F.Fab) (width 0.1))
    (fp_line (start -2.27 8.59) (end -1.27 8.59) (layer F.Fab) (width 0.1))
    (fp_line (start 2.27 6.65) (end 1.27 6.65) (layer F.Fab) (width 0.1))
    (fp_line (start 2.27 6.05) (end 2.27 6.65) (layer F.Fab) (width 0.1))
    (fp_line (start 1.27 6.05) (end 2.27 6.05) (layer F.Fab) (width 0.1))
    (fp_line (start -2.27 4.11) (end -2.27 3.51) (layer F.Fab) (width 0.1))
    (fp_line (start -1.27 4.11) (end -2.27 4.11) (layer F.Fab) (width 0.1))
    (fp_line (start -2.27 3.51) (end -1.27 3.51) (layer F.Fab) (width 0.1))
    (fp_line (start 2.27 1.57) (end 1.27 1.57) (layer F.Fab) (width 0.1))
    (fp_line (start 2.27 0.97) (end 2.27 1.57) (layer F.Fab) (width 0.1))
    (fp_line (start 1.27 0.97) (end 2.27 0.97) (layer F.Fab) (width 0.1))
    (fp_line (start -2.27 -0.97) (end -2.27 -1.57) (layer F.Fab) (width 0.1))
    (fp_line (start -1.27 -0.97) (end -2.27 -0.97) (layer F.Fab) (width 0.1))
    (fp_line (start -2.27 -1.57) (end -1.27 -1.57) (layer F.Fab) (width 0.1))
    (fp_line (start 2.27 -3.51) (end 1.27 -3.51) (layer F.Fab) (width 0.1))
    (fp_line (start 2.27 -4.11) (end 2.27 -3.51) (layer F.Fab) (width 0.1))
    (fp_line (start 1.27 -4.11) (end 2.27 -4.11) (layer F.Fab) (width 0.1))
    (fp_line (start -2.27 -6.05) (end -2.27 -6.65) (layer F.Fab) (width 0.1))
    (fp_line (start -1.27 -6.05) (end -2.27 -6.05) (layer F.Fab) (width 0.1))
    (fp_line (start -2.27 -6.65) (end -1.27 -6.65) (layer F.Fab) (width 0.1))
    (fp_line (start 2.27 -8.59) (end 1.27 -8.59) (layer F.Fab) (width 0.1))
    (fp_line (start 2.27 -9.19) (end 2.27 -8.59) (layer F.Fab) (width 0.1))
    (fp_line (start 1.27 -9.19) (end 2.27 -9.19) (layer F.Fab) (width 0.1))
    (fp_line (start -2.27 -11.13) (end -2.27 -11.73) (layer F.Fab) (width 0.1))
    (fp_line (start -1.27 -11.13) (end -2.27 -11.13) (layer F.Fab) (width 0.1))
    (fp_line (start -2.27 -11.73) (end -1.27 -11.73) (layer F.Fab) (width 0.1))
    (fp_line (start 2.27 -13.67) (end 1.27 -13.67) (layer F.Fab) (width 0.1))
    (fp_line (start 2.27 -14.27) (end 2.27 -13.67) (layer F.Fab) (width 0.1))
    (fp_line (start 1.27 -14.27) (end 2.27 -14.27) (layer F.Fab) (width 0.1))
    (fp_line (start -1.27 15.34) (end -1.27 -15.34) (layer F.Fab) (width 0.1))
    (fp_line (start 1.27 15.34) (end -1.27 15.34) (layer F.Fab) (width 0.1))
    (fp_line (start 1.27 -14.705) (end 1.27 15.34) (layer F.Fab) (width 0.1))
    (fp_line (start 0.635 -15.34) (end 1.27 -14.705) (layer F.Fab) (width 0.1))
    (fp_line (start -1.27 -15.34) (end 0.635 -15.34) (layer F.Fab) (width 0.1))
    (fp_line (start 1.33 -14.73) (end 2.54 -14.73) (layer F.SilkS) (width 0.12))
    (fp_line (start -1.33 14.73) (end -1.33 15.4) (layer F.SilkS) (width 0.12))
    (fp_line (start -1.33 9.65) (end -1.33 13.21) (layer F.SilkS) (width 0.12))
    (fp_line (start -1.33 4.57) (end -1.33 8.13) (layer F.SilkS) (width 0.12))
    (fp_line (start -1.33 -0.51) (end -1.33 3.05) (layer F.SilkS) (width 0.12))
    (fp_line (start -1.33 -5.59) (end -1.33 -2.03) (layer F.SilkS) (width 0.12))
    (fp_line (start -1.33 -10.67) (end -1.33 -7.11) (layer F.SilkS) (width 0.12))
    (fp_line (start -1.33 -15.4) (end -1.33 -12.19) (layer F.SilkS) (width 0.12))
    (fp_line (start -1.33 15.4) (end 1.33 15.4) (layer F.SilkS) (width 0.12))
    (fp_line (start 1.33 12.19) (end 1.33 15.4) (layer F.SilkS) (width 0.12))
    (fp_line (start 1.33 7.11) (end 1.33 10.67) (layer F.SilkS) (width 0.12))
    (fp_line (start 1.33 2.03) (end 1.33 5.59) (layer F.SilkS) (width 0.12))
    (fp_line (start 1.33 -3.05) (end 1.33 0.51) (layer F.SilkS) (width 0.12))
    (fp_line (start 1.33 -8.13) (end 1.33 -4.57) (layer F.SilkS) (width 0.12))
    (fp_line (start 1.33 -13.21) (end 1.33 -9.65) (layer F.SilkS) (width 0.12))
    (fp_line (start 1.33 -15.4) (end 1.33 -14.73) (layer F.SilkS) (width 0.12))
    (fp_line (start -1.33 -15.4) (end 1.33 -15.4) (layer F.SilkS) (width 0.12))
    (pad 11 smd rect (at 1.65 11.43) (size 1.9 1) (layers F.Cu F.Paste F.Mask))
    (pad 9 smd rect (at 1.65 6.35) (size 1.9 1) (layers F.Cu F.Paste F.Mask)
      (net 23 /IO13-A12-T2))
    (pad 7 smd rect (at 1.65 1.27) (size 1.9 1) (layers F.Cu F.Paste F.Mask)
      (net 22 /IO27-A10-T2))
    (pad 5 smd rect (at 1.65 -3.81) (size 1.9 1) (layers F.Cu F.Paste F.Mask)
      (net 21 /IO15-A8-T2))
    (pad 3 smd rect (at 1.65 -8.89) (size 1.9 1) (layers F.Cu F.Paste F.Mask)
      (net 20 /IO14-A6-T2))
    (pad 1 smd rect (at 1.65 -13.97) (size 1.9 1) (layers F.Cu F.Paste F.Mask)
      (net 3 /IO23-SDA))
    (pad 12 smd rect (at -1.65 13.97) (size 1.9 1) (layers F.Cu F.Paste F.Mask))
    (pad 10 smd rect (at -1.65 8.89) (size 1.9 1) (layers F.Cu F.Paste F.Mask))
    (pad 8 smd rect (at -1.65 3.81) (size 1.9 1) (layers F.Cu F.Paste F.Mask)
      (net 19 /IO12-A11))
    (pad 6 smd rect (at -1.65 -1.27) (size 1.9 1) (layers F.Cu F.Paste F.Mask)
      (net 18 /IO33-A9-T1))
    (pad 4 smd rect (at -1.65 -6.35) (size 1.9 1) (layers F.Cu F.Paste F.Mask)
      (net 17 /IO32-A7-T1))
    (pad 2 smd rect (at -1.65 -11.43) (size 1.9 1) (layers F.Cu F.Paste F.Mask)
      (net 4 /IO22-SCL))
    (model ${KISYS3DMOD}/Connector_PinSocket_2.54mm.3dshapes/PinSocket_1x12_P2.54mm_Vertical_SMD_Pin1Right.wrl
      (at (xyz 0 0 0))
      (scale (xyz 1 1 1))
      (rotate (xyz 0 0 0))
    )
  )

  (module Connector_PinSocket_2.54mm:PinSocket_1x09_P2.54mm_Vertical_SMD_Pin1Right (layer F.Cu) (tedit 5A19A41D) (tstamp 6070C2E8)
    (at 182.5 72.39)
    (descr "surface-mounted straight socket strip, 1x09, 2.54mm pitch, single row, style 2 (pin 1 right) (https://cdn.harwin.com/pdfs/M20-786.pdf), script generated")
    (tags "Surface mounted socket strip SMD 1x09 2.54mm single row style2 pin1 right")
    (path /6075E152)
    (attr smd)
    (fp_text reference J3 (at 0 -13.03) (layer F.SilkS)
      (effects (font (size 1 1) (thickness 0.15)))
    )
    (fp_text value micro_SD_01x09 (at 0.38 10.795 90) (layer F.Fab)
      (effects (font (size 1 1) (thickness 0.15)))
    )
    (fp_text user %R (at 0 0 90) (layer F.Fab)
      (effects (font (size 1 1) (thickness 0.15)))
    )
    (fp_line (start -3.1 12.05) (end -3.1 -12.05) (layer F.CrtYd) (width 0.05))
    (fp_line (start 3.1 12.05) (end -3.1 12.05) (layer F.CrtYd) (width 0.05))
    (fp_line (start 3.1 -12.05) (end 3.1 12.05) (layer F.CrtYd) (width 0.05))
    (fp_line (start -3.1 -12.05) (end 3.1 -12.05) (layer F.CrtYd) (width 0.05))
    (fp_line (start 2.27 10.46) (end 1.27 10.46) (layer F.Fab) (width 0.1))
    (fp_line (start 2.27 9.86) (end 2.27 10.46) (layer F.Fab) (width 0.1))
    (fp_line (start 1.27 9.86) (end 2.27 9.86) (layer F.Fab) (width 0.1))
    (fp_line (start -2.27 7.92) (end -2.27 7.32) (layer F.Fab) (width 0.1))
    (fp_line (start -1.27 7.92) (end -2.27 7.92) (layer F.Fab) (width 0.1))
    (fp_line (start -2.27 7.32) (end -1.27 7.32) (layer F.Fab) (width 0.1))
    (fp_line (start 2.27 5.38) (end 1.27 5.38) (layer F.Fab) (width 0.1))
    (fp_line (start 2.27 4.78) (end 2.27 5.38) (layer F.Fab) (width 0.1))
    (fp_line (start 1.27 4.78) (end 2.27 4.78) (layer F.Fab) (width 0.1))
    (fp_line (start -2.27 2.84) (end -2.27 2.24) (layer F.Fab) (width 0.1))
    (fp_line (start -1.27 2.84) (end -2.27 2.84) (layer F.Fab) (width 0.1))
    (fp_line (start -2.27 2.24) (end -1.27 2.24) (layer F.Fab) (width 0.1))
    (fp_line (start 2.27 0.3) (end 1.27 0.3) (layer F.Fab) (width 0.1))
    (fp_line (start 2.27 -0.3) (end 2.27 0.3) (layer F.Fab) (width 0.1))
    (fp_line (start 1.27 -0.3) (end 2.27 -0.3) (layer F.Fab) (width 0.1))
    (fp_line (start -2.27 -2.24) (end -2.27 -2.84) (layer F.Fab) (width 0.1))
    (fp_line (start -1.27 -2.24) (end -2.27 -2.24) (layer F.Fab) (width 0.1))
    (fp_line (start -2.27 -2.84) (end -1.27 -2.84) (layer F.Fab) (width 0.1))
    (fp_line (start 2.27 -4.78) (end 1.27 -4.78) (layer F.Fab) (width 0.1))
    (fp_line (start 2.27 -5.38) (end 2.27 -4.78) (layer F.Fab) (width 0.1))
    (fp_line (start 1.27 -5.38) (end 2.27 -5.38) (layer F.Fab) (width 0.1))
    (fp_line (start -2.27 -7.32) (end -2.27 -7.92) (layer F.Fab) (width 0.1))
    (fp_line (start -1.27 -7.32) (end -2.27 -7.32) (layer F.Fab) (width 0.1))
    (fp_line (start -2.27 -7.92) (end -1.27 -7.92) (layer F.Fab) (width 0.1))
    (fp_line (start 2.27 -9.86) (end 1.27 -9.86) (layer F.Fab) (width 0.1))
    (fp_line (start 2.27 -10.46) (end 2.27 -9.86) (layer F.Fab) (width 0.1))
    (fp_line (start 1.27 -10.46) (end 2.27 -10.46) (layer F.Fab) (width 0.1))
    (fp_line (start -1.27 11.53) (end -1.27 -11.53) (layer F.Fab) (width 0.1))
    (fp_line (start 1.27 11.53) (end -1.27 11.53) (layer F.Fab) (width 0.1))
    (fp_line (start 1.27 -10.895) (end 1.27 11.53) (layer F.Fab) (width 0.1))
    (fp_line (start 0.635 -11.53) (end 1.27 -10.895) (layer F.Fab) (width 0.1))
    (fp_line (start -1.27 -11.53) (end 0.635 -11.53) (layer F.Fab) (width 0.1))
    (fp_line (start 1.33 -10.92) (end 2.54 -10.92) (layer F.SilkS) (width 0.12))
    (fp_line (start -1.33 8.38) (end -1.33 11.59) (layer F.SilkS) (width 0.12))
    (fp_line (start -1.33 3.3) (end -1.33 6.86) (layer F.SilkS) (width 0.12))
    (fp_line (start -1.33 -1.78) (end -1.33 1.78) (layer F.SilkS) (width 0.12))
    (fp_line (start -1.33 -6.86) (end -1.33 -3.3) (layer F.SilkS) (width 0.12))
    (fp_line (start -1.33 -11.59) (end -1.33 -8.38) (layer F.SilkS) (width 0.12))
    (fp_line (start -1.33 11.59) (end 1.33 11.59) (layer F.SilkS) (width 0.12))
    (fp_line (start 1.33 10.92) (end 1.33 11.59) (layer F.SilkS) (width 0.12))
    (fp_line (start 1.33 5.84) (end 1.33 9.4) (layer F.SilkS) (width 0.12))
    (fp_line (start 1.33 0.76) (end 1.33 4.32) (layer F.SilkS) (width 0.12))
    (fp_line (start 1.33 -4.32) (end 1.33 -0.76) (layer F.SilkS) (width 0.12))
    (fp_line (start 1.33 -9.4) (end 1.33 -5.84) (layer F.SilkS) (width 0.12))
    (fp_line (start 1.33 -11.59) (end 1.33 -10.92) (layer F.SilkS) (width 0.12))
    (fp_line (start -1.33 -11.59) (end 1.33 -11.59) (layer F.SilkS) (width 0.12))
    (pad 9 smd rect (at 1.65 10.16) (size 1.9 1) (layers F.Cu F.Paste F.Mask)
      (net 5 /3V3-O250mA))
    (pad 7 smd rect (at 1.65 5.08) (size 1.9 1) (layers F.Cu F.Paste F.Mask)
      (net 14 /IO5-SCK))
    (pad 5 smd rect (at 1.65 0) (size 1.9 1) (layers F.Cu F.Paste F.Mask)
      (net 9 /IO18-MOSI))
    (pad 3 smd rect (at 1.65 -5.08) (size 1.9 1) (layers F.Cu F.Paste F.Mask))
    (pad 1 smd rect (at 1.65 -10.16) (size 1.9 1) (layers F.Cu F.Paste F.Mask))
    (pad 8 smd rect (at -1.65 7.62) (size 1.9 1) (layers F.Cu F.Paste F.Mask)
      (net 2 /GND))
    (pad 6 smd rect (at -1.65 2.54) (size 1.9 1) (layers F.Cu F.Paste F.Mask)
      (net 15 /IO19-MISO))
    (pad 4 smd rect (at -1.65 -2.54) (size 1.9 1) (layers F.Cu F.Paste F.Mask)
      (net 8 /IO4-A5-T2-CS))
    (pad 2 smd rect (at -1.65 -7.62) (size 1.9 1) (layers F.Cu F.Paste F.Mask))
    (model ${KISYS3DMOD}/Connector_PinSocket_2.54mm.3dshapes/PinSocket_1x09_P2.54mm_Vertical_SMD_Pin1Right.wrl
      (at (xyz 0 0 0))
      (scale (xyz 1 1 1))
      (rotate (xyz 0 0 0))
    )
  )

  (module Connector_PinSocket_2.54mm:PinSocket_1x03_P2.54mm_Vertical_SMD_Pin1Left (layer F.Cu) (tedit 5A19A42C) (tstamp 6070C30A)
    (at 182.625 92.71)
    (descr "surface-mounted straight socket strip, 1x03, 2.54mm pitch, single row, style 1 (pin 1 left) (https://cdn.harwin.com/pdfs/M20-786.pdf), script generated")
    (tags "Surface mounted socket strip SMD 1x03 2.54mm single row style1 pin1 left")
    (path /607D9C6E)
    (attr smd)
    (fp_text reference J4 (at 0 -5.41) (layer F.SilkS)
      (effects (font (size 1 1) (thickness 0.15)))
    )
    (fp_text value Analog_IN_1x03 (at -0.38 1.905 270) (layer F.Fab)
      (effects (font (size 1 1) (thickness 0.15)))
    )
    (fp_text user %R (at 0 0 90) (layer F.Fab)
      (effects (font (size 1 1) (thickness 0.15)))
    )
    (fp_line (start -3.1 4.4) (end -3.1 -4.45) (layer F.CrtYd) (width 0.05))
    (fp_line (start 3.1 4.4) (end -3.1 4.4) (layer F.CrtYd) (width 0.05))
    (fp_line (start 3.1 -4.45) (end 3.1 4.4) (layer F.CrtYd) (width 0.05))
    (fp_line (start -3.1 -4.45) (end 3.1 -4.45) (layer F.CrtYd) (width 0.05))
    (fp_line (start -2.27 2.84) (end -2.27 2.24) (layer F.Fab) (width 0.1))
    (fp_line (start -1.27 2.84) (end -2.27 2.84) (layer F.Fab) (width 0.1))
    (fp_line (start -2.27 2.24) (end -1.27 2.24) (layer F.Fab) (width 0.1))
    (fp_line (start 2.27 0.3) (end 1.27 0.3) (layer F.Fab) (width 0.1))
    (fp_line (start 2.27 -0.3) (end 2.27 0.3) (layer F.Fab) (width 0.1))
    (fp_line (start 1.27 -0.3) (end 2.27 -0.3) (layer F.Fab) (width 0.1))
    (fp_line (start -2.27 -2.24) (end -2.27 -2.84) (layer F.Fab) (width 0.1))
    (fp_line (start -1.27 -2.24) (end -2.27 -2.24) (layer F.Fab) (width 0.1))
    (fp_line (start -2.27 -2.84) (end -1.27 -2.84) (layer F.Fab) (width 0.1))
    (fp_line (start -1.27 -3.275) (end -0.635 -3.91) (layer F.Fab) (width 0.1))
    (fp_line (start -1.27 3.91) (end -1.27 -3.275) (layer F.Fab) (width 0.1))
    (fp_line (start 1.27 3.91) (end -1.27 3.91) (layer F.Fab) (width 0.1))
    (fp_line (start 1.27 -3.91) (end 1.27 3.91) (layer F.Fab) (width 0.1))
    (fp_line (start -0.635 -3.91) (end 1.27 -3.91) (layer F.Fab) (width 0.1))
    (fp_line (start -2.54 -3.3) (end -1.33 -3.3) (layer F.SilkS) (width 0.12))
    (fp_line (start -1.33 3.3) (end -1.33 3.97) (layer F.SilkS) (width 0.12))
    (fp_line (start -1.33 -1.78) (end -1.33 1.78) (layer F.SilkS) (width 0.12))
    (fp_line (start -1.33 -3.97) (end -1.33 -3.3) (layer F.SilkS) (width 0.12))
    (fp_line (start -1.33 3.97) (end 1.33 3.97) (layer F.SilkS) (width 0.12))
    (fp_line (start 1.33 0.76) (end 1.33 3.97) (layer F.SilkS) (width 0.12))
    (fp_line (start 1.33 -3.97) (end 1.33 -0.76) (layer F.SilkS) (width 0.12))
    (fp_line (start -1.33 -3.97) (end 1.33 -3.97) (layer F.SilkS) (width 0.12))
    (pad 2 smd rect (at 1.65 0) (size 1.9 1) (layers F.Cu F.Paste F.Mask)
      (net 13 /I36-A4))
    (pad 3 smd rect (at -1.65 2.54) (size 1.9 1) (layers F.Cu F.Paste F.Mask)
      (net 12 /I34-A2))
    (pad 1 smd rect (at -1.65 -2.54) (size 1.9 1) (layers F.Cu F.Paste F.Mask)
      (net 7 /I39-A3))
    (model ${KISYS3DMOD}/Connector_PinSocket_2.54mm.3dshapes/PinSocket_1x03_P2.54mm_Vertical_SMD_Pin1Left.wrl
      (at (xyz 0 0 0))
      (scale (xyz 1 1 1))
      (rotate (xyz 0 0 0))
    )
  )

  (module Connector_PinSocket_2.54mm:PinSocket_1x04_P2.54mm_Vertical_SMD_Pin1Right (layer F.Cu) (tedit 5A19A425) (tstamp 6070C30B)
    (at 146.685 82.55 180)
    (descr "surface-mounted straight socket strip, 1x04, 2.54mm pitch, single row, style 2 (pin 1 right) (https://cdn.harwin.com/pdfs/M20-786.pdf), script generated")
    (tags "Surface mounted socket strip SMD 1x04 2.54mm single row style2 pin1 right")
    (path /5F82CFBE)
    (attr smd)
    (fp_text reference J8 (at 0 -6.68) (layer F.SilkS)
      (effects (font (size 1 1) (thickness 0.15)))
    )
    (fp_text value I2C_1x4 (at 0 6.68) (layer F.Fab)
      (effects (font (size 1 1) (thickness 0.15)))
    )
    (fp_text user %R (at 0 0 90) (layer F.Fab)
      (effects (font (size 1 1) (thickness 0.15)))
    )
    (fp_line (start -3.1 5.7) (end -3.1 -5.7) (layer F.CrtYd) (width 0.05))
    (fp_line (start 3.1 5.7) (end -3.1 5.7) (layer F.CrtYd) (width 0.05))
    (fp_line (start 3.1 -5.7) (end 3.1 5.7) (layer F.CrtYd) (width 0.05))
    (fp_line (start -3.1 -5.7) (end 3.1 -5.7) (layer F.CrtYd) (width 0.05))
    (fp_line (start -2.27 4.11) (end -2.27 3.51) (layer F.Fab) (width 0.1))
    (fp_line (start -1.27 4.11) (end -2.27 4.11) (layer F.Fab) (width 0.1))
    (fp_line (start -2.27 3.51) (end -1.27 3.51) (layer F.Fab) (width 0.1))
    (fp_line (start 2.27 1.57) (end 1.27 1.57) (layer F.Fab) (width 0.1))
    (fp_line (start 2.27 0.97) (end 2.27 1.57) (layer F.Fab) (width 0.1))
    (fp_line (start 1.27 0.97) (end 2.27 0.97) (layer F.Fab) (width 0.1))
    (fp_line (start -2.27 -0.97) (end -2.27 -1.57) (layer F.Fab) (width 0.1))
    (fp_line (start -1.27 -0.97) (end -2.27 -0.97) (layer F.Fab) (width 0.1))
    (fp_line (start -2.27 -1.57) (end -1.27 -1.57) (layer F.Fab) (width 0.1))
    (fp_line (start 2.27 -3.51) (end 1.27 -3.51) (layer F.Fab) (width 0.1))
    (fp_line (start 2.27 -4.11) (end 2.27 -3.51) (layer F.Fab) (width 0.1))
    (fp_line (start 1.27 -4.11) (end 2.27 -4.11) (layer F.Fab) (width 0.1))
    (fp_line (start -1.27 5.18) (end -1.27 -5.18) (layer F.Fab) (width 0.1))
    (fp_line (start 1.27 5.18) (end -1.27 5.18) (layer F.Fab) (width 0.1))
    (fp_line (start 1.27 -4.545) (end 1.27 5.18) (layer F.Fab) (width 0.1))
    (fp_line (start 0.635 -5.18) (end 1.27 -4.545) (layer F.Fab) (width 0.1))
    (fp_line (start -1.27 -5.18) (end 0.635 -5.18) (layer F.Fab) (width 0.1))
    (fp_line (start 1.33 -4.57) (end 2.54 -4.57) (layer F.SilkS) (width 0.12))
    (fp_line (start -1.33 4.57) (end -1.33 5.24) (layer F.SilkS) (width 0.12))
    (fp_line (start -1.33 -0.51) (end -1.33 3.05) (layer F.SilkS) (width 0.12))
    (fp_line (start -1.33 -5.24) (end -1.33 -2.03) (layer F.SilkS) (width 0.12))
    (fp_line (start -1.33 5.24) (end 1.33 5.24) (layer F.SilkS) (width 0.12))
    (fp_line (start 1.33 2.03) (end 1.33 5.24) (layer F.SilkS) (width 0.12))
    (fp_line (start 1.33 -3.05) (end 1.33 0.51) (layer F.SilkS) (width 0.12))
    (fp_line (start 1.33 -5.24) (end 1.33 -4.57) (layer F.SilkS) (width 0.12))
    (fp_line (start -1.33 -5.24) (end 1.33 -5.24) (layer F.SilkS) (width 0.12))
    (pad 3 smd rect (at 1.65 1.27 180) (size 1.9 1) (layers F.Cu F.Paste F.Mask)
      (net 4 /IO22-SCL))
    (pad 1 smd rect (at 1.65 -3.81 180) (size 1.9 1) (layers F.Cu F.Paste F.Mask)
      (net 5 /3V3-O250mA))
    (pad 4 smd rect (at -1.65 3.81 180) (size 1.9 1) (layers F.Cu F.Paste F.Mask)
      (net 3 /IO23-SDA))
    (pad 2 smd rect (at -1.65 -1.27 180) (size 1.9 1) (layers F.Cu F.Paste F.Mask)
      (net 2 /GND))
    (model ${KISYS3DMOD}/Connector_PinSocket_2.54mm.3dshapes/PinSocket_1x04_P2.54mm_Vertical_SMD_Pin1Right.wrl
      (at (xyz 0 0 0))
      (scale (xyz 1 1 1))
      (rotate (xyz 0 0 0))
    )
  )

  (module "custom-footprints:JST_B2B-PH-SM4-TB(LF)(SN)" (layer F.Cu) (tedit 60704A03) (tstamp 6070C348)
    (at 149.225 97.79 90)
    (path /6071DF53)
    (fp_text reference J10 (at 5.305 -3.52 180) (layer F.SilkS)
      (effects (font (size 1.001291 1.001291) (thickness 0.015)))
    )
    (fp_text value BAT_B2B-PH (at 5.305 3.465 180) (layer F.Fab)
      (effects (font (size 1.000772 1.000772) (thickness 0.015)))
    )
    (fp_line (start 3.975 0.25) (end 3.975 -0.5) (layer F.SilkS) (width 0.2))
    (fp_line (start 1.75 0.25) (end 3.975 0.25) (layer F.SilkS) (width 0.2))
    (fp_line (start -3.975 0.25) (end -1.75 0.25) (layer F.SilkS) (width 0.2))
    (fp_line (start -3.975 -0.5) (end -3.975 0.25) (layer F.SilkS) (width 0.2))
    (fp_line (start -3.975 -4.75) (end -3.975 -4) (layer F.SilkS) (width 0.2))
    (fp_line (start 3.975 -4.75) (end 3.975 -4) (layer F.SilkS) (width 0.2))
    (fp_line (start -3.975 -4.75) (end 3.975 -4.75) (layer F.SilkS) (width 0.2))
    (fp_circle (center -2.083 2.424) (end -1.883 2.424) (layer F.SilkS) (width 0.1))
    (fp_line (start -4.5 -5) (end 4.5 -5) (layer F.CrtYd) (width 0.05))
    (fp_line (start -4.5 3) (end -4.5 -5) (layer F.CrtYd) (width 0.05))
    (fp_line (start 4.5 3) (end -4.5 3) (layer F.CrtYd) (width 0.05))
    (fp_line (start 4.5 -5) (end 4.5 3) (layer F.CrtYd) (width 0.05))
    (fp_line (start -3.975 0.25) (end -3.975 -4.75) (layer F.Fab) (width 0.2))
    (fp_line (start 3.975 0.25) (end -3.975 0.25) (layer F.Fab) (width 0.2))
    (fp_line (start 3.975 -4.75) (end 3.975 0.25) (layer F.Fab) (width 0.2))
    (fp_line (start -3.975 -4.75) (end 3.975 -4.75) (layer F.Fab) (width 0.2))
    (pad 4 smd rect (at 3.4 -2.25 90) (size 1.6 3) (layers F.Cu F.Paste F.Mask))
    (pad 3 smd rect (at -3.4 -2.25 90) (size 1.6 3) (layers F.Cu F.Paste F.Mask))
    (pad 2 smd rect (at 1 0 90) (size 1 5.5) (layers F.Cu F.Paste F.Mask)
      (net 24 "Net-(J10-Pad2)"))
    (pad 1 smd rect (at -1 0 90) (size 1 5.5) (layers F.Cu F.Paste F.Mask)
      (net 2 /GND))
  )

  (module Resistor_SMD:R_2512_6332Metric_Pad1.52x3.35mm_HandSolder (layer F.Cu) (tedit 5B301BBD) (tstamp 6070C3D0)
    (at 156.21 98.425 270)
    (descr "Resistor SMD 2512 (6332 Metric), square (rectangular) end terminal, IPC_7351 nominal with elongated pad for handsoldering. (Body size source: http://www.tortai-tech.com/upload/download/2011102023233369053.pdf), generated with kicad-footprint-generator")
    (tags "resistor handsolder")
    (path /6079F1DF)
    (attr smd)
    (fp_text reference R1 (at 0 -2.62 90) (layer F.SilkS)
      (effects (font (size 1 1) (thickness 0.15)))
    )
    (fp_text value 0.536R_2W (at 0 2.62 90) (layer F.Fab)
      (effects (font (size 1 1) (thickness 0.15)))
    )
    (fp_text user %R (at 0 0 90) (layer F.Fab)
      (effects (font (size 1 1) (thickness 0.15)))
    )
    (fp_line (start 4 1.92) (end -4 1.92) (layer F.CrtYd) (width 0.05))
    (fp_line (start 4 -1.92) (end 4 1.92) (layer F.CrtYd) (width 0.05))
    (fp_line (start -4 -1.92) (end 4 -1.92) (layer F.CrtYd) (width 0.05))
    (fp_line (start -4 1.92) (end -4 -1.92) (layer F.CrtYd) (width 0.05))
    (fp_line (start -2.052064 1.71) (end 2.052064 1.71) (layer F.SilkS) (width 0.12))
    (fp_line (start -2.052064 -1.71) (end 2.052064 -1.71) (layer F.SilkS) (width 0.12))
    (fp_line (start 3.15 1.6) (end -3.15 1.6) (layer F.Fab) (width 0.1))
    (fp_line (start 3.15 -1.6) (end 3.15 1.6) (layer F.Fab) (width 0.1))
    (fp_line (start -3.15 -1.6) (end 3.15 -1.6) (layer F.Fab) (width 0.1))
    (fp_line (start -3.15 1.6) (end -3.15 -1.6) (layer F.Fab) (width 0.1))
    (pad 2 smd roundrect (at 2.9875 0 270) (size 1.525 3.35) (layers F.Cu F.Paste F.Mask) (roundrect_rratio 0.163934)
      (net 25 /Motor-BAT))
    (pad 1 smd roundrect (at -2.9875 0 270) (size 1.525 3.35) (layers F.Cu F.Paste F.Mask) (roundrect_rratio 0.163934)
      (net 24 "Net-(J10-Pad2)"))
    (model ${KISYS3DMOD}/Resistor_SMD.3dshapes/R_2512_6332Metric.wrl
      (at (xyz 0 0 0))
      (scale (xyz 1 1 1))
      (rotate (xyz 0 0 0))
    )
  )

  (module custom-footprints:UPDI_Header_1x02_P2.54mm_Horizontal (layer F.Cu) (tedit 5E652A9A) (tstamp 6070EFFF)
    (at 167.005 95.885 270)
    (descr "Through hole angled pin header, 1x02, 2.54mm pitch, 6mm pin length, single row")
    (tags "Through hole angled pin header THT 1x02 2.54mm single row")
    (path /5F7F2C2D)
    (fp_text reference J6 (at 0 -2.27 90) (layer F.SilkS)
      (effects (font (size 1 1) (thickness 0.15)))
    )
    (fp_text value 3V3_1x2 (at 3.175 4.81 90) (layer F.Fab)
      (effects (font (size 1 1) (thickness 0.15)))
    )
    (fp_line (start 1.27 2.54) (end 3.81 2.54) (layer F.SilkS) (width 0.12))
    (fp_line (start 1.27 0) (end 3.81 0) (layer F.SilkS) (width 0.12))
    (fp_line (start 7.11 -1.27) (end 7.11 3.81) (layer F.SilkS) (width 0.12))
    (fp_line (start 4.57 -1.27) (end 4.57 3.81) (layer F.SilkS) (width 0.12))
    (fp_line (start -1.27 -1.27) (end 0 -1.27) (layer F.SilkS) (width 0.12))
    (fp_line (start -1.27 0) (end -1.27 -1.27) (layer F.SilkS) (width 0.12))
    (fp_line (start -0.32 2.22) (end -0.32 2.86) (layer F.Fab) (width 0.1))
    (fp_line (start -0.32 -0.32) (end -0.32 0.32) (layer F.Fab) (width 0.1))
    (pad 1 smd rect (at 0 2.54 270) (size 2 1.7) (layers F.Cu F.Paste F.Mask)
      (net 5 /3V3-O250mA))
    (pad 2 smd rect (at 0 0 270) (size 2 1.7) (layers F.Cu F.Paste F.Mask)
      (net 2 /GND))
    (model ${KISYS3DMOD}/Connector_PinHeader_2.54mm.3dshapes/PinHeader_1x02_P2.54mm_Horizontal.wrl
      (at (xyz 0 0 0))
      (scale (xyz 1 1 1))
      (rotate (xyz 0 0 0))
    )
  )

  (gr_poly (pts (xy 187.96 103.505) (xy 139.065 103.505) (xy 139.065 38.1) (xy 187.96 38.1)) (layer Dwgs.User) (width 0.1))
  (gr_line (start 136.065 35.56) (end 136.065 106.68) (layer Margin) (width 0.15))
  (gr_line (start 190.96 35.56) (end 136.065 35.56) (layer Margin) (width 0.15) (tstamp 607118A4))
  (gr_line (start 190.96 106.68) (end 190.96 35.56) (layer Margin) (width 0.15))
  (gr_line (start 136.065 106.68) (end 190.96 106.68) (layer Margin) (width 0.15))
  (gr_line (start 142.875 40.005) (end 142.875 40.005) (layer Edge.Cuts) (width 0.05) (tstamp 5F7CD1F3))
  (gr_line (start 139.065 103.505) (end 139.065 38.1) (layer Edge.Cuts) (width 0.05))
  (gr_line (start 187.96 103.505) (end 139.065 103.505) (layer Edge.Cuts) (width 0.05))
  (gr_line (start 187.96 38.1) (end 187.96 103.505) (layer Edge.Cuts) (width 0.05))
  (gr_line (start 139.065 38.1) (end 187.96 38.1) (layer Edge.Cuts) (width 0.05))

  (segment (start 170.815 44.38) (end 170.815 45.72) (width 0.4) (layer F.Cu) (net 1) (status 30))
  (segment (start 172.015 43.18) (end 170.815 44.38) (width 0.4) (layer F.Cu) (net 1) (status 20))
  (segment (start 175.26 43.18) (end 172.015 43.18) (width 0.4) (layer F.Cu) (net 1))
  (segment (start 176.53 44.45) (end 175.26 43.18) (width 0.4) (layer F.Cu) (net 1))
  (segment (start 176.53 62.865) (end 176.53 44.45) (width 0.4) (layer F.Cu) (net 1) (status 10))
  (segment (start 149.225 98.79) (end 165.9 98.79) (width 0.8) (layer F.Cu) (net 2) (status 10))
  (segment (start 167.005 98.79) (end 167.005 95.885) (width 0.8) (layer F.Cu) (net 2))
  (segment (start 165.9 98.79) (end 167.005 98.79) (width 0.8) (layer F.Cu) (net 2))
  (segment (start 176.53 91.44) (end 176.53 93.345) (width 0.8) (layer F.Cu) (net 2))
  (segment (start 172.72 87.63) (end 176.53 91.44) (width 0.8) (layer F.Cu) (net 2))
  (segment (start 180.85 80.01) (end 175.26 80.01) (width 0.8) (layer F.Cu) (net 2))
  (segment (start 169.545 86.995) (end 170.18 87.63) (width 0.8) (layer F.Cu) (net 2))
  (segment (start 169.545 80.645) (end 169.545 86.995) (width 0.8) (layer F.Cu) (net 2))
  (segment (start 175.26 80.01) (end 173.99 78.74) (width 0.8) (layer F.Cu) (net 2))
  (segment (start 171.45 78.74) (end 169.545 80.645) (width 0.8) (layer F.Cu) (net 2))
  (segment (start 173.99 78.74) (end 171.45 78.74) (width 0.8) (layer F.Cu) (net 2))
  (segment (start 170.18 87.63) (end 172.72 87.63) (width 0.8) (layer F.Cu) (net 2))
  (via (at 150.495 59.055) (size 1.6) (drill 0.8) (layers F.Cu B.Cu) (net 2))
  (segment (start 150.495 50.77) (end 150.495 59.055) (width 0.8) (layer F.Cu) (net 2))
  (via (at 146.685 90.805) (size 1.6) (drill 0.8) (layers F.Cu B.Cu) (net 2))
  (segment (start 165.9 98.79) (end 171.18 98.79) (width 0.8) (layer F.Cu) (net 2))
  (segment (start 172.054999 99.664999) (end 174.879997 99.664999) (width 0.8) (layer F.Cu) (net 2))
  (segment (start 174.939999 99.725001) (end 178.120001 99.725001) (width 0.8) (layer F.Cu) (net 2))
  (segment (start 174.879997 99.664999) (end 174.939999 99.725001) (width 0.8) (layer F.Cu) (net 2))
  (segment (start 171.18 98.79) (end 172.054999 99.664999) (width 0.8) (layer F.Cu) (net 2))
  (segment (start 178.120001 99.725001) (end 178.424988 99.420014) (width 0.8) (layer F.Cu) (net 2))
  (segment (start 176.53 94.74923) (end 176.53 94.645) (width 0.8) (layer F.Cu) (net 2))
  (segment (start 178.424988 96.644218) (end 176.53 94.74923) (width 0.8) (layer F.Cu) (net 2))
  (segment (start 178.424988 99.420014) (end 178.424988 96.644218) (width 0.8) (layer F.Cu) (net 2))
  (segment (start 176.53 94.645) (end 176.53 93.345) (width 0.8) (layer F.Cu) (net 2))
  (segment (start 142.875 91.030001) (end 146.459999 91.030001) (width 0.8) (layer F.Cu) (net 2))
  (segment (start 142.875 95.99) (end 142.875 91.030001) (width 0.8) (layer F.Cu) (net 2))
  (segment (start 145.675 98.79) (end 142.875 95.99) (width 0.8) (layer F.Cu) (net 2))
  (segment (start 146.459999 91.030001) (end 146.685 90.805) (width 0.8) (layer F.Cu) (net 2))
  (segment (start 149.225 98.79) (end 145.675 98.79) (width 0.8) (layer F.Cu) (net 2))
  (segment (start 146.585 83.82) (end 148.335 83.82) (width 0.8) (layer F.Cu) (net 2))
  (segment (start 143.462499 83.82) (end 146.585 83.82) (width 0.8) (layer F.Cu) (net 2))
  (segment (start 142.875 84.407499) (end 143.462499 83.82) (width 0.8) (layer F.Cu) (net 2))
  (segment (start 142.875 91.030001) (end 142.875 84.407499) (width 0.8) (layer F.Cu) (net 2))
  (segment (start 155.575 62.485) (end 155.575 50.77) (width 0.4) (layer F.Cu) (net 3))
  (segment (start 155.955 62.865) (end 155.575 62.485) (width 0.4) (layer F.Cu) (net 3))
  (segment (start 156.845 43.834998) (end 156.845 49.5) (width 0.4) (layer F.Cu) (net 3))
  (segment (start 147.153637 40.944979) (end 153.954981 40.944979) (width 0.4) (layer F.Cu) (net 3))
  (segment (start 144.78 75.185) (end 144.78 43.318616) (width 0.4) (layer F.Cu) (net 3))
  (segment (start 156.845 49.5) (end 155.575 50.77) (width 0.4) (layer F.Cu) (net 3))
  (segment (start 153.954981 40.944979) (end 156.845 43.834998) (width 0.4) (layer F.Cu) (net 3))
  (segment (start 144.78 43.318616) (end 147.153637 40.944979) (width 0.4) (layer F.Cu) (net 3))
  (segment (start 148.335 78.74) (end 144.78 75.185) (width 0.4) (layer F.Cu) (net 3))
  (segment (start 148.59 47.625) (end 150.495 45.72) (width 0.4) (layer F.Cu) (net 4) (status 20))
  (segment (start 148.59 61.34) (end 148.59 47.625) (width 0.4) (layer F.Cu) (net 4))
  (segment (start 152.655 65.405) (end 148.59 61.34) (width 0.4) (layer F.Cu) (net 4) (status 10))
  (segment (start 146.385 81.28) (end 145.035 81.28) (width 0.4) (layer F.Cu) (net 4))
  (segment (start 149.470002 81.28) (end 146.385 81.28) (width 0.4) (layer F.Cu) (net 4))
  (segment (start 154.305 76.445002) (end 149.470002 81.28) (width 0.4) (layer F.Cu) (net 4))
  (segment (start 154.305 67.055) (end 154.305 76.445002) (width 0.4) (layer F.Cu) (net 4))
  (segment (start 152.655 65.405) (end 154.305 67.055) (width 0.4) (layer F.Cu) (net 4))
  (segment (start 164.465 92.779991) (end 164.465 95.885) (width 0.8) (layer F.Cu) (net 5))
  (segment (start 165.770009 92.779991) (end 164.465 92.779991) (width 0.8) (layer F.Cu) (net 5))
  (segment (start 157.579989 92.779991) (end 165.770009 92.779991) (width 0.8) (layer F.Cu) (net 5))
  (segment (start 149.325 88.9) (end 153.699998 88.9) (width 0.8) (layer F.Cu) (net 5))
  (segment (start 146.785 86.36) (end 149.325 88.9) (width 0.8) (layer F.Cu) (net 5))
  (segment (start 153.699998 88.9) (end 157.579989 92.779991) (width 0.8) (layer F.Cu) (net 5))
  (segment (start 145.035 86.36) (end 146.785 86.36) (width 0.8) (layer F.Cu) (net 5))
  (via (at 184.15 85.09) (size 1.6) (drill 0.8) (layers F.Cu B.Cu) (net 5))
  (segment (start 184.15 82.55) (end 184.15 85.09) (width 0.8) (layer F.Cu) (net 5))
  (segment (start 176.460009 92.779991) (end 164.534991 92.779991) (width 0.8) (layer B.Cu) (net 5))
  (segment (start 184.15 85.09) (end 176.460009 92.779991) (width 0.8) (layer B.Cu) (net 5))
  (via (at 164.534991 92.779991) (size 1.6) (drill 0.8) (layers F.Cu B.Cu) (net 5))
  (segment (start 165.030009 92.779991) (end 165.770009 92.779991) (width 0.8) (layer F.Cu) (net 5))
  (segment (start 167.074991 92.779991) (end 165.030009 92.779991) (width 0.8) (layer F.Cu) (net 5))
  (segment (start 172.72 98.425) (end 167.074991 92.779991) (width 0.8) (layer F.Cu) (net 5))
  (segment (start 176.53 98.425) (end 172.72 98.425) (width 0.8) (layer F.Cu) (net 5))
  (segment (start 160.655 43.745) (end 160.655 45.72) (width 0.4) (layer F.Cu) (net 6))
  (segment (start 165.19501 39.20499) (end 160.655 43.745) (width 0.4) (layer F.Cu) (net 6))
  (segment (start 180.349998 97.155) (end 184.15 97.155) (width 0.4) (layer F.Cu) (net 6))
  (segment (start 186.055 45.72) (end 179.53999 39.20499) (width 0.4) (layer F.Cu) (net 6))
  (segment (start 186.055 95.25) (end 186.055 45.72) (width 0.4) (layer F.Cu) (net 6))
  (segment (start 178.26999 90.00499) (end 178.26999 95.074992) (width 0.4) (layer F.Cu) (net 6))
  (segment (start 184.15 97.155) (end 186.055 95.25) (width 0.4) (layer F.Cu) (net 6))
  (segment (start 179.53999 39.20499) (end 165.19501 39.20499) (width 0.4) (layer F.Cu) (net 6))
  (segment (start 178.26999 95.074992) (end 180.349998 97.155) (width 0.4) (layer F.Cu) (net 6))
  (segment (start 176.53 88.265) (end 178.26999 90.00499) (width 0.4) (layer F.Cu) (net 6))
  (segment (start 177.165 83.185) (end 176.53 83.185) (width 0.4) (layer F.Cu) (net 7))
  (segment (start 180.975 86.995) (end 177.165 83.185) (width 0.4) (layer F.Cu) (net 7))
  (segment (start 180.975 90.17) (end 180.975 86.995) (width 0.4) (layer F.Cu) (net 7))
  (segment (start 167.605 40.005) (end 163.195 44.415) (width 0.4) (layer F.Cu) (net 8))
  (segment (start 177.8 40.005) (end 167.605 40.005) (width 0.4) (layer F.Cu) (net 8))
  (segment (start 180.85 69.85) (end 182.400001 68.299999) (width 0.4) (layer F.Cu) (net 8))
  (segment (start 182.400001 68.299999) (end 182.400001 44.605001) (width 0.4) (layer F.Cu) (net 8))
  (segment (start 163.195 44.415) (end 163.195 45.72) (width 0.4) (layer F.Cu) (net 8))
  (segment (start 182.400001 44.605001) (end 177.8 40.005) (width 0.4) (layer F.Cu) (net 8))
  (segment (start 163.195 47.695) (end 163.195 45.72) (width 0.4) (layer F.Cu) (net 8))
  (segment (start 169.545 74.410002) (end 169.545 48.884998) (width 0.4) (layer F.Cu) (net 8))
  (segment (start 172.874987 77.739989) (end 169.545 74.410002) (width 0.4) (layer F.Cu) (net 8))
  (segment (start 163.76 48.26) (end 163.195 47.695) (width 0.4) (layer F.Cu) (net 8))
  (segment (start 168.920002 48.26) (end 163.76 48.26) (width 0.4) (layer F.Cu) (net 8))
  (segment (start 176.53 78.105) (end 176.164989 77.739989) (width 0.4) (layer F.Cu) (net 8))
  (segment (start 176.164989 77.739989) (end 172.874987 77.739989) (width 0.4) (layer F.Cu) (net 8))
  (segment (start 169.545 48.884998) (end 168.920002 48.26) (width 0.4) (layer F.Cu) (net 8))
  (segment (start 178.880011 72.200011) (end 179.07 72.39) (width 0.4) (layer F.Cu) (net 9))
  (segment (start 178.880011 43.059318) (end 178.880011 72.200011) (width 0.4) (layer F.Cu) (net 9))
  (segment (start 168.370011 41.109989) (end 176.930682 41.109989) (width 0.4) (layer F.Cu) (net 9))
  (segment (start 176.930682 41.109989) (end 178.880011 43.059318) (width 0.4) (layer F.Cu) (net 9))
  (segment (start 165.735 43.745) (end 168.370011 41.109989) (width 0.4) (layer F.Cu) (net 9))
  (segment (start 165.735 45.72) (end 165.735 43.745) (width 0.4) (layer F.Cu) (net 9))
  (segment (start 177.165 72.39) (end 184.15 72.39) (width 0.4) (layer F.Cu) (net 9))
  (segment (start 176.53 73.025) (end 177.165 72.39) (width 0.4) (layer F.Cu) (net 9))
  (segment (start 170.78 41.91) (end 168.275 44.415) (width 0.4) (layer F.Cu) (net 10))
  (segment (start 175.895 41.91) (end 170.78 41.91) (width 0.4) (layer F.Cu) (net 10))
  (segment (start 178.080001 66.394999) (end 178.080001 44.095001) (width 0.4) (layer F.Cu) (net 10))
  (segment (start 176.53 67.945) (end 178.080001 66.394999) (width 0.4) (layer F.Cu) (net 10))
  (segment (start 168.275 44.415) (end 168.275 45.72) (width 0.4) (layer F.Cu) (net 10))
  (segment (start 178.080001 44.095001) (end 175.895 41.91) (width 0.4) (layer F.Cu) (net 10))
  (segment (start 168.275 87.774229) (end 168.275 52.745) (width 0.4) (layer F.Cu) (net 11))
  (segment (start 173.23 90.805) (end 171.305771 90.805) (width 0.4) (layer F.Cu) (net 11))
  (segment (start 171.305771 90.805) (end 168.275 87.774229) (width 0.4) (layer F.Cu) (net 11))
  (segment (start 168.275 52.745) (end 168.275 50.77) (width 0.4) (layer F.Cu) (net 11))
  (segment (start 179.07 86.995) (end 177.8 85.725) (width 0.4) (layer F.Cu) (net 12))
  (segment (start 177.8 85.725) (end 174.58 85.725) (width 0.4) (layer F.Cu) (net 12))
  (segment (start 179.07 93.345) (end 179.07 86.995) (width 0.4) (layer F.Cu) (net 12))
  (segment (start 174.58 85.725) (end 173.23 85.725) (width 0.4) (layer F.Cu) (net 12))
  (segment (start 180.975 95.25) (end 179.07 93.345) (width 0.4) (layer F.Cu) (net 12))
  (segment (start 177.420002 81.545) (end 174.13 81.545) (width 0.4) (layer F.Cu) (net 13))
  (segment (start 174.13 81.545) (end 173.23 80.645) (width 0.4) (layer F.Cu) (net 13))
  (segment (start 184.275 88.399998) (end 177.420002 81.545) (width 0.4) (layer F.Cu) (net 13))
  (segment (start 184.275 92.71) (end 184.275 88.399998) (width 0.4) (layer F.Cu) (net 13))
  (segment (start 170.815 52.745) (end 170.815 50.77) (width 0.4) (layer F.Cu) (net 14) (status 20))
  (segment (start 170.815 73.66) (end 170.815 52.745) (width 0.4) (layer F.Cu) (net 14))
  (segment (start 172.72 75.565) (end 170.815 73.66) (width 0.4) (layer F.Cu) (net 14) (status 10))
  (segment (start 173.23 75.565) (end 172.72 75.565) (width 0.4) (layer F.Cu) (net 14) (status 30))
  (segment (start 182.88 76.2) (end 184.15 77.47) (width 0.4) (layer F.Cu) (net 14))
  (segment (start 175.895 76.2) (end 182.88 76.2) (width 0.4) (layer F.Cu) (net 14))
  (segment (start 175.26 75.565) (end 175.895 76.2) (width 0.4) (layer F.Cu) (net 14))
  (segment (start 173.23 75.565) (end 175.26 75.565) (width 0.4) (layer F.Cu) (net 14))
  (segment (start 173.355 52.745) (end 173.355 50.77) (width 0.4) (layer F.Cu) (net 15) (status 20))
  (segment (start 171.679999 69.444999) (end 171.679999 54.420001) (width 0.4) (layer F.Cu) (net 15))
  (segment (start 171.679999 54.420001) (end 173.355 52.745) (width 0.4) (layer F.Cu) (net 15))
  (segment (start 172.72 70.485) (end 171.679999 69.444999) (width 0.4) (layer F.Cu) (net 15) (status 10))
  (segment (start 173.23 70.485) (end 172.72 70.485) (width 0.4) (layer F.Cu) (net 15) (status 30))
  (segment (start 179.5 74.93) (end 180.85 74.93) (width 0.4) (layer F.Cu) (net 15))
  (segment (start 175.904998 74.93) (end 179.5 74.93) (width 0.4) (layer F.Cu) (net 15))
  (segment (start 173.23 72.255002) (end 175.904998 74.93) (width 0.4) (layer F.Cu) (net 15))
  (segment (start 173.23 70.485) (end 173.23 72.255002) (width 0.4) (layer F.Cu) (net 15))
  (segment (start 175.26 47.625) (end 173.355 45.72) (width 0.4) (layer F.Cu) (net 16) (status 20))
  (segment (start 173.23 62.99) (end 175.26 60.96) (width 0.4) (layer F.Cu) (net 16))
  (segment (start 175.26 60.96) (end 175.26 47.625) (width 0.4) (layer F.Cu) (net 16))
  (segment (start 173.23 65.405) (end 173.23 62.99) (width 0.4) (layer F.Cu) (net 16) (status 10))
  (segment (start 151.13 42.545) (end 153.035 44.45) (width 0.4) (layer F.Cu) (net 17) (status 20))
  (segment (start 148.59 42.545) (end 151.13 42.545) (width 0.4) (layer F.Cu) (net 17))
  (segment (start 147.32 43.815) (end 148.59 42.545) (width 0.4) (layer F.Cu) (net 17))
  (segment (start 153.035 44.45) (end 153.035 45.72) (width 0.4) (layer F.Cu) (net 17) (status 30))
  (segment (start 152.4 70.485) (end 147.32 65.405) (width 0.4) (layer F.Cu) (net 17) (status 10))
  (segment (start 147.32 65.405) (end 147.32 43.815) (width 0.4) (layer F.Cu) (net 17))
  (segment (start 152.655 70.485) (end 152.4 70.485) (width 0.4) (layer F.Cu) (net 17) (status 30))
  (segment (start 147.485011 41.744989) (end 152.869989 41.744989) (width 0.4) (layer F.Cu) (net 18))
  (segment (start 152.869989 41.744989) (end 155.575 44.45) (width 0.4) (layer F.Cu) (net 18) (status 20))
  (segment (start 152.655 75.565) (end 152.655 73.015002) (width 0.4) (layer F.Cu) (net 18) (status 10))
  (segment (start 146.05 66.410002) (end 146.05 43.18) (width 0.4) (layer F.Cu) (net 18))
  (segment (start 152.655 73.015002) (end 146.05 66.410002) (width 0.4) (layer F.Cu) (net 18))
  (segment (start 155.575 44.45) (end 155.575 45.72) (width 0.4) (layer F.Cu) (net 18) (status 30))
  (segment (start 146.05 43.18) (end 147.485011 41.744989) (width 0.4) (layer F.Cu) (net 18))
  (segment (start 152.655 80.645) (end 152.655 80.39) (width 0.4) (layer F.Cu) (net 19) (status 30))
  (segment (start 154.514969 40.144969) (end 158.115 43.745) (width 0.4) (layer F.Cu) (net 19))
  (segment (start 146.545031 40.144969) (end 154.514969 40.144969) (width 0.4) (layer F.Cu) (net 19))
  (segment (start 142.875 81.915) (end 142.875 43.815) (width 0.4) (layer F.Cu) (net 19))
  (segment (start 158.115 43.745) (end 158.115 45.72) (width 0.4) (layer F.Cu) (net 19))
  (segment (start 150.75 82.55) (end 143.51 82.55) (width 0.4) (layer F.Cu) (net 19))
  (segment (start 143.51 82.55) (end 142.875 81.915) (width 0.4) (layer F.Cu) (net 19))
  (segment (start 142.875 43.815) (end 146.545031 40.144969) (width 0.4) (layer F.Cu) (net 19))
  (segment (start 152.655 80.645) (end 150.75 82.55) (width 0.4) (layer F.Cu) (net 19))
  (segment (start 158.115 52.745) (end 158.115 50.77) (width 0.4) (layer F.Cu) (net 20) (status 20))
  (segment (start 158.115 65.785) (end 158.115 52.745) (width 0.4) (layer F.Cu) (net 20))
  (segment (start 155.955 67.945) (end 158.115 65.785) (width 0.4) (layer F.Cu) (net 20) (status 10))
  (segment (start 160.655 52.745) (end 160.655 50.77) (width 0.4) (layer F.Cu) (net 21) (status 20))
  (segment (start 160.655 68.58) (end 160.655 52.745) (width 0.4) (layer F.Cu) (net 21))
  (segment (start 156.21 73.025) (end 160.655 68.58) (width 0.4) (layer F.Cu) (net 21) (status 10))
  (segment (start 155.955 73.025) (end 156.21 73.025) (width 0.4) (layer F.Cu) (net 21) (status 30))
  (segment (start 163.195 52.745) (end 163.195 50.77) (width 0.4) (layer F.Cu) (net 22) (status 20))
  (segment (start 163.195 71.12) (end 163.195 52.745) (width 0.4) (layer F.Cu) (net 22))
  (segment (start 156.21 78.105) (end 163.195 71.12) (width 0.4) (layer F.Cu) (net 22) (status 10))
  (segment (start 155.955 78.105) (end 156.21 78.105) (width 0.4) (layer F.Cu) (net 22) (status 30))
  (segment (start 165.735 52.745) (end 165.735 50.77) (width 0.4) (layer F.Cu) (net 23) (status 20))
  (segment (start 165.735 73.66) (end 165.735 52.745) (width 0.4) (layer F.Cu) (net 23))
  (segment (start 156.21 83.185) (end 165.735 73.66) (width 0.4) (layer F.Cu) (net 23) (status 10))
  (segment (start 155.955 83.185) (end 156.21 83.185) (width 0.4) (layer F.Cu) (net 23) (status 30))
  (segment (start 150.5775 95.4375) (end 149.225 96.79) (width 0.8) (layer F.Cu) (net 24))
  (segment (start 156.21 95.4375) (end 150.5775 95.4375) (width 0.8) (layer F.Cu) (net 24))
  (via (at 153.035 54.61) (size 1.6) (drill 0.8) (layers F.Cu B.Cu) (net 25))
  (segment (start 153.035 50.77) (end 153.035 54.61) (width 0.8) (layer F.Cu) (net 25))
  (via (at 160.655 101.6) (size 1.6) (drill 0.8) (layers F.Cu B.Cu) (net 25))
  (segment (start 156.3975 101.6) (end 156.21 101.4125) (width 0.8) (layer F.Cu) (net 25))
  (segment (start 160.655 101.6) (end 156.3975 101.6) (width 0.8) (layer F.Cu) (net 25))
  (segment (start 160.655 62.23) (end 160.655 101.6) (width 0.8) (layer B.Cu) (net 25))
  (segment (start 153.035 54.61) (end 160.655 62.23) (width 0.8) (layer B.Cu) (net 25))

  (zone (net 2) (net_name /GND) (layer B.Cu) (tstamp 60712113) (hatch edge 0.508)
    (connect_pads (clearance 0.508))
    (min_thickness 0.254)
    (fill yes (arc_segments 32) (thermal_gap 0.508) (thermal_bridge_width 0.508))
    (polygon
      (pts
        (xy 153.67 98.425) (xy 142.875 98.425) (xy 142.875 57.785) (xy 153.67 57.785)
      )
    )
    (filled_polygon
      (pts
        (xy 153.543 98.298) (xy 143.002 98.298) (xy 143.002 57.912) (xy 153.543 57.912)
      )
    )
  )
)
