(export (version D)
  (design
    (source /Users/hsiehwanting/Fab_Academy/kicad/KiCad-Adafruit_ESP32_LiPo_18_Vibration_Shield/KiCad-Adafruit_ESP32_LiPo_18_Vibration_with_R_C_NPN_Shield.sch)
    (date "Friday, 30 April 2021 at 16:00:30")
    (tool "Eeschema (5.1.5-0)")
    (sheet (number 1) (name /) (tstamps /)
      (title_block
        (title)
        (company)
        (rev)
        (date)
        (source KiCad-Adafruit_ESP32_LiPo_18_Vibration_with_R_C_NPN_Shield.sch)
        (comment (number 1) (value ""))
        (comment (number 2) (value ""))
        (comment (number 3) (value ""))
        (comment (number 4) (value "")))))
  (components
    (comp (ref J4)
      (value Adafruit_ESP32-L_1x12)
      (footprint Connector_PinSocket_2.54mm:PinSocket_1x12_P2.54mm_Vertical_SMD_Pin1Right)
      (datasheet ~)
      (libsource (lib Connector) (part Conn_01x12_Female) (description "Generic connector, single row, 01x12, script generated (kicad-library-utils/schlib/autogen/connector/)"))
      (sheetpath (names /) (tstamps /))
      (tstamp 5F7E1870))
    (comp (ref J5)
      (value Adafruit_ESP32-R_1x16)
      (footprint Connector_PinSocket_2.54mm:PinSocket_1x16_P2.54mm_Vertical_SMD_Pin1Right)
      (datasheet ~)
      (libsource (lib Connector) (part Conn_01x16_Female) (description "Generic connector, single row, 01x16, script generated (kicad-library-utils/schlib/autogen/connector/)"))
      (sheetpath (names /) (tstamps /))
      (tstamp 5F7D454E))
    (comp (ref J9)
      (value 3V3_1x2)
      (footprint custom-footprints:UPDI_Header_1x02_P2.54mm_Horizontal)
      (datasheet ~)
      (libsource (lib Connector) (part Conn_01x02_Male) (description "Generic connector, single row, 01x02, script generated (kicad-library-utils/schlib/autogen/connector/)"))
      (sheetpath (names /) (tstamps /))
      (tstamp 5F7F2C2D))
    (comp (ref J6)
      (value BAT_B2B-PH)
      (footprint Connector_JST:JST_PH_B2B-PH-SM4-TB_1x02-1MP_P2.00mm_Vertical)
      (fields
        (field (name MANUFACTURER) JST))
      (libsource (lib B2B-PH-SM4-TB_LF__SN_) (part "B2B-PH-SM4-TB(LF)(SN)") (description ""))
      (sheetpath (names /) (tstamps /))
      (tstamp 6071DF53))
    (comp (ref J2)
      (value I2C_1x4)
      (footprint Connector_PinSocket_2.54mm:PinSocket_1x04_P2.54mm_Vertical_SMD_Pin1Right)
      (datasheet ~)
      (libsource (lib Connector) (part Conn_01x04_Female) (description "Generic connector, single row, 01x04, script generated (kicad-library-utils/schlib/autogen/connector/)"))
      (sheetpath (names /) (tstamps /))
      (tstamp 5F82CFBE))
    (comp (ref J3)
      (value micro_SD_01x09)
      (footprint Connector_PinSocket_2.54mm:PinSocket_1x09_P2.54mm_Vertical_SMD_Pin1Right)
      (datasheet ~)
      (libsource (lib Connector) (part Conn_01x09_Female) (description "Generic connector, single row, 01x09, script generated (kicad-library-utils/schlib/autogen/connector/)"))
      (sheetpath (names /) (tstamps /))
      (tstamp 6075E152))
    (comp (ref J7)
      (value Analog_IN_1x03)
      (footprint Connector_PinSocket_2.54mm:PinSocket_1x03_P2.54mm_Vertical_SMD_Pin1Left)
      (datasheet ~)
      (libsource (lib Connector) (part Conn_01x03_Male) (description "Generic connector, single row, 01x03, script generated (kicad-library-utils/schlib/autogen/connector/)"))
      (sheetpath (names /) (tstamps /))
      (tstamp 607D9C6E))
    (comp (ref Q1)
      (value MMBT3904)
      (footprint fab:fab-SOT23)
      (datasheet https://www.fairchildsemi.com/datasheets/2N/2N3904.pdf)
      (libsource (lib Transistor_BJT) (part MMBT3904) (description "0.2A Ic, 40V Vce, Small Signal NPN Transistor, SOT-23"))
      (sheetpath (names /) (tstamps /))
      (tstamp 6086BD9E))
    (comp (ref C1)
      (value 2.2U)
      (footprint Capacitor_SMD:C_1206_3216Metric_Pad1.42x1.75mm_HandSolder)
      (datasheet ~)
      (libsource (lib Device) (part C) (description "Unpolarized capacitor"))
      (sheetpath (names /) (tstamps /))
      (tstamp 6086E001))
    (comp (ref R1)
      (value 0/20R)
      (footprint fab:R_1206)
      (datasheet ~)
      (libsource (lib Device) (part R) (description Resistor))
      (sheetpath (names /) (tstamps /))
      (tstamp 6086F268))
    (comp (ref R6)
      (value 1kR)
      (footprint fab:R_1206)
      (datasheet ~)
      (libsource (lib Device) (part R) (description Resistor))
      (sheetpath (names /) (tstamps /))
      (tstamp 6086FC9B))
    (comp (ref Q2)
      (value MMBT3904)
      (footprint fab:fab-SOT23)
      (datasheet https://www.fairchildsemi.com/datasheets/2N/2N3904.pdf)
      (libsource (lib Transistor_BJT) (part MMBT3904) (description "0.2A Ic, 40V Vce, Small Signal NPN Transistor, SOT-23"))
      (sheetpath (names /) (tstamps /))
      (tstamp 608A5AAD))
    (comp (ref C2)
      (value 2.2U)
      (footprint Capacitor_SMD:C_1206_3216Metric_Pad1.42x1.75mm_HandSolder)
      (datasheet ~)
      (libsource (lib Device) (part C) (description "Unpolarized capacitor"))
      (sheetpath (names /) (tstamps /))
      (tstamp 608A5AB9))
    (comp (ref R2)
      (value 0/20R)
      (footprint fab:R_1206)
      (datasheet ~)
      (libsource (lib Device) (part R) (description Resistor))
      (sheetpath (names /) (tstamps /))
      (tstamp 608A5ABF))
    (comp (ref R7)
      (value 1kR)
      (footprint fab:R_1206)
      (datasheet ~)
      (libsource (lib Device) (part R) (description Resistor))
      (sheetpath (names /) (tstamps /))
      (tstamp 608A5AC5))
    (comp (ref Q6)
      (value MMBT3904)
      (footprint fab:fab-SOT23)
      (datasheet https://www.fairchildsemi.com/datasheets/2N/2N3904.pdf)
      (libsource (lib Transistor_BJT) (part MMBT3904) (description "0.2A Ic, 40V Vce, Small Signal NPN Transistor, SOT-23"))
      (sheetpath (names /) (tstamps /))
      (tstamp 608B345F))
    (comp (ref C6)
      (value 2.2U)
      (footprint Capacitor_SMD:C_1206_3216Metric_Pad1.42x1.75mm_HandSolder)
      (datasheet ~)
      (libsource (lib Device) (part C) (description "Unpolarized capacitor"))
      (sheetpath (names /) (tstamps /))
      (tstamp 608B346B))
    (comp (ref R11)
      (value 0/20R)
      (footprint fab:R_1206)
      (datasheet ~)
      (libsource (lib Device) (part R) (description Resistor))
      (sheetpath (names /) (tstamps /))
      (tstamp 608B3471))
    (comp (ref R16)
      (value 1kR)
      (footprint fab:R_1206)
      (datasheet ~)
      (libsource (lib Device) (part R) (description Resistor))
      (sheetpath (names /) (tstamps /))
      (tstamp 608B3477))
    (comp (ref Q7)
      (value MMBT3904)
      (footprint fab:fab-SOT23)
      (datasheet https://www.fairchildsemi.com/datasheets/2N/2N3904.pdf)
      (libsource (lib Transistor_BJT) (part MMBT3904) (description "0.2A Ic, 40V Vce, Small Signal NPN Transistor, SOT-23"))
      (sheetpath (names /) (tstamps /))
      (tstamp 608B3485))
    (comp (ref C7)
      (value 2.2U)
      (footprint Capacitor_SMD:C_1206_3216Metric_Pad1.42x1.75mm_HandSolder)
      (datasheet ~)
      (libsource (lib Device) (part C) (description "Unpolarized capacitor"))
      (sheetpath (names /) (tstamps /))
      (tstamp 608B3491))
    (comp (ref R12)
      (value 0/20R)
      (footprint fab:R_1206)
      (datasheet ~)
      (libsource (lib Device) (part R) (description Resistor))
      (sheetpath (names /) (tstamps /))
      (tstamp 608B3497))
    (comp (ref R17)
      (value 1kR)
      (footprint fab:R_1206)
      (datasheet ~)
      (libsource (lib Device) (part R) (description Resistor))
      (sheetpath (names /) (tstamps /))
      (tstamp 608B349D))
    (comp (ref Q5)
      (value MMBT3904)
      (footprint fab:fab-SOT23)
      (datasheet https://www.fairchildsemi.com/datasheets/2N/2N3904.pdf)
      (libsource (lib Transistor_BJT) (part MMBT3904) (description "0.2A Ic, 40V Vce, Small Signal NPN Transistor, SOT-23"))
      (sheetpath (names /) (tstamps /))
      (tstamp 608D7757))
    (comp (ref C5)
      (value 2.2U)
      (footprint Capacitor_SMD:C_1206_3216Metric_Pad1.42x1.75mm_HandSolder)
      (datasheet ~)
      (libsource (lib Device) (part C) (description "Unpolarized capacitor"))
      (sheetpath (names /) (tstamps /))
      (tstamp 608D7763))
    (comp (ref R5)
      (value 0/20R)
      (footprint fab:R_1206)
      (datasheet ~)
      (libsource (lib Device) (part R) (description Resistor))
      (sheetpath (names /) (tstamps /))
      (tstamp 608D7769))
    (comp (ref R10)
      (value 1kR)
      (footprint fab:R_1206)
      (datasheet ~)
      (libsource (lib Device) (part R) (description Resistor))
      (sheetpath (names /) (tstamps /))
      (tstamp 608D776F))
    (comp (ref Q11)
      (value MMBT3904)
      (footprint fab:fab-SOT23)
      (datasheet https://www.fairchildsemi.com/datasheets/2N/2N3904.pdf)
      (libsource (lib Transistor_BJT) (part MMBT3904) (description "0.2A Ic, 40V Vce, Small Signal NPN Transistor, SOT-23"))
      (sheetpath (names /) (tstamps /))
      (tstamp 608D777D))
    (comp (ref C11)
      (value 2.2U)
      (footprint Capacitor_SMD:C_1206_3216Metric_Pad1.42x1.75mm_HandSolder)
      (datasheet ~)
      (libsource (lib Device) (part C) (description "Unpolarized capacitor"))
      (sheetpath (names /) (tstamps /))
      (tstamp 608D7789))
    (comp (ref R21)
      (value 0/20R)
      (footprint fab:R_1206)
      (datasheet ~)
      (libsource (lib Device) (part R) (description Resistor))
      (sheetpath (names /) (tstamps /))
      (tstamp 608D778F))
    (comp (ref R24)
      (value 1kR)
      (footprint fab:R_1206)
      (datasheet ~)
      (libsource (lib Device) (part R) (description Resistor))
      (sheetpath (names /) (tstamps /))
      (tstamp 608D7795))
    (comp (ref Q3)
      (value MMBT3904)
      (footprint fab:fab-SOT23)
      (datasheet https://www.fairchildsemi.com/datasheets/2N/2N3904.pdf)
      (libsource (lib Transistor_BJT) (part MMBT3904) (description "0.2A Ic, 40V Vce, Small Signal NPN Transistor, SOT-23"))
      (sheetpath (names /) (tstamps /))
      (tstamp 60920260))
    (comp (ref C3)
      (value 2.2U)
      (footprint Capacitor_SMD:C_1206_3216Metric_Pad1.42x1.75mm_HandSolder)
      (datasheet ~)
      (libsource (lib Device) (part C) (description "Unpolarized capacitor"))
      (sheetpath (names /) (tstamps /))
      (tstamp 6092026C))
    (comp (ref R3)
      (value 0/20R)
      (footprint fab:R_1206)
      (datasheet ~)
      (libsource (lib Device) (part R) (description Resistor))
      (sheetpath (names /) (tstamps /))
      (tstamp 60920272))
    (comp (ref R8)
      (value 1kR)
      (footprint fab:R_1206)
      (datasheet ~)
      (libsource (lib Device) (part R) (description Resistor))
      (sheetpath (names /) (tstamps /))
      (tstamp 60920278))
    (comp (ref Q4)
      (value MMBT3904)
      (footprint fab:fab-SOT23)
      (datasheet https://www.fairchildsemi.com/datasheets/2N/2N3904.pdf)
      (libsource (lib Transistor_BJT) (part MMBT3904) (description "0.2A Ic, 40V Vce, Small Signal NPN Transistor, SOT-23"))
      (sheetpath (names /) (tstamps /))
      (tstamp 60920286))
    (comp (ref C4)
      (value 2.2U)
      (footprint Capacitor_SMD:C_1206_3216Metric_Pad1.42x1.75mm_HandSolder)
      (datasheet ~)
      (libsource (lib Device) (part C) (description "Unpolarized capacitor"))
      (sheetpath (names /) (tstamps /))
      (tstamp 60920292))
    (comp (ref R4)
      (value 0/20R)
      (footprint fab:R_1206)
      (datasheet ~)
      (libsource (lib Device) (part R) (description Resistor))
      (sheetpath (names /) (tstamps /))
      (tstamp 60920298))
    (comp (ref R9)
      (value 1kR)
      (footprint fab:R_1206)
      (datasheet ~)
      (libsource (lib Device) (part R) (description Resistor))
      (sheetpath (names /) (tstamps /))
      (tstamp 6092029E))
    (comp (ref Q8)
      (value MMBT3904)
      (footprint fab:fab-SOT23)
      (datasheet https://www.fairchildsemi.com/datasheets/2N/2N3904.pdf)
      (libsource (lib Transistor_BJT) (part MMBT3904) (description "0.2A Ic, 40V Vce, Small Signal NPN Transistor, SOT-23"))
      (sheetpath (names /) (tstamps /))
      (tstamp 609202AC))
    (comp (ref C8)
      (value 2.2U)
      (footprint Capacitor_SMD:C_1206_3216Metric_Pad1.42x1.75mm_HandSolder)
      (datasheet ~)
      (libsource (lib Device) (part C) (description "Unpolarized capacitor"))
      (sheetpath (names /) (tstamps /))
      (tstamp 609202B8))
    (comp (ref R13)
      (value 0/20R)
      (footprint fab:R_1206)
      (datasheet ~)
      (libsource (lib Device) (part R) (description Resistor))
      (sheetpath (names /) (tstamps /))
      (tstamp 609202BE))
    (comp (ref R18)
      (value 1kR)
      (footprint fab:R_1206)
      (datasheet ~)
      (libsource (lib Device) (part R) (description Resistor))
      (sheetpath (names /) (tstamps /))
      (tstamp 609202C4))
    (comp (ref Q9)
      (value MMBT3904)
      (footprint fab:fab-SOT23)
      (datasheet https://www.fairchildsemi.com/datasheets/2N/2N3904.pdf)
      (libsource (lib Transistor_BJT) (part MMBT3904) (description "0.2A Ic, 40V Vce, Small Signal NPN Transistor, SOT-23"))
      (sheetpath (names /) (tstamps /))
      (tstamp 609202D2))
    (comp (ref C9)
      (value 2.2U)
      (footprint Capacitor_SMD:C_1206_3216Metric_Pad1.42x1.75mm_HandSolder)
      (datasheet ~)
      (libsource (lib Device) (part C) (description "Unpolarized capacitor"))
      (sheetpath (names /) (tstamps /))
      (tstamp 609202DE))
    (comp (ref R14)
      (value 0/20R)
      (footprint fab:R_1206)
      (datasheet ~)
      (libsource (lib Device) (part R) (description Resistor))
      (sheetpath (names /) (tstamps /))
      (tstamp 609202E4))
    (comp (ref R19)
      (value 1kR)
      (footprint fab:R_1206)
      (datasheet ~)
      (libsource (lib Device) (part R) (description Resistor))
      (sheetpath (names /) (tstamps /))
      (tstamp 609202EA))
    (comp (ref Q12)
      (value MMBT3904)
      (footprint fab:fab-SOT23)
      (datasheet https://www.fairchildsemi.com/datasheets/2N/2N3904.pdf)
      (libsource (lib Transistor_BJT) (part MMBT3904) (description "0.2A Ic, 40V Vce, Small Signal NPN Transistor, SOT-23"))
      (sheetpath (names /) (tstamps /))
      (tstamp 609202F8))
    (comp (ref C12)
      (value 2.2U)
      (footprint Capacitor_SMD:C_1206_3216Metric_Pad1.42x1.75mm_HandSolder)
      (datasheet ~)
      (libsource (lib Device) (part C) (description "Unpolarized capacitor"))
      (sheetpath (names /) (tstamps /))
      (tstamp 60920304))
    (comp (ref R22)
      (value 0/20R)
      (footprint fab:R_1206)
      (datasheet ~)
      (libsource (lib Device) (part R) (description Resistor))
      (sheetpath (names /) (tstamps /))
      (tstamp 6092030A))
    (comp (ref R25)
      (value 1kR)
      (footprint fab:R_1206)
      (datasheet ~)
      (libsource (lib Device) (part R) (description Resistor))
      (sheetpath (names /) (tstamps /))
      (tstamp 60920310))
    (comp (ref Q13)
      (value MMBT3904)
      (footprint fab:fab-SOT23)
      (datasheet https://www.fairchildsemi.com/datasheets/2N/2N3904.pdf)
      (libsource (lib Transistor_BJT) (part MMBT3904) (description "0.2A Ic, 40V Vce, Small Signal NPN Transistor, SOT-23"))
      (sheetpath (names /) (tstamps /))
      (tstamp 6092031E))
    (comp (ref C13)
      (value 2.2U)
      (footprint Capacitor_SMD:C_1206_3216Metric_Pad1.42x1.75mm_HandSolder)
      (datasheet ~)
      (libsource (lib Device) (part C) (description "Unpolarized capacitor"))
      (sheetpath (names /) (tstamps /))
      (tstamp 6092032A))
    (comp (ref R23)
      (value 0/20R)
      (footprint fab:R_1206)
      (datasheet ~)
      (libsource (lib Device) (part R) (description Resistor))
      (sheetpath (names /) (tstamps /))
      (tstamp 60920330))
    (comp (ref R26)
      (value 1kR)
      (footprint fab:R_1206)
      (datasheet ~)
      (libsource (lib Device) (part R) (description Resistor))
      (sheetpath (names /) (tstamps /))
      (tstamp 60920336))
    (comp (ref Q14)
      (value MMBT3904)
      (footprint fab:fab-SOT23)
      (datasheet https://www.fairchildsemi.com/datasheets/2N/2N3904.pdf)
      (libsource (lib Transistor_BJT) (part MMBT3904) (description "0.2A Ic, 40V Vce, Small Signal NPN Transistor, SOT-23"))
      (sheetpath (names /) (tstamps /))
      (tstamp 60920344))
    (comp (ref C14)
      (value 2.2U)
      (footprint Capacitor_SMD:C_1206_3216Metric_Pad1.42x1.75mm_HandSolder)
      (datasheet ~)
      (libsource (lib Device) (part C) (description "Unpolarized capacitor"))
      (sheetpath (names /) (tstamps /))
      (tstamp 60920350))
    (comp (ref R27)
      (value 0/20R)
      (footprint fab:R_1206)
      (datasheet ~)
      (libsource (lib Device) (part R) (description Resistor))
      (sheetpath (names /) (tstamps /))
      (tstamp 60920356))
    (comp (ref R29)
      (value 1kR)
      (footprint fab:R_1206)
      (datasheet ~)
      (libsource (lib Device) (part R) (description Resistor))
      (sheetpath (names /) (tstamps /))
      (tstamp 6092035C))
    (comp (ref Q15)
      (value MMBT3904)
      (footprint fab:fab-SOT23)
      (datasheet https://www.fairchildsemi.com/datasheets/2N/2N3904.pdf)
      (libsource (lib Transistor_BJT) (part MMBT3904) (description "0.2A Ic, 40V Vce, Small Signal NPN Transistor, SOT-23"))
      (sheetpath (names /) (tstamps /))
      (tstamp 6092036A))
    (comp (ref C15)
      (value 2.2U)
      (footprint Capacitor_SMD:C_1206_3216Metric_Pad1.42x1.75mm_HandSolder)
      (datasheet ~)
      (libsource (lib Device) (part C) (description "Unpolarized capacitor"))
      (sheetpath (names /) (tstamps /))
      (tstamp 60920376))
    (comp (ref R28)
      (value 0/20R)
      (footprint fab:R_1206)
      (datasheet ~)
      (libsource (lib Device) (part R) (description Resistor))
      (sheetpath (names /) (tstamps /))
      (tstamp 6092037C))
    (comp (ref R30)
      (value 1kR)
      (footprint fab:R_1206)
      (datasheet ~)
      (libsource (lib Device) (part R) (description Resistor))
      (sheetpath (names /) (tstamps /))
      (tstamp 60920382))
    (comp (ref Q16)
      (value MMBT3904)
      (footprint fab:fab-SOT23)
      (datasheet https://www.fairchildsemi.com/datasheets/2N/2N3904.pdf)
      (libsource (lib Transistor_BJT) (part MMBT3904) (description "0.2A Ic, 40V Vce, Small Signal NPN Transistor, SOT-23"))
      (sheetpath (names /) (tstamps /))
      (tstamp 6092F507))
    (comp (ref C16)
      (value 2.2U)
      (footprint Capacitor_SMD:C_1206_3216Metric_Pad1.42x1.75mm_HandSolder)
      (datasheet ~)
      (libsource (lib Device) (part C) (description "Unpolarized capacitor"))
      (sheetpath (names /) (tstamps /))
      (tstamp 6092F513))
    (comp (ref R31)
      (value 0/20R)
      (footprint fab:R_1206)
      (datasheet ~)
      (libsource (lib Device) (part R) (description Resistor))
      (sheetpath (names /) (tstamps /))
      (tstamp 6092F519))
    (comp (ref R34)
      (value 1kR)
      (footprint fab:R_1206)
      (datasheet ~)
      (libsource (lib Device) (part R) (description Resistor))
      (sheetpath (names /) (tstamps /))
      (tstamp 6092F51F))
    (comp (ref Q17)
      (value MMBT3904)
      (footprint fab:fab-SOT23)
      (datasheet https://www.fairchildsemi.com/datasheets/2N/2N3904.pdf)
      (libsource (lib Transistor_BJT) (part MMBT3904) (description "0.2A Ic, 40V Vce, Small Signal NPN Transistor, SOT-23"))
      (sheetpath (names /) (tstamps /))
      (tstamp 6092F52D))
    (comp (ref C17)
      (value 2.2U)
      (footprint Capacitor_SMD:C_1206_3216Metric_Pad1.42x1.75mm_HandSolder)
      (datasheet ~)
      (libsource (lib Device) (part C) (description "Unpolarized capacitor"))
      (sheetpath (names /) (tstamps /))
      (tstamp 6092F539))
    (comp (ref R32)
      (value 0/20R)
      (footprint fab:R_1206)
      (datasheet ~)
      (libsource (lib Device) (part R) (description Resistor))
      (sheetpath (names /) (tstamps /))
      (tstamp 6092F53F))
    (comp (ref R35)
      (value 1kR)
      (footprint fab:R_1206)
      (datasheet ~)
      (libsource (lib Device) (part R) (description Resistor))
      (sheetpath (names /) (tstamps /))
      (tstamp 6092F545))
    (comp (ref R36)
      (value 1kR)
      (footprint fab:R_1206)
      (datasheet ~)
      (libsource (lib Device) (part R) (description Resistor))
      (sheetpath (names /) (tstamps /))
      (tstamp 608D77E1))
    (comp (ref R33)
      (value 0/20R)
      (footprint fab:R_1206)
      (datasheet ~)
      (libsource (lib Device) (part R) (description Resistor))
      (sheetpath (names /) (tstamps /))
      (tstamp 608D77DB))
    (comp (ref C18)
      (value 2.2U)
      (footprint Capacitor_SMD:C_1206_3216Metric_Pad1.42x1.75mm_HandSolder)
      (datasheet ~)
      (libsource (lib Device) (part C) (description "Unpolarized capacitor"))
      (sheetpath (names /) (tstamps /))
      (tstamp 608D77D5))
    (comp (ref Q18)
      (value MMBT3904)
      (footprint fab:fab-SOT23)
      (datasheet https://www.fairchildsemi.com/datasheets/2N/2N3904.pdf)
      (libsource (lib Transistor_BJT) (part MMBT3904) (description "0.2A Ic, 40V Vce, Small Signal NPN Transistor, SOT-23"))
      (sheetpath (names /) (tstamps /))
      (tstamp 608D77C9))
    (comp (ref R20)
      (value 1kR)
      (footprint fab:R_1206)
      (datasheet ~)
      (libsource (lib Device) (part R) (description Resistor))
      (sheetpath (names /) (tstamps /))
      (tstamp 608D77BB))
    (comp (ref R15)
      (value 0/20R)
      (footprint fab:R_1206)
      (datasheet ~)
      (libsource (lib Device) (part R) (description Resistor))
      (sheetpath (names /) (tstamps /))
      (tstamp 608D77B5))
    (comp (ref C10)
      (value 2.2U)
      (footprint Capacitor_SMD:C_1206_3216Metric_Pad1.42x1.75mm_HandSolder)
      (datasheet ~)
      (libsource (lib Device) (part C) (description "Unpolarized capacitor"))
      (sheetpath (names /) (tstamps /))
      (tstamp 608D77AF))
    (comp (ref Q10)
      (value MMBT3904)
      (footprint fab:fab-SOT23)
      (datasheet https://www.fairchildsemi.com/datasheets/2N/2N3904.pdf)
      (libsource (lib Transistor_BJT) (part MMBT3904) (description "0.2A Ic, 40V Vce, Small Signal NPN Transistor, SOT-23"))
      (sheetpath (names /) (tstamps /))
      (tstamp 608D77A3))
    (comp (ref J8)
      (value Shunt_Jumper)
      (footprint Connector_PinHeader_2.54mm:PinHeader_2x01_P2.54mm_Vertical_SMD)
      (datasheet ~)
      (libsource (lib Connector) (part Conn_01x02_Male) (description "Generic connector, single row, 01x02, script generated (kicad-library-utils/schlib/autogen/connector/)"))
      (sheetpath (names /) (tstamps /))
      (tstamp 613C9C8B))
    (comp (ref D1)
      (value D)
      (footprint Diode_SMD:D_SMA_Handsoldering)
      (datasheet ~)
      (libsource (lib Device) (part D) (description Diode))
      (sheetpath (names /) (tstamps /))
      (tstamp 6141637D))
    (comp (ref D2)
      (value D)
      (footprint Diode_SMD:D_SMA_Handsoldering)
      (datasheet ~)
      (libsource (lib Device) (part D) (description Diode))
      (sheetpath (names /) (tstamps /))
      (tstamp 6141A053))
    (comp (ref D3)
      (value D)
      (footprint Diode_SMD:D_SMA_Handsoldering)
      (datasheet ~)
      (libsource (lib Device) (part D) (description Diode))
      (sheetpath (names /) (tstamps /))
      (tstamp 6141B4E4))
    (comp (ref D10)
      (value D)
      (footprint Diode_SMD:D_SMA_Handsoldering)
      (datasheet ~)
      (libsource (lib Device) (part D) (description Diode))
      (sheetpath (names /) (tstamps /))
      (tstamp 6141EF32))
    (comp (ref D9)
      (value D)
      (footprint Diode_SMD:D_SMA_Handsoldering)
      (datasheet ~)
      (libsource (lib Device) (part D) (description Diode))
      (sheetpath (names /) (tstamps /))
      (tstamp 6141FECD))
    (comp (ref D8)
      (value D)
      (footprint Diode_SMD:D_SMA_Handsoldering)
      (datasheet ~)
      (libsource (lib Device) (part D) (description Diode))
      (sheetpath (names /) (tstamps /))
      (tstamp 61421151))
    (comp (ref D7)
      (value D)
      (footprint Diode_SMD:D_SMA_Handsoldering)
      (datasheet ~)
      (libsource (lib Device) (part D) (description Diode))
      (sheetpath (names /) (tstamps /))
      (tstamp 6142260F))
    (comp (ref D6)
      (value D)
      (footprint Diode_SMD:D_SMA_Handsoldering)
      (datasheet ~)
      (libsource (lib Device) (part D) (description Diode))
      (sheetpath (names /) (tstamps /))
      (tstamp 614239CE))
    (comp (ref D11)
      (value D)
      (footprint Diode_SMD:D_SMA_Handsoldering)
      (datasheet ~)
      (libsource (lib Device) (part D) (description Diode))
      (sheetpath (names /) (tstamps /))
      (tstamp 61424DA1))
    (comp (ref D12)
      (value D)
      (footprint Diode_SMD:D_SMA_Handsoldering)
      (datasheet ~)
      (libsource (lib Device) (part D) (description Diode))
      (sheetpath (names /) (tstamps /))
      (tstamp 614265C0))
    (comp (ref D13)
      (value D)
      (footprint Diode_SMD:D_SMA_Handsoldering)
      (datasheet ~)
      (libsource (lib Device) (part D) (description Diode))
      (sheetpath (names /) (tstamps /))
      (tstamp 614278A8))
    (comp (ref D15)
      (value D)
      (footprint Diode_SMD:D_SMA_Handsoldering)
      (datasheet ~)
      (libsource (lib Device) (part D) (description Diode))
      (sheetpath (names /) (tstamps /))
      (tstamp 61428CD0))
    (comp (ref D14)
      (value D)
      (footprint Diode_SMD:D_SMA_Handsoldering)
      (datasheet ~)
      (libsource (lib Device) (part D) (description Diode))
      (sheetpath (names /) (tstamps /))
      (tstamp 6142A125))
    (comp (ref D16)
      (value D)
      (footprint Diode_SMD:D_SMA_Handsoldering)
      (datasheet ~)
      (libsource (lib Device) (part D) (description Diode))
      (sheetpath (names /) (tstamps /))
      (tstamp 6142B52A))
    (comp (ref D17)
      (value D)
      (footprint Diode_SMD:D_SMA_Handsoldering)
      (datasheet ~)
      (libsource (lib Device) (part D) (description Diode))
      (sheetpath (names /) (tstamps /))
      (tstamp 6142C862))
    (comp (ref D18)
      (value D)
      (footprint Diode_SMD:D_SMA_Handsoldering)
      (datasheet ~)
      (libsource (lib Device) (part D) (description Diode))
      (sheetpath (names /) (tstamps /))
      (tstamp 6142DAFF))
    (comp (ref D4)
      (value D)
      (footprint Diode_SMD:D_SMA_Handsoldering)
      (datasheet ~)
      (libsource (lib Device) (part D) (description Diode))
      (sheetpath (names /) (tstamps /))
      (tstamp 6141C650))
    (comp (ref D5)
      (value D)
      (footprint Diode_SMD:D_SMA_Handsoldering)
      (datasheet ~)
      (libsource (lib Device) (part D) (description Diode))
      (sheetpath (names /) (tstamps /))
      (tstamp 6141D9DD))
    (comp (ref J1)
      (value IDC_2x10)
      (footprint custom-footprints:IDC_Header_2x10_P2.54mm_Vertical_SMD)
      (datasheet ~)
      (libsource (lib Connector_Generic) (part Conn_02x10_Odd_Even) (description "Generic connector, double row, 02x10, odd/even pin numbering scheme (row 1 odd numbers, row 2 even numbers), script generated (kicad-library-utils/schlib/autogen/connector/)"))
      (sheetpath (names /) (tstamps /))
      (tstamp 607E280B)))
  (libparts
    (libpart (lib B2B-PH-SM4-TB_LF__SN_) (part "B2B-PH-SM4-TB(LF)(SN)")
      (fields
        (field (name Reference) J)
        (field (name Value) "B2B-PH-SM4-TB(LF)(SN)")
        (field (name Footprint) "JST_B2B-PH-SM4-TB(LF)(SN)")
        (field (name MANUFACTURER) JST))
      (pins
        (pin (num 1) (name 1) (type passive))
        (pin (num 2) (name 2) (type passive))))
    (libpart (lib Connector) (part Conn_01x02_Male)
      (description "Generic connector, single row, 01x02, script generated (kicad-library-utils/schlib/autogen/connector/)")
      (docs ~)
      (footprints
        (fp Connector*:*_1x??_*))
      (fields
        (field (name Reference) J)
        (field (name Value) Conn_01x02_Male))
      (pins
        (pin (num 1) (name Pin_1) (type passive))
        (pin (num 2) (name Pin_2) (type passive))))
    (libpart (lib Connector) (part Conn_01x03_Male)
      (description "Generic connector, single row, 01x03, script generated (kicad-library-utils/schlib/autogen/connector/)")
      (docs ~)
      (footprints
        (fp Connector*:*_1x??_*))
      (fields
        (field (name Reference) J)
        (field (name Value) Conn_01x03_Male))
      (pins
        (pin (num 1) (name Pin_1) (type passive))
        (pin (num 2) (name Pin_2) (type passive))
        (pin (num 3) (name Pin_3) (type passive))))
    (libpart (lib Connector) (part Conn_01x04_Female)
      (description "Generic connector, single row, 01x04, script generated (kicad-library-utils/schlib/autogen/connector/)")
      (docs ~)
      (footprints
        (fp Connector*:*_1x??_*))
      (fields
        (field (name Reference) J)
        (field (name Value) Conn_01x04_Female))
      (pins
        (pin (num 1) (name Pin_1) (type passive))
        (pin (num 2) (name Pin_2) (type passive))
        (pin (num 3) (name Pin_3) (type passive))
        (pin (num 4) (name Pin_4) (type passive))))
    (libpart (lib Connector) (part Conn_01x09_Female)
      (description "Generic connector, single row, 01x09, script generated (kicad-library-utils/schlib/autogen/connector/)")
      (docs ~)
      (footprints
        (fp Connector*:*_1x??_*))
      (fields
        (field (name Reference) J)
        (field (name Value) Conn_01x09_Female))
      (pins
        (pin (num 1) (name Pin_1) (type passive))
        (pin (num 2) (name Pin_2) (type passive))
        (pin (num 3) (name Pin_3) (type passive))
        (pin (num 4) (name Pin_4) (type passive))
        (pin (num 5) (name Pin_5) (type passive))
        (pin (num 6) (name Pin_6) (type passive))
        (pin (num 7) (name Pin_7) (type passive))
        (pin (num 8) (name Pin_8) (type passive))
        (pin (num 9) (name Pin_9) (type passive))))
    (libpart (lib Connector) (part Conn_01x12_Female)
      (description "Generic connector, single row, 01x12, script generated (kicad-library-utils/schlib/autogen/connector/)")
      (docs ~)
      (footprints
        (fp Connector*:*_1x??_*))
      (fields
        (field (name Reference) J)
        (field (name Value) Conn_01x12_Female))
      (pins
        (pin (num 1) (name Pin_1) (type passive))
        (pin (num 2) (name Pin_2) (type passive))
        (pin (num 3) (name Pin_3) (type passive))
        (pin (num 4) (name Pin_4) (type passive))
        (pin (num 5) (name Pin_5) (type passive))
        (pin (num 6) (name Pin_6) (type passive))
        (pin (num 7) (name Pin_7) (type passive))
        (pin (num 8) (name Pin_8) (type passive))
        (pin (num 9) (name Pin_9) (type passive))
        (pin (num 10) (name Pin_10) (type passive))
        (pin (num 11) (name Pin_11) (type passive))
        (pin (num 12) (name Pin_12) (type passive))))
    (libpart (lib Connector) (part Conn_01x16_Female)
      (description "Generic connector, single row, 01x16, script generated (kicad-library-utils/schlib/autogen/connector/)")
      (docs ~)
      (footprints
        (fp Connector*:*_1x??_*))
      (fields
        (field (name Reference) J)
        (field (name Value) Conn_01x16_Female))
      (pins
        (pin (num 1) (name Pin_1) (type passive))
        (pin (num 2) (name Pin_2) (type passive))
        (pin (num 3) (name Pin_3) (type passive))
        (pin (num 4) (name Pin_4) (type passive))
        (pin (num 5) (name Pin_5) (type passive))
        (pin (num 6) (name Pin_6) (type passive))
        (pin (num 7) (name Pin_7) (type passive))
        (pin (num 8) (name Pin_8) (type passive))
        (pin (num 9) (name Pin_9) (type passive))
        (pin (num 10) (name Pin_10) (type passive))
        (pin (num 11) (name Pin_11) (type passive))
        (pin (num 12) (name Pin_12) (type passive))
        (pin (num 13) (name Pin_13) (type passive))
        (pin (num 14) (name Pin_14) (type passive))
        (pin (num 15) (name Pin_15) (type passive))
        (pin (num 16) (name Pin_16) (type passive))))
    (libpart (lib Connector_Generic) (part Conn_02x10_Odd_Even)
      (description "Generic connector, double row, 02x10, odd/even pin numbering scheme (row 1 odd numbers, row 2 even numbers), script generated (kicad-library-utils/schlib/autogen/connector/)")
      (docs ~)
      (footprints
        (fp Connector*:*_2x??_*))
      (fields
        (field (name Reference) J)
        (field (name Value) Conn_02x10_Odd_Even))
      (pins
        (pin (num 1) (name Pin_1) (type passive))
        (pin (num 2) (name Pin_2) (type passive))
        (pin (num 3) (name Pin_3) (type passive))
        (pin (num 4) (name Pin_4) (type passive))
        (pin (num 5) (name Pin_5) (type passive))
        (pin (num 6) (name Pin_6) (type passive))
        (pin (num 7) (name Pin_7) (type passive))
        (pin (num 8) (name Pin_8) (type passive))
        (pin (num 9) (name Pin_9) (type passive))
        (pin (num 10) (name Pin_10) (type passive))
        (pin (num 11) (name Pin_11) (type passive))
        (pin (num 12) (name Pin_12) (type passive))
        (pin (num 13) (name Pin_13) (type passive))
        (pin (num 14) (name Pin_14) (type passive))
        (pin (num 15) (name Pin_15) (type passive))
        (pin (num 16) (name Pin_16) (type passive))
        (pin (num 17) (name Pin_17) (type passive))
        (pin (num 18) (name Pin_18) (type passive))
        (pin (num 19) (name Pin_19) (type passive))
        (pin (num 20) (name Pin_20) (type passive))))
    (libpart (lib Device) (part C)
      (description "Unpolarized capacitor")
      (docs ~)
      (footprints
        (fp C_*))
      (fields
        (field (name Reference) C)
        (field (name Value) C))
      (pins
        (pin (num 1) (name ~) (type passive))
        (pin (num 2) (name ~) (type passive))))
    (libpart (lib Device) (part D)
      (description Diode)
      (docs ~)
      (footprints
        (fp TO-???*)
        (fp *_Diode_*)
        (fp *SingleDiode*)
        (fp D_*))
      (fields
        (field (name Reference) D)
        (field (name Value) D))
      (pins
        (pin (num 1) (name K) (type passive))
        (pin (num 2) (name A) (type passive))))
    (libpart (lib Device) (part R)
      (description Resistor)
      (docs ~)
      (footprints
        (fp R_*))
      (fields
        (field (name Reference) R)
        (field (name Value) R))
      (pins
        (pin (num 1) (name ~) (type passive))
        (pin (num 2) (name ~) (type passive))))
    (libpart (lib Transistor_BJT) (part BC817)
      (aliases
        (alias BC818)
        (alias BC846)
        (alias BC847)
        (alias BC848)
        (alias BC849)
        (alias BC850)
        (alias MMBT3904)
        (alias MMBT5550L)
        (alias MMBT5551L))
      (description "0.8A Ic, 45V Vce, NPN Transistor, SOT-23")
      (docs http://www.fairchildsemi.com/ds/BC/BC817.pdf)
      (footprints
        (fp SOT?23*))
      (fields
        (field (name Reference) Q)
        (field (name Value) BC817)
        (field (name Footprint) Package_TO_SOT_SMD:SOT-23))
      (pins
        (pin (num 1) (name B) (type input))
        (pin (num 2) (name E) (type passive))
        (pin (num 3) (name C) (type passive)))))
  (libraries
    (library (logical B2B-PH-SM4-TB_LF__SN_)
      (uri /Users/hsiehwanting/Fab_Academy/kicad/kicad-library/kicad-library/custom/custom-symbols/B2B-PH-SM4-TB_LF__SN_.lib))
    (library (logical Connector)
      (uri "/Library/Application Support/kicad/library/Connector.lib"))
    (library (logical Connector_Generic)
      (uri "/Library/Application Support/kicad/library/Connector_Generic.lib"))
    (library (logical Device)
      (uri "/Library/Application Support/kicad/library/Device.lib"))
    (library (logical Transistor_BJT)
      (uri "/Library/Application Support/kicad/library/Transistor_BJT.lib")))
  (nets
    (net (code 1) (name /IO21)
      (node (ref J5) (pin 1))
      (node (ref R35) (pin 2)))
    (net (code 2) (name /IO17-TX)
      (node (ref R36) (pin 2))
      (node (ref J5) (pin 2)))
    (net (code 3) (name /IO16-RX)
      (node (ref J5) (pin 3))
      (node (ref R18) (pin 2)))
    (net (code 4) (name /IO19-MISO)
      (node (ref J5) (pin 4))
      (node (ref R20) (pin 2))
      (node (ref J3) (pin 4)))
    (net (code 5) (name /IO18-MOSI)
      (node (ref R9) (pin 2))
      (node (ref J3) (pin 5))
      (node (ref J5) (pin 5)))
    (net (code 6) (name /IO5-SCK)
      (node (ref R8) (pin 2))
      (node (ref J5) (pin 6))
      (node (ref J3) (pin 3)))
    (net (code 7) (name /IO4-A5-T2-CS)
      (node (ref J3) (pin 6))
      (node (ref R19) (pin 2))
      (node (ref J5) (pin 7)))
    (net (code 8) (name /I36-A4)
      (node (ref J7) (pin 2))
      (node (ref J5) (pin 8)))
    (net (code 9) (name /I39-A3)
      (node (ref J7) (pin 1))
      (node (ref J5) (pin 9)))
    (net (code 10) (name /I34-A2)
      (node (ref J7) (pin 3))
      (node (ref J5) (pin 10)))
    (net (code 11) (name /IO25-A1)
      (node (ref R17) (pin 2))
      (node (ref J5) (pin 11)))
    (net (code 12) (name /IO26-A0)
      (node (ref R7) (pin 2))
      (node (ref J5) (pin 12)))
    (net (code 13) (name GND)
      (node (ref J9) (pin 2))
      (node (ref J6) (pin 2))
      (node (ref J2) (pin 2))
      (node (ref Q9) (pin 2))
      (node (ref Q7) (pin 2))
      (node (ref J5) (pin 13))
      (node (ref Q10) (pin 2))
      (node (ref J3) (pin 2))
      (node (ref Q5) (pin 2))
      (node (ref Q11) (pin 2))
      (node (ref Q12) (pin 2))
      (node (ref Q18) (pin 2))
      (node (ref Q3) (pin 2))
      (node (ref Q1) (pin 2))
      (node (ref Q4) (pin 2))
      (node (ref Q17) (pin 2))
      (node (ref Q16) (pin 2))
      (node (ref Q6) (pin 2))
      (node (ref Q15) (pin 2))
      (node (ref Q8) (pin 2))
      (node (ref Q13) (pin 2))
      (node (ref Q2) (pin 2))
      (node (ref Q14) (pin 2)))
    (net (code 14) (name /IO32-A7-T1)
      (node (ref R29) (pin 2))
      (node (ref J4) (pin 4)))
    (net (code 15) (name /IO14-A6-T2)
      (node (ref R30) (pin 2))
      (node (ref J4) (pin 3)))
    (net (code 16) (name /IO22-SCL)
      (node (ref J4) (pin 2))
      (node (ref R10) (pin 2))
      (node (ref J2) (pin 3)))
    (net (code 17) (name /IO27-A10-T2)
      (node (ref R6) (pin 2))
      (node (ref J4) (pin 7)))
    (net (code 18) (name /IO33-A9-T1)
      (node (ref R25) (pin 2))
      (node (ref J4) (pin 6)))
    (net (code 19) (name /IO15-A8-T2)
      (node (ref R26) (pin 2))
      (node (ref J4) (pin 5)))
    (net (code 20) (name /IO13-A12-T2)
      (node (ref J4) (pin 9))
      (node (ref R24) (pin 2)))
    (net (code 21) (name "Net-(J5-Pad14)")
      (node (ref J5) (pin 14)))
    (net (code 22) (name /USB)
      (node (ref J4) (pin 10)))
    (net (code 23) (name "Net-(J4-Pad11)")
      (node (ref J4) (pin 11)))
    (net (code 24) (name /ESP32-BAT)
      (node (ref J8) (pin 1))
      (node (ref J4) (pin 12)))
    (net (code 25) (name /IO12-A11)
      (node (ref R16) (pin 2))
      (node (ref J4) (pin 8)))
    (net (code 26) (name "Net-(J5-Pad16)")
      (node (ref J5) (pin 16)))
    (net (code 27) (name /3V3-O250mA)
      (node (ref J5) (pin 15))
      (node (ref J3) (pin 1))
      (node (ref J2) (pin 1))
      (node (ref J9) (pin 1)))
    (net (code 28) (name "Net-(J3-Pad7)")
      (node (ref J3) (pin 7)))
    (net (code 29) (name "Net-(J3-Pad9)")
      (node (ref J3) (pin 9)))
    (net (code 30) (name "Net-(J3-Pad8)")
      (node (ref J3) (pin 8)))
    (net (code 31) (name "Net-(Q1-Pad1)")
      (node (ref Q1) (pin 1))
      (node (ref R6) (pin 1)))
    (net (code 32) (name "Net-(Q1-Pad3)")
      (node (ref R1) (pin 2))
      (node (ref Q1) (pin 3)))
    (net (code 33) (name /M5_middle1)
      (node (ref C1) (pin 2))
      (node (ref J1) (pin 5))
      (node (ref R1) (pin 1))
      (node (ref D1) (pin 2)))
    (net (code 34) (name "Net-(Q2-Pad1)")
      (node (ref Q2) (pin 1))
      (node (ref R7) (pin 1)))
    (net (code 35) (name "Net-(Q2-Pad3)")
      (node (ref Q2) (pin 3))
      (node (ref R2) (pin 2)))
    (net (code 36) (name /M7_ring1)
      (node (ref J1) (pin 7))
      (node (ref C2) (pin 2))
      (node (ref R2) (pin 1))
      (node (ref D2) (pin 2)))
    (net (code 37) (name "Net-(Q6-Pad1)")
      (node (ref Q6) (pin 1))
      (node (ref R16) (pin 1)))
    (net (code 38) (name "Net-(Q6-Pad3)")
      (node (ref R11) (pin 2))
      (node (ref Q6) (pin 3)))
    (net (code 39) (name /M4_pointer2)
      (node (ref R11) (pin 1))
      (node (ref C6) (pin 2))
      (node (ref J1) (pin 4))
      (node (ref D6) (pin 2)))
    (net (code 40) (name "Net-(Q7-Pad1)")
      (node (ref Q7) (pin 1))
      (node (ref R17) (pin 1)))
    (net (code 41) (name "Net-(Q7-Pad3)")
      (node (ref R12) (pin 2))
      (node (ref Q7) (pin 3)))
    (net (code 42) (name /M17_back2)
      (node (ref J1) (pin 14))
      (node (ref D7) (pin 2))
      (node (ref C7) (pin 2))
      (node (ref R12) (pin 1)))
    (net (code 43) (name "Net-(Q5-Pad1)")
      (node (ref Q5) (pin 1))
      (node (ref R10) (pin 1)))
    (net (code 44) (name "Net-(Q5-Pad3)")
      (node (ref Q5) (pin 3))
      (node (ref R5) (pin 2)))
    (net (code 45) (name /M2_thumb2)
      (node (ref D5) (pin 2))
      (node (ref J1) (pin 2))
      (node (ref C5) (pin 2))
      (node (ref R5) (pin 1)))
    (net (code 46) (name "Net-(Q11-Pad1)")
      (node (ref R24) (pin 1))
      (node (ref Q11) (pin 1)))
    (net (code 47) (name "Net-(Q11-Pad3)")
      (node (ref R21) (pin 2))
      (node (ref Q11) (pin 3)))
    (net (code 48) (name /M8_ring2)
      (node (ref J1) (pin 8))
      (node (ref D11) (pin 2))
      (node (ref C11) (pin 2))
      (node (ref R21) (pin 1)))
    (net (code 49) (name "Net-(Q3-Pad1)")
      (node (ref R8) (pin 1))
      (node (ref Q3) (pin 1)))
    (net (code 50) (name "Net-(Q3-Pad3)")
      (node (ref R3) (pin 2))
      (node (ref Q3) (pin 3)))
    (net (code 51) (name /M9_little1)
      (node (ref C3) (pin 2))
      (node (ref R3) (pin 1))
      (node (ref J1) (pin 9))
      (node (ref D3) (pin 2)))
    (net (code 52) (name "Net-(Q4-Pad1)")
      (node (ref R9) (pin 1))
      (node (ref Q4) (pin 1)))
    (net (code 53) (name "Net-(Q4-Pad3)")
      (node (ref Q4) (pin 3))
      (node (ref R4) (pin 2)))
    (net (code 54) (name /M13_upPalm3)
      (node (ref C4) (pin 2))
      (node (ref D4) (pin 2))
      (node (ref R4) (pin 1))
      (node (ref J1) (pin 11)))
    (net (code 55) (name "Net-(Q8-Pad1)")
      (node (ref Q8) (pin 1))
      (node (ref R18) (pin 1)))
    (net (code 56) (name "Net-(Q8-Pad3)")
      (node (ref R13) (pin 2))
      (node (ref Q8) (pin 3)))
    (net (code 57) (name "Net-(Q9-Pad1)")
      (node (ref Q9) (pin 1))
      (node (ref R19) (pin 1)))
    (net (code 58) (name "Net-(Q9-Pad3)")
      (node (ref Q9) (pin 3))
      (node (ref R14) (pin 2)))
    (net (code 59) (name "Net-(Q12-Pad1)")
      (node (ref R25) (pin 1))
      (node (ref Q12) (pin 1)))
    (net (code 60) (name "Net-(Q12-Pad3)")
      (node (ref Q12) (pin 3))
      (node (ref R22) (pin 2)))
    (net (code 61) (name /M6_middle2)
      (node (ref C12) (pin 2))
      (node (ref R22) (pin 1))
      (node (ref J1) (pin 6))
      (node (ref D12) (pin 2)))
    (net (code 62) (name "Net-(Q13-Pad1)")
      (node (ref Q13) (pin 1))
      (node (ref R26) (pin 1)))
    (net (code 63) (name "Net-(Q13-Pad3)")
      (node (ref Q13) (pin 3))
      (node (ref R23) (pin 2)))
    (net (code 64) (name /M18_back3)
      (node (ref J1) (pin 15))
      (node (ref C13) (pin 2))
      (node (ref R23) (pin 1))
      (node (ref D13) (pin 2)))
    (net (code 65) (name "Net-(Q14-Pad1)")
      (node (ref Q14) (pin 1))
      (node (ref R29) (pin 1)))
    (net (code 66) (name "Net-(Q14-Pad3)")
      (node (ref Q14) (pin 3))
      (node (ref R27) (pin 2)))
    (net (code 67) (name /M16_back1)
      (node (ref J1) (pin 13))
      (node (ref C14) (pin 2))
      (node (ref R27) (pin 1))
      (node (ref D14) (pin 2)))
    (net (code 68) (name "Net-(Q15-Pad1)")
      (node (ref Q15) (pin 1))
      (node (ref R30) (pin 1)))
    (net (code 69) (name "Net-(Q15-Pad3)")
      (node (ref Q15) (pin 3))
      (node (ref R28) (pin 2)))
    (net (code 70) (name /M3_pointer1)
      (node (ref J1) (pin 3))
      (node (ref D15) (pin 2))
      (node (ref C15) (pin 2))
      (node (ref R28) (pin 1)))
    (net (code 71) (name "Net-(Q16-Pad1)")
      (node (ref Q16) (pin 1))
      (node (ref R34) (pin 1)))
    (net (code 72) (name "Net-(Q16-Pad3)")
      (node (ref Q16) (pin 3))
      (node (ref R31) (pin 2)))
    (net (code 73) (name /M1_thumb1)
      (node (ref R31) (pin 1))
      (node (ref C16) (pin 2))
      (node (ref J1) (pin 1))
      (node (ref D16) (pin 2)))
    (net (code 74) (name /IO23-SDA)
      (node (ref J4) (pin 1))
      (node (ref R34) (pin 2))
      (node (ref J2) (pin 4)))
    (net (code 75) (name "Net-(Q17-Pad1)")
      (node (ref Q17) (pin 1))
      (node (ref R35) (pin 1)))
    (net (code 76) (name "Net-(Q17-Pad3)")
      (node (ref Q17) (pin 3))
      (node (ref R32) (pin 2)))
    (net (code 77) (name "Net-(Q18-Pad1)")
      (node (ref Q18) (pin 1))
      (node (ref R36) (pin 1)))
    (net (code 78) (name "Net-(Q18-Pad3)")
      (node (ref Q18) (pin 3))
      (node (ref R33) (pin 2)))
    (net (code 79) (name "Net-(Q10-Pad1)")
      (node (ref R20) (pin 1))
      (node (ref Q10) (pin 1)))
    (net (code 80) (name "Net-(Q10-Pad3)")
      (node (ref R15) (pin 2))
      (node (ref Q10) (pin 3)))
    (net (code 81) (name /Motor-BAT)
      (node (ref C11) (pin 1))
      (node (ref J8) (pin 2))
      (node (ref C3) (pin 1))
      (node (ref D1) (pin 1))
      (node (ref D2) (pin 1))
      (node (ref D3) (pin 1))
      (node (ref J6) (pin 1))
      (node (ref D10) (pin 1))
      (node (ref J1) (pin 19))
      (node (ref D9) (pin 1))
      (node (ref D8) (pin 1))
      (node (ref D7) (pin 1))
      (node (ref D6) (pin 1))
      (node (ref C5) (pin 1))
      (node (ref D11) (pin 1))
      (node (ref D12) (pin 1))
      (node (ref C4) (pin 1))
      (node (ref D13) (pin 1))
      (node (ref D15) (pin 1))
      (node (ref C10) (pin 1))
      (node (ref D14) (pin 1))
      (node (ref C12) (pin 1))
      (node (ref D16) (pin 1))
      (node (ref C9) (pin 1))
      (node (ref D17) (pin 1))
      (node (ref C13) (pin 1))
      (node (ref D18) (pin 1))
      (node (ref D4) (pin 1))
      (node (ref C2) (pin 1))
      (node (ref D5) (pin 1))
      (node (ref C14) (pin 1))
      (node (ref C18) (pin 1))
      (node (ref C1) (pin 1))
      (node (ref C15) (pin 1))
      (node (ref C7) (pin 1))
      (node (ref C6) (pin 1))
      (node (ref C8) (pin 1))
      (node (ref C16) (pin 1))
      (node (ref C17) (pin 1)))
    (net (code 82) (name /M10_little2)
      (node (ref J1) (pin 10))
      (node (ref R15) (pin 1))
      (node (ref C10) (pin 2))
      (node (ref D10) (pin 2)))
    (net (code 83) (name "Net-(J1-Pad20)")
      (node (ref J1) (pin 20)))
    (net (code 84) (name /M11_upPalm1)
      (node (ref C17) (pin 2))
      (node (ref R32) (pin 1))
      (node (ref D17) (pin 2))
      (node (ref J1) (pin 17)))
    (net (code 85) (name /M15_dwPalm2)
      (node (ref J1) (pin 12))
      (node (ref D9) (pin 2))
      (node (ref R14) (pin 1))
      (node (ref C9) (pin 2)))
    (net (code 86) (name /M12_upPalm2)
      (node (ref D18) (pin 2))
      (node (ref J1) (pin 18))
      (node (ref C18) (pin 2))
      (node (ref R33) (pin 1)))
    (net (code 87) (name /M14_dwPalm1)
      (node (ref R13) (pin 1))
      (node (ref C8) (pin 2))
      (node (ref J1) (pin 16))
      (node (ref D8) (pin 2)))))