(export (version D)
  (design
    (source /Users/hsiehwanting/Fab_Academy/kicad/KiCad-Adafruit_ESP32_LiPo_18_Vibration_Shield/KiCad-Adafruit_ESP32_LiPo_18_Vibration_Shield_2_ribbons.sch)
    (date "Saturday, 10 April 2021 at 10:40:32")
    (tool "Eeschema (5.1.5-0)")
    (sheet (number 1) (name /) (tstamps /)
      (title_block
        (title)
        (company)
        (rev)
        (date)
        (source KiCad-Adafruit_ESP32_LiPo_18_Vibration_Shield_2_ribbons.sch)
        (comment (number 1) (value ""))
        (comment (number 2) (value ""))
        (comment (number 3) (value ""))
        (comment (number 4) (value "")))))
  (components
    (comp (ref J2)
      (value Adafruit_ESP32-L_1x12)
      (footprint Connector_PinSocket_2.54mm:PinSocket_1x12_P2.54mm_Vertical_SMD_Pin1Right)
      (datasheet ~)
      (libsource (lib Connector) (part Conn_01x12_Female) (description "Generic connector, single row, 01x12, script generated (kicad-library-utils/schlib/autogen/connector/)"))
      (sheetpath (names /) (tstamps /))
      (tstamp 5F7E1870))
    (comp (ref J1)
      (value Adafruit_ESP32-R_1x16)
      (footprint Connector_PinSocket_2.54mm:PinSocket_1x16_P2.54mm_Vertical_SMD_Pin1Right)
      (datasheet ~)
      (libsource (lib Connector) (part Conn_01x16_Female) (description "Generic connector, single row, 01x16, script generated (kicad-library-utils/schlib/autogen/connector/)"))
      (sheetpath (names /) (tstamps /))
      (tstamp 5F7D454E))
    (comp (ref J6)
      (value 3V3_1x2)
      (footprint custom-footprints:UPDI_Header_1x02_P2.54mm_Horizontal)
      (datasheet ~)
      (libsource (lib Connector) (part Conn_01x02_Male) (description "Generic connector, single row, 01x02, script generated (kicad-library-utils/schlib/autogen/connector/)"))
      (sheetpath (names /) (tstamps /))
      (tstamp 5F7F2C2D))
    (comp (ref J10)
      (value BAT_B2B-PH)
      (footprint "custom-footprints:JST_B2B-PH-SM4-TB(LF)(SN)")
      (fields
        (field (name MANUFACTURER) JST))
      (libsource (lib B2B-PH-SM4-TB_LF__SN_) (part "B2B-PH-SM4-TB(LF)(SN)") (description ""))
      (sheetpath (names /) (tstamps /))
      (tstamp 6071DF53))
    (comp (ref R1)
      (value 0.536R_2W)
      (footprint Resistor_SMD:R_2512_6332Metric_Pad1.52x3.35mm_HandSolder)
      (datasheet ~)
      (libsource (lib Device) (part R) (description Resistor))
      (sheetpath (names /) (tstamps /))
      (tstamp 6079F1DF))
    (comp (ref J8)
      (value I2C_1x4)
      (footprint Connector_PinSocket_2.54mm:PinSocket_1x04_P2.54mm_Vertical_SMD_Pin1Right)
      (datasheet ~)
      (libsource (lib Connector) (part Conn_01x04_Female) (description "Generic connector, single row, 01x04, script generated (kicad-library-utils/schlib/autogen/connector/)"))
      (sheetpath (names /) (tstamps /))
      (tstamp 5F82CFBE))
    (comp (ref J3)
      (value micro_SD_01x09)
      (footprint Connector_PinSocket_2.54mm:PinSocket_1x09_P2.54mm_Vertical_SMD_Pin1Right)
      (datasheet ~)
      (libsource (lib Connector) (part Conn_01x09_Female) (description "Generic connector, single row, 01x09, script generated (kicad-library-utils/schlib/autogen/connector/)"))
      (sheetpath (names /) (tstamps /))
      (tstamp 6075E152))
    (comp (ref J4)
      (value Analog_IN_1x03)
      (footprint Connector_PinSocket_2.54mm:PinSocket_1x03_P2.54mm_Vertical_SMD_Pin1Left)
      (datasheet ~)
      (libsource (lib Connector) (part Conn_01x03_Male) (description "Generic connector, single row, 01x03, script generated (kicad-library-utils/schlib/autogen/connector/)"))
      (sheetpath (names /) (tstamps /))
      (tstamp 607D9C6E))
    (comp (ref J5)
      (value IDC_2x5_Palm_Back)
      (footprint Connector_PinHeader_2.54mm:PinHeader_2x05_P2.54mm_Vertical_SMD)
      (datasheet ~)
      (libsource (lib Connector_Generic) (part Conn_02x05_Odd_Even) (description "Generic connector, double row, 02x05, odd/even pin numbering scheme (row 1 odd numbers, row 2 even numbers), script generated (kicad-library-utils/schlib/autogen/connector/)"))
      (sheetpath (names /) (tstamps /))
      (tstamp 60718C9D))
    (comp (ref J7)
      (value IDC_2x5_Fingers)
      (footprint Connector_PinHeader_2.54mm:PinHeader_2x05_P2.54mm_Vertical_SMD)
      (datasheet ~)
      (libsource (lib Connector_Generic) (part Conn_02x05_Odd_Even) (description "Generic connector, double row, 02x05, odd/even pin numbering scheme (row 1 odd numbers, row 2 even numbers), script generated (kicad-library-utils/schlib/autogen/connector/)"))
      (sheetpath (names /) (tstamps /))
      (tstamp 60716BE5)))
  (libparts
    (libpart (lib B2B-PH-SM4-TB_LF__SN_) (part "B2B-PH-SM4-TB(LF)(SN)")
      (fields
        (field (name Reference) J)
        (field (name Value) "B2B-PH-SM4-TB(LF)(SN)")
        (field (name Footprint) "JST_B2B-PH-SM4-TB(LF)(SN)")
        (field (name MANUFACTURER) JST))
      (pins
        (pin (num 1) (name 1) (type passive))
        (pin (num 2) (name 2) (type passive))))
    (libpart (lib Connector) (part Conn_01x02_Male)
      (description "Generic connector, single row, 01x02, script generated (kicad-library-utils/schlib/autogen/connector/)")
      (docs ~)
      (footprints
        (fp Connector*:*_1x??_*))
      (fields
        (field (name Reference) J)
        (field (name Value) Conn_01x02_Male))
      (pins
        (pin (num 1) (name Pin_1) (type passive))
        (pin (num 2) (name Pin_2) (type passive))))
    (libpart (lib Connector) (part Conn_01x03_Male)
      (description "Generic connector, single row, 01x03, script generated (kicad-library-utils/schlib/autogen/connector/)")
      (docs ~)
      (footprints
        (fp Connector*:*_1x??_*))
      (fields
        (field (name Reference) J)
        (field (name Value) Conn_01x03_Male))
      (pins
        (pin (num 1) (name Pin_1) (type passive))
        (pin (num 2) (name Pin_2) (type passive))
        (pin (num 3) (name Pin_3) (type passive))))
    (libpart (lib Connector) (part Conn_01x04_Female)
      (description "Generic connector, single row, 01x04, script generated (kicad-library-utils/schlib/autogen/connector/)")
      (docs ~)
      (footprints
        (fp Connector*:*_1x??_*))
      (fields
        (field (name Reference) J)
        (field (name Value) Conn_01x04_Female))
      (pins
        (pin (num 1) (name Pin_1) (type passive))
        (pin (num 2) (name Pin_2) (type passive))
        (pin (num 3) (name Pin_3) (type passive))
        (pin (num 4) (name Pin_4) (type passive))))
    (libpart (lib Connector) (part Conn_01x09_Female)
      (description "Generic connector, single row, 01x09, script generated (kicad-library-utils/schlib/autogen/connector/)")
      (docs ~)
      (footprints
        (fp Connector*:*_1x??_*))
      (fields
        (field (name Reference) J)
        (field (name Value) Conn_01x09_Female))
      (pins
        (pin (num 1) (name Pin_1) (type passive))
        (pin (num 2) (name Pin_2) (type passive))
        (pin (num 3) (name Pin_3) (type passive))
        (pin (num 4) (name Pin_4) (type passive))
        (pin (num 5) (name Pin_5) (type passive))
        (pin (num 6) (name Pin_6) (type passive))
        (pin (num 7) (name Pin_7) (type passive))
        (pin (num 8) (name Pin_8) (type passive))
        (pin (num 9) (name Pin_9) (type passive))))
    (libpart (lib Connector) (part Conn_01x12_Female)
      (description "Generic connector, single row, 01x12, script generated (kicad-library-utils/schlib/autogen/connector/)")
      (docs ~)
      (footprints
        (fp Connector*:*_1x??_*))
      (fields
        (field (name Reference) J)
        (field (name Value) Conn_01x12_Female))
      (pins
        (pin (num 1) (name Pin_1) (type passive))
        (pin (num 2) (name Pin_2) (type passive))
        (pin (num 3) (name Pin_3) (type passive))
        (pin (num 4) (name Pin_4) (type passive))
        (pin (num 5) (name Pin_5) (type passive))
        (pin (num 6) (name Pin_6) (type passive))
        (pin (num 7) (name Pin_7) (type passive))
        (pin (num 8) (name Pin_8) (type passive))
        (pin (num 9) (name Pin_9) (type passive))
        (pin (num 10) (name Pin_10) (type passive))
        (pin (num 11) (name Pin_11) (type passive))
        (pin (num 12) (name Pin_12) (type passive))))
    (libpart (lib Connector) (part Conn_01x16_Female)
      (description "Generic connector, single row, 01x16, script generated (kicad-library-utils/schlib/autogen/connector/)")
      (docs ~)
      (footprints
        (fp Connector*:*_1x??_*))
      (fields
        (field (name Reference) J)
        (field (name Value) Conn_01x16_Female))
      (pins
        (pin (num 1) (name Pin_1) (type passive))
        (pin (num 2) (name Pin_2) (type passive))
        (pin (num 3) (name Pin_3) (type passive))
        (pin (num 4) (name Pin_4) (type passive))
        (pin (num 5) (name Pin_5) (type passive))
        (pin (num 6) (name Pin_6) (type passive))
        (pin (num 7) (name Pin_7) (type passive))
        (pin (num 8) (name Pin_8) (type passive))
        (pin (num 9) (name Pin_9) (type passive))
        (pin (num 10) (name Pin_10) (type passive))
        (pin (num 11) (name Pin_11) (type passive))
        (pin (num 12) (name Pin_12) (type passive))
        (pin (num 13) (name Pin_13) (type passive))
        (pin (num 14) (name Pin_14) (type passive))
        (pin (num 15) (name Pin_15) (type passive))
        (pin (num 16) (name Pin_16) (type passive))))
    (libpart (lib Connector_Generic) (part Conn_02x05_Odd_Even)
      (description "Generic connector, double row, 02x05, odd/even pin numbering scheme (row 1 odd numbers, row 2 even numbers), script generated (kicad-library-utils/schlib/autogen/connector/)")
      (docs ~)
      (footprints
        (fp Connector*:*_2x??_*))
      (fields
        (field (name Reference) J)
        (field (name Value) Conn_02x05_Odd_Even))
      (pins
        (pin (num 1) (name Pin_1) (type passive))
        (pin (num 2) (name Pin_2) (type passive))
        (pin (num 3) (name Pin_3) (type passive))
        (pin (num 4) (name Pin_4) (type passive))
        (pin (num 5) (name Pin_5) (type passive))
        (pin (num 6) (name Pin_6) (type passive))
        (pin (num 7) (name Pin_7) (type passive))
        (pin (num 8) (name Pin_8) (type passive))
        (pin (num 9) (name Pin_9) (type passive))
        (pin (num 10) (name Pin_10) (type passive))))
    (libpart (lib Device) (part R)
      (description Resistor)
      (docs ~)
      (footprints
        (fp R_*))
      (fields
        (field (name Reference) R)
        (field (name Value) R))
      (pins
        (pin (num 1) (name ~) (type passive))
        (pin (num 2) (name ~) (type passive)))))
  (libraries
    (library (logical B2B-PH-SM4-TB_LF__SN_)
      (uri /Users/hsiehwanting/Fab_Academy/kicad/kicad-library/kicad-library/custom/custom-symbols/B2B-PH-SM4-TB_LF__SN_.lib))
    (library (logical Connector)
      (uri "/Library/Application Support/kicad/library/Connector.lib"))
    (library (logical Connector_Generic)
      (uri "/Library/Application Support/kicad/library/Connector_Generic.lib"))
    (library (logical Device)
      (uri "/Library/Application Support/kicad/library/Device.lib")))
  (nets
    (net (code 1) (name /IO21)
      (node (ref J7) (pin 8))
      (node (ref J1) (pin 1)))
    (net (code 2) (name /IO17-TX)
      (node (ref J7) (pin 10))
      (node (ref J1) (pin 2)))
    (net (code 3) (name /IO16-RX)
      (node (ref J7) (pin 6))
      (node (ref J1) (pin 3)))
    (net (code 4) (name /IO19-MISO)
      (node (ref J7) (pin 9))
      (node (ref J3) (pin 6))
      (node (ref J1) (pin 4)))
    (net (code 5) (name /IO18-MOSI)
      (node (ref J3) (pin 5))
      (node (ref J1) (pin 5))
      (node (ref J7) (pin 4)))
    (net (code 6) (name /IO5-SCK)
      (node (ref J3) (pin 7))
      (node (ref J1) (pin 6))
      (node (ref J7) (pin 7)))
    (net (code 7) (name /IO4-A5-T2-CS)
      (node (ref J7) (pin 2))
      (node (ref J3) (pin 4))
      (node (ref J1) (pin 7)))
    (net (code 8) (name /I36-A4)
      (node (ref J1) (pin 8))
      (node (ref J4) (pin 2)))
    (net (code 9) (name /I39-A3)
      (node (ref J4) (pin 1))
      (node (ref J1) (pin 9)))
    (net (code 10) (name /I34-A2)
      (node (ref J1) (pin 10))
      (node (ref J4) (pin 3)))
    (net (code 11) (name /IO25-A1)
      (node (ref J1) (pin 11))
      (node (ref J5) (pin 10)))
    (net (code 12) (name /IO26-A0)
      (node (ref J1) (pin 12))
      (node (ref J7) (pin 5)))
    (net (code 13) (name /GND)
      (node (ref J6) (pin 2))
      (node (ref J5) (pin 1))
      (node (ref J10) (pin 1))
      (node (ref J1) (pin 13))
      (node (ref J3) (pin 8))
      (node (ref J8) (pin 2)))
    (net (code 14) (name /IO32-A7-T1)
      (node (ref J5) (pin 4))
      (node (ref J2) (pin 4)))
    (net (code 15) (name /IO14-A6-T2)
      (node (ref J5) (pin 7))
      (node (ref J2) (pin 3)))
    (net (code 16) (name /IO22-SCL)
      (node (ref J8) (pin 3))
      (node (ref J5) (pin 2))
      (node (ref J2) (pin 2)))
    (net (code 17) (name /IO23-SDA)
      (node (ref J2) (pin 1))
      (node (ref J8) (pin 4))
      (node (ref J5) (pin 5)))
    (net (code 18) (name /IO27-A10-T2)
      (node (ref J2) (pin 7))
      (node (ref J7) (pin 1)))
    (net (code 19) (name /IO33-A9-T1)
      (node (ref J2) (pin 6))
      (node (ref J5) (pin 6)))
    (net (code 20) (name /IO15-A8-T2)
      (node (ref J2) (pin 5))
      (node (ref J5) (pin 9)))
    (net (code 21) (name /IO13-A12-T2)
      (node (ref J2) (pin 9))
      (node (ref J7) (pin 3)))
    (net (code 22) (name "Net-(J1-Pad14)")
      (node (ref J1) (pin 14)))
    (net (code 23) (name /USB)
      (node (ref J2) (pin 10)))
    (net (code 24) (name "Net-(J2-Pad11)")
      (node (ref J2) (pin 11)))
    (net (code 25) (name /ESP32-BAT)
      (node (ref J2) (pin 12)))
    (net (code 26) (name /IO12-A11)
      (node (ref J5) (pin 8))
      (node (ref J2) (pin 8)))
    (net (code 27) (name "Net-(J1-Pad16)")
      (node (ref J1) (pin 16)))
    (net (code 28) (name /3V3-O250mA)
      (node (ref J8) (pin 1))
      (node (ref J1) (pin 15))
      (node (ref J3) (pin 9))
      (node (ref J6) (pin 1)))
    (net (code 29) (name /Motor-BAT)
      (node (ref R1) (pin 2))
      (node (ref J5) (pin 3)))
    (net (code 30) (name "Net-(J10-Pad2)")
      (node (ref J10) (pin 2))
      (node (ref R1) (pin 1)))
    (net (code 31) (name "Net-(J3-Pad3)")
      (node (ref J3) (pin 3)))
    (net (code 32) (name "Net-(J3-Pad2)")
      (node (ref J3) (pin 2)))
    (net (code 33) (name "Net-(J3-Pad1)")
      (node (ref J3) (pin 1)))))