EESchema Schematic File Version 4
EELAYER 30 0
EELAYER END
$Descr A4 11693 8268
encoding utf-8
Sheet 1 1
Title ""
Date ""
Rev ""
Comp ""
Comment1 ""
Comment2 ""
Comment3 ""
Comment4 ""
$EndDescr
Wire Wire Line
	9100 3975 9650 3975
Text Label 9650 3975 2    50   ~ 0
IO21
Wire Wire Line
	9100 4075 9650 4075
Text Label 9650 4075 2    50   ~ 0
IO17-TX
Wire Wire Line
	9100 4175 9650 4175
Text Label 9650 4175 2    50   ~ 0
IO16-RX
Wire Wire Line
	9100 4275 9650 4275
Text Label 9650 4275 2    50   ~ 0
IO19-MISO
Wire Wire Line
	9100 4375 9650 4375
Text Label 9650 4375 2    50   ~ 0
IO18-MOSI
Wire Wire Line
	9100 4475 9650 4475
Text Label 9650 4475 2    50   ~ 0
IO5-SCK
Wire Wire Line
	9100 4575 9650 4575
Text Label 9650 4575 2    50   ~ 0
IO4-A5-T2-CS
Wire Wire Line
	9100 4675 9650 4675
Text Label 9650 4675 2    50   ~ 0
I36-A4
Wire Wire Line
	9100 4775 9650 4775
Text Label 9650 4775 2    50   ~ 0
I39-A3
Wire Wire Line
	9100 4875 9650 4875
Text Label 9650 4875 2    50   ~ 0
I34-A2
Wire Wire Line
	9100 4975 9650 4975
Text Label 9650 4975 2    50   ~ 0
IO25-A1
Wire Wire Line
	9100 5075 9650 5075
Text Label 9650 5075 2    50   ~ 0
IO26-A0
Wire Wire Line
	9100 5175 9650 5175
Text Label 9650 5175 2    50   ~ 0
GND
Wire Wire Line
	8075 4300 7500 4300
Text Label 7500 4300 0    50   ~ 0
IO32-A7-T1
Wire Wire Line
	8075 4200 7500 4200
Text Label 7500 4200 0    50   ~ 0
IO14-A6-T2
Wire Wire Line
	8075 4100 7500 4100
Text Label 7500 4100 0    50   ~ 0
IO22-SCL
Wire Wire Line
	8075 4000 7500 4000
Text Label 750  7275 1    50   ~ 0
IO23-SDA
Wire Wire Line
	8075 4600 7500 4600
Text Label 7500 4600 0    50   ~ 0
IO27-A10-T2
Wire Wire Line
	8075 4500 7500 4500
Text Label 7500 4500 0    50   ~ 0
IO33-A9-T1
Wire Wire Line
	8075 4400 7500 4400
Text Label 7500 4400 0    50   ~ 0
IO15-A8-T2
Wire Wire Line
	8075 4800 7500 4800
Text Label 7500 4800 0    50   ~ 0
IO13-A12-T2
NoConn ~ 9100 5275
$Comp
L Connector:Conn_01x12_Female J4
U 1 1 5F7E1870
P 8275 4500
F 0 "J4" H 7925 5250 50  0000 L CNN
F 1 "Adafruit_ESP32-L_1x12" H 7600 5150 50  0000 L CNN
F 2 "Connector_PinSocket_2.54mm:PinSocket_1x12_P2.54mm_Vertical_SMD_Pin1Right" H 8275 4500 50  0001 C CNN
F 3 "~" H 8275 4500 50  0001 C CNN
	1    8275 4500
	1    0    0    -1  
$EndComp
$Comp
L Connector:Conn_01x16_Female J5
U 1 1 5F7D454E
P 8900 4675
F 0 "J5" H 8650 5600 50  0000 C CNN
F 1 "Adafruit_ESP32-R_1x16" H 8625 5500 50  0000 C CNN
F 2 "Connector_PinSocket_2.54mm:PinSocket_1x16_P2.54mm_Vertical_SMD_Pin1Right" H 8900 4675 50  0001 C CNN
F 3 "~" H 8900 4675 50  0001 C CNN
	1    8900 4675
	-1   0    0    -1  
$EndComp
Text Label 9650 5375 2    50   ~ 0
3V3-O250mA
Wire Wire Line
	9100 5375 9650 5375
Wire Wire Line
	8075 5100 7500 5100
Text Label 7500 5100 0    50   ~ 0
ESP32-BAT
Wire Wire Line
	8075 4900 7500 4900
Text Label 7500 4900 0    50   ~ 0
USB
Text Label 6200 4950 0    50   ~ 0
Motor-BAT
Text Label 6200 5050 0    50   ~ 0
GND
Wire Wire Line
	6725 4950 6575 4950
NoConn ~ 8075 5000
NoConn ~ 9100 5475
Text Label 10775 5500 2    50   ~ 0
3V3-O250mA
Wire Wire Line
	10150 5500 10775 5500
Text Label 10775 5600 2    50   ~ 0
GND
Wire Wire Line
	10150 5600 10775 5600
$Comp
L Connector:Conn_01x02_Male J9
U 1 1 5F7F2C2D
P 9950 5500
F 0 "J9" H 10225 5700 50  0000 C CNN
F 1 "3V3_1x2" H 10225 5625 50  0000 C CNN
F 2 "custom-footprints:UPDI_Header_1x02_P2.54mm_Horizontal" H 9950 5500 50  0001 C CNN
F 3 "~" H 9950 5500 50  0001 C CNN
	1    9950 5500
	1    0    0    -1  
$EndComp
Wire Wire Line
	8075 4700 7500 4700
Text Label 7500 4700 0    50   ~ 0
IO12-A11
$Comp
L B2B-PH-SM4-TB_LF__SN_:B2B-PH-SM4-TB(LF)(SN) J6
U 1 1 6071DF53
P 6925 4950
F 0 "J6" H 6850 5275 50  0000 L CNN
F 1 "BAT_B2B-PH" H 6675 5150 50  0000 L CNN
F 2 "Connector_JST:JST_PH_B2B-PH-SM4-TB_1x02-1MP_P2.00mm_Vertical" H 6925 4950 50  0001 L BNN
F 3 "" H 6925 4950 50  0001 L BNN
F 4 "JST" H 6925 4950 50  0001 L BNN "MANUFACTURER"
	1    6925 4950
	1    0    0    -1  
$EndComp
Text Notes 4975 7325 0    50   ~ 0
a Current-limiting R connected between NPN base C and the motor cathode (-):\n4.2 to 3.7V (LiPo) = (80mA/1000) * (25 ohms + R)\nR = ?\nW = IV = (80mA/1000) * 0.7 to 1.2V = 0.056 or 0.096W\n\nVibration Motors Rated C, R and V => Current-limiting R/I_motor:\nD 5mm: max 80mA, 5Mohms, 3V\n=> 0ohm/80mA, 10ohms/60mA, > 10ohms/stop vibrating\n\nD 6mm: max 100mA, 25ohms, 3V\n\nD 10mm: max 80mA, 33 to 75ohms, 3V\n=> 0ohm/80mA, 10ohms/60mA, 20ohms/55mA, 33ohms/46mA, 47ohms/38mA,\n68ohms/30mA, 91ohms/26mA, > 200ohms/stop vibrating\n\nmods setting (new bits/speed, depth): Roland, SRM-20\nF.Cu: 0.3mm/10mm, 0.1mm\nB.Cu: 0.4mm/10mm, 0.1mm\nF.Drill: 0.8mm/10mm, 0.6-1.8mm\nDwg: 1mm/10mm, 0.6-1.8mm
NoConn ~ 7500 4900
Text Label 7100 4100 2    50   ~ 0
3V3-O250mA
Wire Wire Line
	6475 4200 7100 4200
Wire Wire Line
	6475 4100 7100 4100
Text Label 7100 4200 2    50   ~ 0
GND
$Comp
L Connector:Conn_01x04_Female J2
U 1 1 5F82CFBE
P 6275 4200
F 0 "J2" H 6025 4525 50  0000 L CNN
F 1 "I2C_1x4" H 5900 4425 50  0000 L CNN
F 2 "Connector_PinSocket_2.54mm:PinSocket_1x04_P2.54mm_Vertical_SMD_Pin1Right" H 6275 4200 50  0001 C CNN
F 3 "~" H 6275 4200 50  0001 C CNN
	1    6275 4200
	-1   0    0    -1  
$EndComp
Wire Wire Line
	6475 4400 7100 4400
Wire Wire Line
	6475 4300 7100 4300
Text Label 7100 4400 2    50   ~ 0
IO23-SDA
Text Label 7100 4300 2    50   ~ 0
IO22-SCL
NoConn ~ 10525 4375
NoConn ~ 10525 4575
NoConn ~ 10525 4475
Text Label 9900 4275 0    50   ~ 0
IO4-A5-T2-CS
Wire Wire Line
	10525 4275 9900 4275
Text Label 9900 3975 0    50   ~ 0
IO5-SCK
Wire Wire Line
	10525 3975 9900 3975
Text Label 9900 4175 0    50   ~ 0
IO18-MOSI
Wire Wire Line
	10525 4175 9900 4175
Text Label 9900 4075 0    50   ~ 0
IO19-MISO
Wire Wire Line
	10525 4075 9900 4075
Wire Wire Line
	10525 3875 9900 3875
Text Label 9900 3875 0    50   ~ 0
GND
Wire Wire Line
	10525 3775 9900 3775
Text Label 9900 3775 0    50   ~ 0
3V3-O250mA
$Comp
L Connector:Conn_01x09_Female J3
U 1 1 6075E152
P 10725 4175
F 0 "J3" H 10425 4800 50  0000 L CNN
F 1 "micro_SD_01x09" H 10125 4700 50  0000 L CNN
F 2 "Connector_PinSocket_2.54mm:PinSocket_1x09_P2.54mm_Vertical_SMD_Pin1Right" H 10725 4175 50  0001 C CNN
F 3 "~" H 10725 4175 50  0001 C CNN
	1    10725 4175
	1    0    0    -1  
$EndComp
$Comp
L Connector:Conn_01x03_Male J7
U 1 1 607D9C6E
P 9950 5050
F 0 "J7" H 10375 5425 50  0000 C CNN
F 1 "Analog_IN_1x03" H 10425 5300 50  0000 C CNN
F 2 "Connector_PinSocket_2.54mm:PinSocket_1x03_P2.54mm_Vertical_SMD_Pin1Left" H 9950 5050 50  0001 C CNN
F 3 "~" H 9950 5050 50  0001 C CNN
	1    9950 5050
	1    0    0    -1  
$EndComp
Wire Wire Line
	10150 4950 10700 4950
Text Label 10700 5050 2    50   ~ 0
I36-A4
Wire Wire Line
	10150 5050 10700 5050
Text Label 10700 4950 2    50   ~ 0
I39-A3
Wire Wire Line
	10150 5150 10700 5150
Text Label 10700 5150 2    50   ~ 0
I34-A2
$Comp
L Transistor_BJT:MMBT3904 Q1
U 1 1 6086BD9E
P 1400 1575
F 0 "Q1" H 1725 1725 50  0000 L CNN
F 1 "MMBT3904" V 1650 1400 50  0000 L CNN
F 2 "fab:fab-SOT23" H 1600 1500 50  0001 L CIN
F 3 "https://www.fairchildsemi.com/datasheets/2N/2N3904.pdf" H 1400 1575 50  0001 L CNN
	1    1400 1575
	1    0    0    -1  
$EndComp
$Comp
L Device:C C1
U 1 1 6086E001
P 1725 825
F 0 "C1" H 1840 871 50  0000 L CNN
F 1 "2.2U" H 1840 780 50  0000 L CNN
F 2 "Capacitor_SMD:C_1206_3216Metric_Pad1.42x1.75mm_HandSolder" H 1763 675 50  0001 C CNN
F 3 "~" H 1725 825 50  0001 C CNN
	1    1725 825 
	1    0    0    -1  
$EndComp
$Comp
L Device:R R1
U 1 1 6086F268
P 1500 1225
F 0 "R1" H 1570 1271 50  0000 L CNN
F 1 "0/20R" H 1570 1180 50  0000 L CNN
F 2 "fab:R_1206" V 1430 1225 50  0001 C CNN
F 3 "~" H 1500 1225 50  0001 C CNN
	1    1500 1225
	1    0    0    -1  
$EndComp
$Comp
L Device:R R6
U 1 1 6086FC9B
P 1050 1575
F 0 "R6" V 843 1575 50  0000 C CNN
F 1 "1kR" V 934 1575 50  0000 C CNN
F 2 "fab:R_1206" V 980 1575 50  0001 C CNN
F 3 "~" H 1050 1575 50  0001 C CNN
	1    1050 1575
	0    1    1    0   
$EndComp
Wire Wire Line
	1500 975  1500 1075
Wire Wire Line
	1725 975  1500 975 
Connection ~ 1500 975 
Wire Wire Line
	900  1575 700  1575
Wire Wire Line
	1500 975  1000 975 
Text Label 675  675  0    50   ~ 0
Motor-BAT
Text Label 950  6675 0    50   ~ 0
M1_thumb1
$Comp
L Transistor_BJT:MMBT3904 Q2
U 1 1 608A5AAD
P 2600 1575
F 0 "Q2" H 2925 1600 50  0000 L CNN
F 1 "MMBT3904" V 2850 1425 50  0000 L CNN
F 2 "fab:fab-SOT23" H 2800 1500 50  0001 L CIN
F 3 "https://www.fairchildsemi.com/datasheets/2N/2N3904.pdf" H 2600 1575 50  0001 L CNN
	1    2600 1575
	1    0    0    -1  
$EndComp
$Comp
L Device:C C2
U 1 1 608A5AB9
P 2925 825
F 0 "C2" H 3040 871 50  0000 L CNN
F 1 "2.2U" H 3040 780 50  0000 L CNN
F 2 "Capacitor_SMD:C_1206_3216Metric_Pad1.42x1.75mm_HandSolder" H 2963 675 50  0001 C CNN
F 3 "~" H 2925 825 50  0001 C CNN
	1    2925 825 
	1    0    0    -1  
$EndComp
$Comp
L Device:R R2
U 1 1 608A5ABF
P 2700 1225
F 0 "R2" H 2770 1271 50  0000 L CNN
F 1 "0/20R" H 2770 1180 50  0000 L CNN
F 2 "fab:R_1206" V 2630 1225 50  0001 C CNN
F 3 "~" H 2700 1225 50  0001 C CNN
	1    2700 1225
	1    0    0    -1  
$EndComp
$Comp
L Device:R R7
U 1 1 608A5AC5
P 2250 1575
F 0 "R7" V 2043 1575 50  0000 C CNN
F 1 "1kR" V 2134 1575 50  0000 C CNN
F 2 "fab:R_1206" V 2180 1575 50  0001 C CNN
F 3 "~" H 2250 1575 50  0001 C CNN
	1    2250 1575
	0    1    1    0   
$EndComp
Wire Wire Line
	2700 975  2700 1075
Wire Wire Line
	2925 975  2700 975 
Connection ~ 2700 975 
Wire Wire Line
	2100 1575 2000 1575
Wire Wire Line
	2700 975  2200 975 
Text Label 2125 5250 0    50   ~ 0
M3_pointer1
Text Label 2000 5850 1    50   ~ 0
IO14-A6-T2
$Comp
L Transistor_BJT:MMBT3904 Q6
U 1 1 608B345F
P 1325 2875
F 0 "Q6" H 1650 3025 50  0000 L CNN
F 1 "MMBT3904" V 1575 2700 50  0000 L CNN
F 2 "fab:fab-SOT23" H 1525 2800 50  0001 L CIN
F 3 "https://www.fairchildsemi.com/datasheets/2N/2N3904.pdf" H 1325 2875 50  0001 L CNN
	1    1325 2875
	1    0    0    -1  
$EndComp
$Comp
L Device:C C6
U 1 1 608B346B
P 1650 2125
F 0 "C6" H 1765 2171 50  0000 L CNN
F 1 "2.2U" H 1765 2080 50  0000 L CNN
F 2 "Capacitor_SMD:C_1206_3216Metric_Pad1.42x1.75mm_HandSolder" H 1688 1975 50  0001 C CNN
F 3 "~" H 1650 2125 50  0001 C CNN
	1    1650 2125
	1    0    0    -1  
$EndComp
$Comp
L Device:R R11
U 1 1 608B3471
P 1425 2525
F 0 "R11" H 1495 2571 50  0000 L CNN
F 1 "0/20R" H 1495 2480 50  0000 L CNN
F 2 "fab:R_1206" V 1355 2525 50  0001 C CNN
F 3 "~" H 1425 2525 50  0001 C CNN
	1    1425 2525
	1    0    0    -1  
$EndComp
$Comp
L Device:R R16
U 1 1 608B3477
P 975 2875
F 0 "R16" V 768 2875 50  0000 C CNN
F 1 "1kR" V 859 2875 50  0000 C CNN
F 2 "fab:R_1206" V 905 2875 50  0001 C CNN
F 3 "~" H 975 2875 50  0001 C CNN
	1    975  2875
	0    1    1    0   
$EndComp
Wire Wire Line
	1650 1975 1425 1975
Wire Wire Line
	1425 2275 1425 2375
Wire Wire Line
	1650 2275 1425 2275
Connection ~ 1425 2275
Wire Wire Line
	825  2875 650  2875
Wire Wire Line
	1425 2275 925  2275
Text Label 6075 975  0    50   ~ 0
M2_thumb2
$Comp
L Transistor_BJT:MMBT3904 Q7
U 1 1 608B3485
P 2525 2875
F 0 "Q7" H 2850 2900 50  0000 L CNN
F 1 "MMBT3904" V 2775 2725 50  0000 L CNN
F 2 "fab:fab-SOT23" H 2725 2800 50  0001 L CIN
F 3 "https://www.fairchildsemi.com/datasheets/2N/2N3904.pdf" H 2525 2875 50  0001 L CNN
	1    2525 2875
	1    0    0    -1  
$EndComp
$Comp
L Device:C C7
U 1 1 608B3491
P 2850 2125
F 0 "C7" H 2965 2171 50  0000 L CNN
F 1 "2.2U" H 2965 2080 50  0000 L CNN
F 2 "Capacitor_SMD:C_1206_3216Metric_Pad1.42x1.75mm_HandSolder" H 2888 1975 50  0001 C CNN
F 3 "~" H 2850 2125 50  0001 C CNN
	1    2850 2125
	1    0    0    -1  
$EndComp
$Comp
L Device:R R12
U 1 1 608B3497
P 2625 2525
F 0 "R12" H 2695 2571 50  0000 L CNN
F 1 "0/20R" H 2695 2480 50  0000 L CNN
F 2 "fab:R_1206" V 2555 2525 50  0001 C CNN
F 3 "~" H 2625 2525 50  0001 C CNN
	1    2625 2525
	1    0    0    -1  
$EndComp
$Comp
L Device:R R17
U 1 1 608B349D
P 2175 2875
F 0 "R17" V 1968 2875 50  0000 C CNN
F 1 "1kR" V 2059 2875 50  0000 C CNN
F 2 "fab:R_1206" V 2105 2875 50  0001 C CNN
F 3 "~" H 2175 2875 50  0001 C CNN
	1    2175 2875
	0    1    1    0   
$EndComp
Wire Wire Line
	2625 2275 2625 2375
Wire Wire Line
	2850 2275 2625 2275
Connection ~ 2625 2275
Wire Wire Line
	2025 2875 1900 2875
Wire Wire Line
	2625 2275 2125 2275
Text Label 925  2275 0    50   ~ 0
M4_pointer2
Text Label 775  5850 1    50   ~ 0
IO32-A7-T1
$Comp
L Transistor_BJT:MMBT3904 Q5
U 1 1 608D7757
P 6475 1575
F 0 "Q5" H 6800 1725 50  0000 L CNN
F 1 "MMBT3904" V 6725 1400 50  0000 L CNN
F 2 "fab:fab-SOT23" H 6675 1500 50  0001 L CIN
F 3 "https://www.fairchildsemi.com/datasheets/2N/2N3904.pdf" H 6475 1575 50  0001 L CNN
	1    6475 1575
	1    0    0    -1  
$EndComp
$Comp
L Device:C C5
U 1 1 608D7763
P 6800 825
F 0 "C5" H 6915 871 50  0000 L CNN
F 1 "2.2U" H 6915 780 50  0000 L CNN
F 2 "Capacitor_SMD:C_1206_3216Metric_Pad1.42x1.75mm_HandSolder" H 6838 675 50  0001 C CNN
F 3 "~" H 6800 825 50  0001 C CNN
	1    6800 825 
	1    0    0    -1  
$EndComp
$Comp
L Device:R R5
U 1 1 608D7769
P 6575 1225
F 0 "R5" H 6645 1271 50  0000 L CNN
F 1 "0/20R" H 6645 1180 50  0000 L CNN
F 2 "fab:R_1206" V 6505 1225 50  0001 C CNN
F 3 "~" H 6575 1225 50  0001 C CNN
	1    6575 1225
	1    0    0    -1  
$EndComp
$Comp
L Device:R R10
U 1 1 608D776F
P 6125 1575
F 0 "R10" V 5918 1575 50  0000 C CNN
F 1 "1kR" V 6009 1575 50  0000 C CNN
F 2 "fab:R_1206" V 6055 1575 50  0001 C CNN
F 3 "~" H 6125 1575 50  0001 C CNN
	1    6125 1575
	0    1    1    0   
$EndComp
Wire Wire Line
	6575 975  6575 1075
Wire Wire Line
	6800 975  6575 975 
Connection ~ 6575 975 
Wire Wire Line
	5975 1575 5900 1575
Wire Wire Line
	6575 975  6075 975 
Text Label 3675 975  0    50   ~ 0
M9_little1
Text Label 700  4475 1    50   ~ 0
IO13-A12-T2
$Comp
L Transistor_BJT:MMBT3904 Q11
U 1 1 608D777D
P 1325 4475
F 0 "Q11" H 1650 4500 50  0000 L CNN
F 1 "MMBT3904" V 1575 4325 50  0000 L CNN
F 2 "fab:fab-SOT23" H 1525 4400 50  0001 L CIN
F 3 "https://www.fairchildsemi.com/datasheets/2N/2N3904.pdf" H 1325 4475 50  0001 L CNN
	1    1325 4475
	1    0    0    -1  
$EndComp
$Comp
L Device:C C11
U 1 1 608D7789
P 1650 3725
F 0 "C11" H 1765 3771 50  0000 L CNN
F 1 "2.2U" H 1765 3680 50  0000 L CNN
F 2 "Capacitor_SMD:C_1206_3216Metric_Pad1.42x1.75mm_HandSolder" H 1688 3575 50  0001 C CNN
F 3 "~" H 1650 3725 50  0001 C CNN
	1    1650 3725
	1    0    0    -1  
$EndComp
$Comp
L Device:R R21
U 1 1 608D778F
P 1425 4125
F 0 "R21" H 1495 4171 50  0000 L CNN
F 1 "0/20R" H 1495 4080 50  0000 L CNN
F 2 "fab:R_1206" V 1355 4125 50  0001 C CNN
F 3 "~" H 1425 4125 50  0001 C CNN
	1    1425 4125
	1    0    0    -1  
$EndComp
$Comp
L Device:R R24
U 1 1 608D7795
P 975 4475
F 0 "R24" V 768 4475 50  0000 C CNN
F 1 "1kR" V 859 4475 50  0000 C CNN
F 2 "fab:R_1206" V 905 4475 50  0001 C CNN
F 3 "~" H 975 4475 50  0001 C CNN
	1    975  4475
	0    1    1    0   
$EndComp
Wire Wire Line
	1650 3575 1425 3575
Wire Wire Line
	1425 3875 1425 3975
Wire Wire Line
	1650 3875 1425 3875
Connection ~ 1425 3875
Wire Wire Line
	825  4475 700  4475
Wire Wire Line
	1425 3875 800  3875
Text Label 3300 7275 1    50   ~ 0
IO17-TX
$Comp
L Transistor_BJT:MMBT3904 Q3
U 1 1 60920260
P 4075 1575
F 0 "Q3" H 4400 1725 50  0000 L CNN
F 1 "MMBT3904" V 4325 1400 50  0000 L CNN
F 2 "fab:fab-SOT23" H 4275 1500 50  0001 L CIN
F 3 "https://www.fairchildsemi.com/datasheets/2N/2N3904.pdf" H 4075 1575 50  0001 L CNN
	1    4075 1575
	1    0    0    -1  
$EndComp
$Comp
L Device:C C3
U 1 1 6092026C
P 4400 825
F 0 "C3" H 4515 871 50  0000 L CNN
F 1 "2.2U" H 4515 780 50  0000 L CNN
F 2 "Capacitor_SMD:C_1206_3216Metric_Pad1.42x1.75mm_HandSolder" H 4438 675 50  0001 C CNN
F 3 "~" H 4400 825 50  0001 C CNN
	1    4400 825 
	1    0    0    -1  
$EndComp
$Comp
L Device:R R3
U 1 1 60920272
P 4175 1225
F 0 "R3" H 4245 1271 50  0000 L CNN
F 1 "0/20R" H 4245 1180 50  0000 L CNN
F 2 "fab:R_1206" V 4105 1225 50  0001 C CNN
F 3 "~" H 4175 1225 50  0001 C CNN
	1    4175 1225
	1    0    0    -1  
$EndComp
$Comp
L Device:R R8
U 1 1 60920278
P 3725 1575
F 0 "R8" V 3518 1575 50  0000 C CNN
F 1 "1kR" V 3609 1575 50  0000 C CNN
F 2 "fab:R_1206" V 3655 1575 50  0001 C CNN
F 3 "~" H 3725 1575 50  0001 C CNN
	1    3725 1575
	0    1    1    0   
$EndComp
Wire Wire Line
	4175 975  4175 1075
Wire Wire Line
	4400 975  4175 975 
Connection ~ 4175 975 
Wire Wire Line
	3575 1575 3425 1575
Wire Wire Line
	4175 975  3675 975 
Text Label 1000 975  0    50   ~ 0
M5_middle1
Text Label 3275 4475 1    50   ~ 0
IO15-A8-T2
$Comp
L Transistor_BJT:MMBT3904 Q4
U 1 1 60920286
P 5275 1575
F 0 "Q4" H 5600 1725 50  0000 L CNN
F 1 "MMBT3904" V 5525 1400 50  0000 L CNN
F 2 "fab:fab-SOT23" H 5475 1500 50  0001 L CIN
F 3 "https://www.fairchildsemi.com/datasheets/2N/2N3904.pdf" H 5275 1575 50  0001 L CNN
	1    5275 1575
	1    0    0    -1  
$EndComp
$Comp
L Device:C C4
U 1 1 60920292
P 5600 825
F 0 "C4" H 5715 871 50  0000 L CNN
F 1 "2.2U" H 5715 780 50  0000 L CNN
F 2 "Capacitor_SMD:C_1206_3216Metric_Pad1.42x1.75mm_HandSolder" H 5638 675 50  0001 C CNN
F 3 "~" H 5600 825 50  0001 C CNN
	1    5600 825 
	1    0    0    -1  
$EndComp
$Comp
L Device:R R4
U 1 1 60920298
P 5375 1225
F 0 "R4" H 5445 1271 50  0000 L CNN
F 1 "0/20R" H 5445 1180 50  0000 L CNN
F 2 "fab:R_1206" V 5305 1225 50  0001 C CNN
F 3 "~" H 5375 1225 50  0001 C CNN
	1    5375 1225
	1    0    0    -1  
$EndComp
$Comp
L Device:R R9
U 1 1 6092029E
P 4925 1575
F 0 "R9" V 4718 1575 50  0000 C CNN
F 1 "1kR" V 4809 1575 50  0000 C CNN
F 2 "fab:R_1206" V 4855 1575 50  0001 C CNN
F 3 "~" H 4925 1575 50  0001 C CNN
	1    4925 1575
	0    1    1    0   
$EndComp
Wire Wire Line
	5375 975  5375 1075
Wire Wire Line
	5600 975  5375 975 
Connection ~ 5375 975 
Wire Wire Line
	4775 1575 4675 1575
Wire Wire Line
	5375 975  4825 975 
Text Label 2200 975  0    50   ~ 0
M7_ring1
Text Label 700  1575 1    50   ~ 0
IO27-A10-T2
$Comp
L Transistor_BJT:MMBT3904 Q8
U 1 1 609202AC
P 4000 2875
F 0 "Q8" H 4325 3025 50  0000 L CNN
F 1 "MMBT3904" V 4250 2700 50  0000 L CNN
F 2 "fab:fab-SOT23" H 4200 2800 50  0001 L CIN
F 3 "https://www.fairchildsemi.com/datasheets/2N/2N3904.pdf" H 4000 2875 50  0001 L CNN
	1    4000 2875
	1    0    0    -1  
$EndComp
$Comp
L Device:C C8
U 1 1 609202B8
P 4325 2125
F 0 "C8" H 4440 2171 50  0000 L CNN
F 1 "2.2U" H 4440 2080 50  0000 L CNN
F 2 "Capacitor_SMD:C_1206_3216Metric_Pad1.42x1.75mm_HandSolder" H 4363 1975 50  0001 C CNN
F 3 "~" H 4325 2125 50  0001 C CNN
	1    4325 2125
	1    0    0    -1  
$EndComp
$Comp
L Device:R R13
U 1 1 609202BE
P 4100 2525
F 0 "R13" H 4170 2571 50  0000 L CNN
F 1 "0/20R" H 4170 2480 50  0000 L CNN
F 2 "fab:R_1206" V 4030 2525 50  0001 C CNN
F 3 "~" H 4100 2525 50  0001 C CNN
	1    4100 2525
	1    0    0    -1  
$EndComp
$Comp
L Device:R R18
U 1 1 609202C4
P 3650 2875
F 0 "R18" V 3443 2875 50  0000 C CNN
F 1 "1kR" V 3534 2875 50  0000 C CNN
F 2 "fab:R_1206" V 3580 2875 50  0001 C CNN
F 3 "~" H 3650 2875 50  0001 C CNN
	1    3650 2875
	0    1    1    0   
$EndComp
Wire Wire Line
	4100 2275 4100 2375
Wire Wire Line
	4325 2275 4100 2275
Connection ~ 4100 2275
Wire Wire Line
	3500 2875 3375 2875
Wire Wire Line
	4100 2275 3500 2275
Text Label 2075 3875 0    50   ~ 0
M6_middle2
Text Label 1975 4475 1    50   ~ 0
IO33-A9-T1
$Comp
L Transistor_BJT:MMBT3904 Q9
U 1 1 609202D2
P 5200 2875
F 0 "Q9" H 5525 2900 50  0000 L CNN
F 1 "MMBT3904" V 5450 2725 50  0000 L CNN
F 2 "fab:fab-SOT23" H 5400 2800 50  0001 L CIN
F 3 "https://www.fairchildsemi.com/datasheets/2N/2N3904.pdf" H 5200 2875 50  0001 L CNN
	1    5200 2875
	1    0    0    -1  
$EndComp
$Comp
L Device:C C9
U 1 1 609202DE
P 5525 2125
F 0 "C9" H 5640 2171 50  0000 L CNN
F 1 "2.2U" H 5640 2080 50  0000 L CNN
F 2 "Capacitor_SMD:C_1206_3216Metric_Pad1.42x1.75mm_HandSolder" H 5563 1975 50  0001 C CNN
F 3 "~" H 5525 2125 50  0001 C CNN
	1    5525 2125
	1    0    0    -1  
$EndComp
$Comp
L Device:R R14
U 1 1 609202E4
P 5300 2525
F 0 "R14" H 5370 2571 50  0000 L CNN
F 1 "0/20R" H 5370 2480 50  0000 L CNN
F 2 "fab:R_1206" V 5230 2525 50  0001 C CNN
F 3 "~" H 5300 2525 50  0001 C CNN
	1    5300 2525
	1    0    0    -1  
$EndComp
$Comp
L Device:R R19
U 1 1 609202EA
P 4850 2875
F 0 "R19" V 4643 2875 50  0000 C CNN
F 1 "1kR" V 4734 2875 50  0000 C CNN
F 2 "fab:R_1206" V 4780 2875 50  0001 C CNN
F 3 "~" H 4850 2875 50  0001 C CNN
	1    4850 2875
	0    1    1    0   
$EndComp
Wire Wire Line
	5300 2275 5300 2375
Wire Wire Line
	5525 2275 5300 2275
Connection ~ 5300 2275
Wire Wire Line
	4700 2875 4625 2875
Wire Wire Line
	5300 2275 4750 2275
Text Label 800  3875 0    50   ~ 0
M8_ring2
Text Label 650  2875 1    50   ~ 0
IO12-A11
$Comp
L Transistor_BJT:MMBT3904 Q12
U 1 1 609202F8
P 2575 4475
F 0 "Q12" H 2900 4625 50  0000 L CNN
F 1 "MMBT3904" V 2825 4300 50  0000 L CNN
F 2 "fab:fab-SOT23" H 2775 4400 50  0001 L CIN
F 3 "https://www.fairchildsemi.com/datasheets/2N/2N3904.pdf" H 2575 4475 50  0001 L CNN
	1    2575 4475
	1    0    0    -1  
$EndComp
$Comp
L Device:C C12
U 1 1 60920304
P 2900 3725
F 0 "C12" H 3015 3771 50  0000 L CNN
F 1 "2.2U" H 3015 3680 50  0000 L CNN
F 2 "Capacitor_SMD:C_1206_3216Metric_Pad1.42x1.75mm_HandSolder" H 2938 3575 50  0001 C CNN
F 3 "~" H 2900 3725 50  0001 C CNN
	1    2900 3725
	1    0    0    -1  
$EndComp
$Comp
L Device:R R22
U 1 1 6092030A
P 2675 4125
F 0 "R22" H 2745 4171 50  0000 L CNN
F 1 "0/20R" H 2745 4080 50  0000 L CNN
F 2 "fab:R_1206" V 2605 4125 50  0001 C CNN
F 3 "~" H 2675 4125 50  0001 C CNN
	1    2675 4125
	1    0    0    -1  
$EndComp
$Comp
L Device:R R25
U 1 1 60920310
P 2225 4475
F 0 "R25" V 2018 4475 50  0000 C CNN
F 1 "1kR" V 2109 4475 50  0000 C CNN
F 2 "fab:R_1206" V 2155 4475 50  0001 C CNN
F 3 "~" H 2225 4475 50  0001 C CNN
	1    2225 4475
	0    1    1    0   
$EndComp
Wire Wire Line
	2675 3875 2675 3975
Wire Wire Line
	2900 3875 2675 3875
Connection ~ 2675 3875
Wire Wire Line
	2075 4475 1975 4475
Wire Wire Line
	2675 3875 2075 3875
Text Label 3375 2875 1    50   ~ 0
IO16-RX
$Comp
L Transistor_BJT:MMBT3904 Q13
U 1 1 6092031E
P 3850 4475
F 0 "Q13" H 4175 4500 50  0000 L CNN
F 1 "MMBT3904" V 4100 4300 50  0000 L CNN
F 2 "fab:fab-SOT23" H 4050 4400 50  0001 L CIN
F 3 "https://www.fairchildsemi.com/datasheets/2N/2N3904.pdf" H 3850 4475 50  0001 L CNN
	1    3850 4475
	1    0    0    -1  
$EndComp
$Comp
L Device:C C13
U 1 1 6092032A
P 4175 3725
F 0 "C13" H 4290 3771 50  0000 L CNN
F 1 "2.2U" H 4290 3680 50  0000 L CNN
F 2 "Capacitor_SMD:C_1206_3216Metric_Pad1.42x1.75mm_HandSolder" H 4213 3575 50  0001 C CNN
F 3 "~" H 4175 3725 50  0001 C CNN
	1    4175 3725
	1    0    0    -1  
$EndComp
$Comp
L Device:R R23
U 1 1 60920330
P 3950 4125
F 0 "R23" H 4020 4171 50  0000 L CNN
F 1 "0/20R" H 4020 4080 50  0000 L CNN
F 2 "fab:R_1206" V 3880 4125 50  0001 C CNN
F 3 "~" H 3950 4125 50  0001 C CNN
	1    3950 4125
	1    0    0    -1  
$EndComp
$Comp
L Device:R R26
U 1 1 60920336
P 3500 4475
F 0 "R26" V 3293 4475 50  0000 C CNN
F 1 "1kR" V 3384 4475 50  0000 C CNN
F 2 "fab:R_1206" V 3430 4475 50  0001 C CNN
F 3 "~" H 3500 4475 50  0001 C CNN
	1    3500 4475
	0    1    1    0   
$EndComp
Wire Wire Line
	3950 3875 3950 3975
Wire Wire Line
	4175 3875 3950 3875
Connection ~ 3950 3875
Wire Wire Line
	3350 4475 3275 4475
Wire Wire Line
	3950 3875 3325 3875
Text Label 5875 2875 1    50   ~ 0
IO19-MISO
$Comp
L Transistor_BJT:MMBT3904 Q14
U 1 1 60920344
P 1400 5850
F 0 "Q14" H 1725 6000 50  0000 L CNN
F 1 "MMBT3904" V 1650 5675 50  0000 L CNN
F 2 "fab:fab-SOT23" H 1600 5775 50  0001 L CIN
F 3 "https://www.fairchildsemi.com/datasheets/2N/2N3904.pdf" H 1400 5850 50  0001 L CNN
	1    1400 5850
	1    0    0    -1  
$EndComp
$Comp
L Device:C C14
U 1 1 60920350
P 1725 5100
F 0 "C14" H 1840 5146 50  0000 L CNN
F 1 "2.2U" H 1840 5055 50  0000 L CNN
F 2 "Capacitor_SMD:C_1206_3216Metric_Pad1.42x1.75mm_HandSolder" H 1763 4950 50  0001 C CNN
F 3 "~" H 1725 5100 50  0001 C CNN
	1    1725 5100
	1    0    0    -1  
$EndComp
$Comp
L Device:R R27
U 1 1 60920356
P 1500 5500
F 0 "R27" H 1570 5546 50  0000 L CNN
F 1 "0/20R" H 1570 5455 50  0000 L CNN
F 2 "fab:R_1206" V 1430 5500 50  0001 C CNN
F 3 "~" H 1500 5500 50  0001 C CNN
	1    1500 5500
	1    0    0    -1  
$EndComp
$Comp
L Device:R R29
U 1 1 6092035C
P 1050 5850
F 0 "R29" V 843 5850 50  0000 C CNN
F 1 "1kR" V 934 5850 50  0000 C CNN
F 2 "fab:R_1206" V 980 5850 50  0001 C CNN
F 3 "~" H 1050 5850 50  0001 C CNN
	1    1050 5850
	0    1    1    0   
$EndComp
Wire Wire Line
	1725 4950 1500 4950
Wire Wire Line
	1500 5250 1500 5350
Wire Wire Line
	1725 5250 1500 5250
Connection ~ 1500 5250
Wire Wire Line
	900  5850 775  5850
Wire Wire Line
	1500 5250 900  5250
Text Label 4675 1575 1    50   ~ 0
IO18-MOSI
$Comp
L Transistor_BJT:MMBT3904 Q15
U 1 1 6092036A
P 2600 5850
F 0 "Q15" H 2925 5875 50  0000 L CNN
F 1 "MMBT3904" V 2850 5700 50  0000 L CNN
F 2 "fab:fab-SOT23" H 2800 5775 50  0001 L CIN
F 3 "https://www.fairchildsemi.com/datasheets/2N/2N3904.pdf" H 2600 5850 50  0001 L CNN
	1    2600 5850
	1    0    0    -1  
$EndComp
$Comp
L Device:C C15
U 1 1 60920376
P 2925 5100
F 0 "C15" H 3040 5146 50  0000 L CNN
F 1 "2.2U" H 3040 5055 50  0000 L CNN
F 2 "Capacitor_SMD:C_1206_3216Metric_Pad1.42x1.75mm_HandSolder" H 2963 4950 50  0001 C CNN
F 3 "~" H 2925 5100 50  0001 C CNN
	1    2925 5100
	1    0    0    -1  
$EndComp
$Comp
L Device:R R28
U 1 1 6092037C
P 2700 5500
F 0 "R28" H 2770 5546 50  0000 L CNN
F 1 "0/20R" H 2770 5455 50  0000 L CNN
F 2 "fab:R_1206" V 2630 5500 50  0001 C CNN
F 3 "~" H 2700 5500 50  0001 C CNN
	1    2700 5500
	1    0    0    -1  
$EndComp
$Comp
L Device:R R30
U 1 1 60920382
P 2250 5850
F 0 "R30" V 2043 5850 50  0000 C CNN
F 1 "1kR" V 2134 5850 50  0000 C CNN
F 2 "fab:R_1206" V 2180 5850 50  0001 C CNN
F 3 "~" H 2250 5850 50  0001 C CNN
	1    2250 5850
	0    1    1    0   
$EndComp
Wire Wire Line
	2700 5250 2700 5350
Wire Wire Line
	2925 5250 2700 5250
Connection ~ 2700 5250
Wire Wire Line
	2100 5850 2000 5850
Wire Wire Line
	2700 5250 2125 5250
Text Label 3425 1575 1    50   ~ 0
IO5-SCK
$Comp
L Transistor_BJT:MMBT3904 Q16
U 1 1 6092F507
P 1350 7275
F 0 "Q16" H 1675 7425 50  0000 L CNN
F 1 "MMBT3904" V 1600 7100 50  0000 L CNN
F 2 "fab:fab-SOT23" H 1550 7200 50  0001 L CIN
F 3 "https://www.fairchildsemi.com/datasheets/2N/2N3904.pdf" H 1350 7275 50  0001 L CNN
	1    1350 7275
	1    0    0    -1  
$EndComp
$Comp
L Device:C C16
U 1 1 6092F513
P 1675 6525
F 0 "C16" H 1790 6571 50  0000 L CNN
F 1 "2.2U" H 1790 6480 50  0000 L CNN
F 2 "Capacitor_SMD:C_1206_3216Metric_Pad1.42x1.75mm_HandSolder" H 1713 6375 50  0001 C CNN
F 3 "~" H 1675 6525 50  0001 C CNN
	1    1675 6525
	1    0    0    -1  
$EndComp
$Comp
L Device:R R31
U 1 1 6092F519
P 1450 6925
F 0 "R31" H 1520 6971 50  0000 L CNN
F 1 "0/20R" H 1520 6880 50  0000 L CNN
F 2 "fab:R_1206" V 1380 6925 50  0001 C CNN
F 3 "~" H 1450 6925 50  0001 C CNN
	1    1450 6925
	1    0    0    -1  
$EndComp
$Comp
L Device:R R34
U 1 1 6092F51F
P 1000 7275
F 0 "R34" V 793 7275 50  0000 C CNN
F 1 "1kR" V 884 7275 50  0000 C CNN
F 2 "fab:R_1206" V 930 7275 50  0001 C CNN
F 3 "~" H 1000 7275 50  0001 C CNN
	1    1000 7275
	0    1    1    0   
$EndComp
Wire Wire Line
	1675 6375 1450 6375
Wire Wire Line
	1450 6675 1450 6775
Wire Wire Line
	1675 6675 1450 6675
Connection ~ 1450 6675
Wire Wire Line
	850  7275 750  7275
Wire Wire Line
	1450 6675 950  6675
Text Label 900  5250 0    50   ~ 0
M16_back1
Text Label 4625 2875 1    50   ~ 0
IO4-A5-T2-CS
$Comp
L Transistor_BJT:MMBT3904 Q17
U 1 1 6092F52D
P 2550 7275
F 0 "Q17" H 2875 7300 50  0000 L CNN
F 1 "MMBT3904" V 2800 7100 50  0000 L CNN
F 2 "fab:fab-SOT23" H 2750 7200 50  0001 L CIN
F 3 "https://www.fairchildsemi.com/datasheets/2N/2N3904.pdf" H 2550 7275 50  0001 L CNN
	1    2550 7275
	1    0    0    -1  
$EndComp
$Comp
L Device:C C17
U 1 1 6092F539
P 2875 6525
F 0 "C17" H 2990 6571 50  0000 L CNN
F 1 "2.2U" H 2990 6480 50  0000 L CNN
F 2 "Capacitor_SMD:C_1206_3216Metric_Pad1.42x1.75mm_HandSolder" H 2913 6375 50  0001 C CNN
F 3 "~" H 2875 6525 50  0001 C CNN
	1    2875 6525
	1    0    0    -1  
$EndComp
$Comp
L Device:R R32
U 1 1 6092F53F
P 2650 6925
F 0 "R32" H 2720 6971 50  0000 L CNN
F 1 "0/20R" H 2720 6880 50  0000 L CNN
F 2 "fab:R_1206" V 2580 6925 50  0001 C CNN
F 3 "~" H 2650 6925 50  0001 C CNN
	1    2650 6925
	1    0    0    -1  
$EndComp
$Comp
L Device:R R35
U 1 1 6092F545
P 2200 7275
F 0 "R35" V 1993 7275 50  0000 C CNN
F 1 "1kR" V 2084 7275 50  0000 C CNN
F 2 "fab:R_1206" V 2130 7275 50  0001 C CNN
F 3 "~" H 2200 7275 50  0001 C CNN
	1    2200 7275
	0    1    1    0   
$EndComp
Wire Wire Line
	2650 6675 2650 6775
Wire Wire Line
	2875 6675 2650 6675
Connection ~ 2650 6675
Wire Wire Line
	2050 7275 1975 7275
Wire Wire Line
	2650 6675 2075 6675
Text Label 2125 2275 0    50   ~ 0
M17_back2
Text Label 2000 1575 1    50   ~ 0
IO26-A0
Wire Wire Line
	4000 6675 3400 6675
Wire Wire Line
	3400 7275 3300 7275
Connection ~ 4000 6675
Wire Wire Line
	4225 6675 4000 6675
Wire Wire Line
	4000 6675 4000 6775
$Comp
L Device:R R36
U 1 1 608D77E1
P 3550 7275
F 0 "R36" V 3343 7275 50  0000 C CNN
F 1 "1kR" V 3434 7275 50  0000 C CNN
F 2 "fab:R_1206" V 3480 7275 50  0001 C CNN
F 3 "~" H 3550 7275 50  0001 C CNN
	1    3550 7275
	0    1    1    0   
$EndComp
$Comp
L Device:R R33
U 1 1 608D77DB
P 4000 6925
F 0 "R33" H 4070 6971 50  0000 L CNN
F 1 "0/20R" H 4070 6880 50  0000 L CNN
F 2 "fab:R_1206" V 3930 6925 50  0001 C CNN
F 3 "~" H 4000 6925 50  0001 C CNN
	1    4000 6925
	1    0    0    -1  
$EndComp
$Comp
L Device:C C18
U 1 1 608D77D5
P 4225 6525
F 0 "C18" H 4340 6571 50  0000 L CNN
F 1 "2.2U" H 4340 6480 50  0000 L CNN
F 2 "Capacitor_SMD:C_1206_3216Metric_Pad1.42x1.75mm_HandSolder" H 4263 6375 50  0001 C CNN
F 3 "~" H 4225 6525 50  0001 C CNN
	1    4225 6525
	1    0    0    -1  
$EndComp
$Comp
L Transistor_BJT:MMBT3904 Q18
U 1 1 608D77C9
P 3900 7275
F 0 "Q18" H 4225 7300 50  0000 L CNN
F 1 "MMBT3904" V 4150 7100 50  0000 L CNN
F 2 "fab:fab-SOT23" H 4100 7200 50  0001 L CIN
F 3 "https://www.fairchildsemi.com/datasheets/2N/2N3904.pdf" H 3900 7275 50  0001 L CNN
	1    3900 7275
	1    0    0    -1  
$EndComp
Text Label 1975 7275 1    50   ~ 0
IO21
Wire Wire Line
	6550 2275 6050 2275
Wire Wire Line
	5950 2875 5875 2875
Connection ~ 6550 2275
Wire Wire Line
	6775 2275 6550 2275
Wire Wire Line
	6550 2275 6550 2375
$Comp
L Device:R R20
U 1 1 608D77BB
P 6100 2875
F 0 "R20" V 5893 2875 50  0000 C CNN
F 1 "1kR" V 5984 2875 50  0000 C CNN
F 2 "fab:R_1206" V 6030 2875 50  0001 C CNN
F 3 "~" H 6100 2875 50  0001 C CNN
	1    6100 2875
	0    1    1    0   
$EndComp
$Comp
L Device:R R15
U 1 1 608D77B5
P 6550 2525
F 0 "R15" H 6620 2571 50  0000 L CNN
F 1 "0/20R" H 6620 2480 50  0000 L CNN
F 2 "fab:R_1206" V 6480 2525 50  0001 C CNN
F 3 "~" H 6550 2525 50  0001 C CNN
	1    6550 2525
	1    0    0    -1  
$EndComp
$Comp
L Device:C C10
U 1 1 608D77AF
P 6775 2125
F 0 "C10" H 6890 2171 50  0000 L CNN
F 1 "2.2U" H 6890 2080 50  0000 L CNN
F 2 "Capacitor_SMD:C_1206_3216Metric_Pad1.42x1.75mm_HandSolder" H 6813 1975 50  0001 C CNN
F 3 "~" H 6775 2125 50  0001 C CNN
	1    6775 2125
	1    0    0    -1  
$EndComp
$Comp
L Transistor_BJT:MMBT3904 Q10
U 1 1 608D77A3
P 6450 2875
F 0 "Q10" H 6775 3025 50  0000 L CNN
F 1 "MMBT3904" V 6700 2700 50  0000 L CNN
F 2 "fab:fab-SOT23" H 6650 2800 50  0001 L CIN
F 3 "https://www.fairchildsemi.com/datasheets/2N/2N3904.pdf" H 6450 2875 50  0001 L CNN
	1    6450 2875
	1    0    0    -1  
$EndComp
Wire Wire Line
	1500 1775 2700 1775
Wire Wire Line
	2700 1775 4175 1775
Connection ~ 2700 1775
Wire Wire Line
	4175 1775 5375 1775
Connection ~ 4175 1775
Wire Wire Line
	5375 1775 6575 1775
Connection ~ 5375 1775
Wire Wire Line
	6800 675  7125 675 
Wire Wire Line
	7125 675  7125 1975
Wire Wire Line
	7125 1975 6775 1975
Wire Wire Line
	1425 3075 2625 3075
Wire Wire Line
	2625 3075 4100 3075
Connection ~ 2625 3075
Wire Wire Line
	4100 3075 5300 3075
Connection ~ 4100 3075
Wire Wire Line
	5300 3075 6550 3075
Connection ~ 5300 3075
$Comp
L power:GND #PWR02
U 1 1 60BA0A35
P 1425 3075
F 0 "#PWR02" H 1425 2825 50  0001 C CNN
F 1 "GND" H 1430 2902 50  0000 C CNN
F 2 "" H 1425 3075 50  0001 C CNN
F 3 "" H 1425 3075 50  0001 C CNN
	1    1425 3075
	1    0    0    -1  
$EndComp
$Comp
L power:GND #PWR01
U 1 1 60BA2127
P 1500 1775
F 0 "#PWR01" H 1500 1525 50  0001 C CNN
F 1 "GND" H 1625 1700 50  0000 C CNN
F 2 "" H 1500 1775 50  0001 C CNN
F 3 "" H 1500 1775 50  0001 C CNN
	1    1500 1775
	1    0    0    -1  
$EndComp
Connection ~ 1500 1775
Connection ~ 1425 3075
Wire Wire Line
	1500 6050 2700 6050
Wire Wire Line
	1450 7475 2650 7475
Wire Wire Line
	2650 7475 4000 7475
Connection ~ 2650 7475
Wire Wire Line
	1425 4675 2675 4675
Wire Wire Line
	2675 4675 3950 4675
Connection ~ 2675 4675
Wire Wire Line
	7125 1975 7125 3575
Wire Wire Line
	7125 3575 4675 3575
Connection ~ 7125 1975
Wire Wire Line
	4675 4950 2925 4950
Connection ~ 4675 3575
Wire Wire Line
	4675 3575 4175 3575
Wire Wire Line
	4225 6375 4675 6375
Wire Wire Line
	4675 3575 4675 4950
Connection ~ 4675 4950
Wire Wire Line
	4675 4950 4675 6375
$Comp
L power:GND #PWR03
U 1 1 60CD66D5
P 1425 4675
F 0 "#PWR03" H 1425 4425 50  0001 C CNN
F 1 "GND" H 1430 4502 50  0000 C CNN
F 2 "" H 1425 4675 50  0001 C CNN
F 3 "" H 1425 4675 50  0001 C CNN
	1    1425 4675
	1    0    0    -1  
$EndComp
Connection ~ 1425 4675
$Comp
L power:GND #PWR04
U 1 1 60CD7861
P 1500 6050
F 0 "#PWR04" H 1500 5800 50  0001 C CNN
F 1 "GND" H 1505 5877 50  0000 C CNN
F 2 "" H 1500 6050 50  0001 C CNN
F 3 "" H 1500 6050 50  0001 C CNN
	1    1500 6050
	1    0    0    -1  
$EndComp
Connection ~ 1500 6050
$Comp
L power:GND #PWR05
U 1 1 60CD85EC
P 1450 7550
F 0 "#PWR05" H 1450 7300 50  0001 C CNN
F 1 "GND" H 1455 7377 50  0000 C CNN
F 2 "" H 1450 7550 50  0001 C CNN
F 3 "" H 1450 7550 50  0001 C CNN
	1    1450 7550
	1    0    0    -1  
$EndComp
Connection ~ 1450 7475
Text Label 7500 4000 0    50   ~ 0
IO23-SDA
Text Label 5900 1575 1    50   ~ 0
IO22-SCL
Wire Wire Line
	1450 7475 1450 7550
$Comp
L power:PWR_FLAG #FLG01
U 1 1 61134951
P 6575 4825
F 0 "#FLG01" H 6575 4900 50  0001 C CNN
F 1 "PWR_FLAG" H 6575 4998 50  0000 C CNN
F 2 "" H 6575 4825 50  0001 C CNN
F 3 "~" H 6575 4825 50  0001 C CNN
	1    6575 4825
	1    0    0    -1  
$EndComp
Wire Wire Line
	6575 5050 6200 5050
$Comp
L power:PWR_FLAG #FLG02
U 1 1 611358D3
P 6575 5175
F 0 "#FLG02" H 6575 5250 50  0001 C CNN
F 1 "PWR_FLAG" H 6575 5348 50  0000 C CNN
F 2 "" H 6575 5175 50  0001 C CNN
F 3 "~" H 6575 5175 50  0001 C CNN
	1    6575 5175
	-1   0    0    1   
$EndComp
Wire Wire Line
	6575 4825 6575 4950
Wire Wire Line
	6200 4950 6575 4950
Wire Wire Line
	6575 5175 6575 5050
Wire Wire Line
	6575 5050 6725 5050
Connection ~ 1725 675 
Connection ~ 2925 675 
Connection ~ 4400 675 
Wire Wire Line
	5600 675  5375 675 
Connection ~ 5600 675 
Connection ~ 6800 675 
Wire Wire Line
	6775 1975 6550 1975
Connection ~ 6775 1975
Wire Wire Line
	5525 1975 5300 1975
Connection ~ 5525 1975
Wire Wire Line
	4325 1975 4100 1975
Connection ~ 4325 1975
Connection ~ 2850 1975
Connection ~ 1650 1975
Connection ~ 1650 3575
Connection ~ 2900 3575
Connection ~ 4175 3575
Connection ~ 1725 4950
Connection ~ 2925 4950
Connection ~ 1675 6375
Connection ~ 2875 6375
Connection ~ 4225 6375
$Comp
L Connector:Conn_01x02_Male J8
U 1 1 613C9C8B
P 7525 5425
F 0 "J8" H 7625 5625 50  0000 C CNN
F 1 "Shunt_Jumper" H 7625 5550 50  0000 C CNN
F 2 "Connector_PinHeader_2.54mm:PinHeader_2x01_P2.54mm_Vertical_SMD" H 7525 5425 50  0001 C CNN
F 3 "~" H 7525 5425 50  0001 C CNN
	1    7525 5425
	1    0    0    -1  
$EndComp
Wire Wire Line
	7725 5425 8300 5425
Text Label 8300 5425 2    50   ~ 0
ESP32-BAT
Text Label 8300 5525 2    50   ~ 0
Motor-BAT
Wire Wire Line
	8300 5525 7725 5525
$Comp
L Device:D D1
U 1 1 6141637D
P 1500 825
F 0 "D1" V 1454 904 50  0000 L CNN
F 1 "D" V 1545 904 50  0000 L CNN
F 2 "Diode_SMD:D_SMA_Handsoldering" H 1500 825 50  0001 C CNN
F 3 "~" H 1500 825 50  0001 C CNN
	1    1500 825 
	0    1    1    0   
$EndComp
Connection ~ 1500 675 
Wire Wire Line
	1500 675  1725 675 
$Comp
L Device:D D2
U 1 1 6141A053
P 2700 825
F 0 "D2" V 2654 904 50  0000 L CNN
F 1 "D" V 2745 904 50  0000 L CNN
F 2 "Diode_SMD:D_SMA_Handsoldering" H 2700 825 50  0001 C CNN
F 3 "~" H 2700 825 50  0001 C CNN
	1    2700 825 
	0    1    1    0   
$EndComp
Connection ~ 2700 675 
Wire Wire Line
	2700 675  2925 675 
$Comp
L Device:D D3
U 1 1 6141B4E4
P 4175 825
F 0 "D3" V 4129 904 50  0000 L CNN
F 1 "D" V 4220 904 50  0000 L CNN
F 2 "Diode_SMD:D_SMA_Handsoldering" H 4175 825 50  0001 C CNN
F 3 "~" H 4175 825 50  0001 C CNN
	1    4175 825 
	0    1    1    0   
$EndComp
Connection ~ 4175 675 
Wire Wire Line
	4175 675  4400 675 
Connection ~ 5375 675 
Connection ~ 6575 675 
Wire Wire Line
	6575 675  6800 675 
$Comp
L Device:D D10
U 1 1 6141EF32
P 6550 2125
F 0 "D10" V 6504 2204 50  0000 L CNN
F 1 "D" V 6595 2204 50  0000 L CNN
F 2 "Diode_SMD:D_SMA_Handsoldering" H 6550 2125 50  0001 C CNN
F 3 "~" H 6550 2125 50  0001 C CNN
	1    6550 2125
	0    1    1    0   
$EndComp
Connection ~ 6550 1975
$Comp
L Device:D D9
U 1 1 6141FECD
P 5300 2125
F 0 "D9" V 5254 2204 50  0000 L CNN
F 1 "D" V 5345 2204 50  0000 L CNN
F 2 "Diode_SMD:D_SMA_Handsoldering" H 5300 2125 50  0001 C CNN
F 3 "~" H 5300 2125 50  0001 C CNN
	1    5300 2125
	0    1    1    0   
$EndComp
Connection ~ 5300 1975
$Comp
L Device:D D8
U 1 1 61421151
P 4100 2125
F 0 "D8" V 4054 2204 50  0000 L CNN
F 1 "D" V 4145 2204 50  0000 L CNN
F 2 "Diode_SMD:D_SMA_Handsoldering" H 4100 2125 50  0001 C CNN
F 3 "~" H 4100 2125 50  0001 C CNN
	1    4100 2125
	0    1    1    0   
$EndComp
Connection ~ 4100 1975
$Comp
L Device:D D7
U 1 1 6142260F
P 2625 2125
F 0 "D7" V 2579 2204 50  0000 L CNN
F 1 "D" V 2670 2204 50  0000 L CNN
F 2 "Diode_SMD:D_SMA_Handsoldering" H 2625 2125 50  0001 C CNN
F 3 "~" H 2625 2125 50  0001 C CNN
	1    2625 2125
	0    1    1    0   
$EndComp
Connection ~ 2625 1975
Wire Wire Line
	2625 1975 2850 1975
$Comp
L Device:D D6
U 1 1 614239CE
P 1425 2125
F 0 "D6" V 1379 2204 50  0000 L CNN
F 1 "D" V 1470 2204 50  0000 L CNN
F 2 "Diode_SMD:D_SMA_Handsoldering" H 1425 2125 50  0001 C CNN
F 3 "~" H 1425 2125 50  0001 C CNN
	1    1425 2125
	0    1    1    0   
$EndComp
$Comp
L Device:D D11
U 1 1 61424DA1
P 1425 3725
F 0 "D11" V 1379 3804 50  0000 L CNN
F 1 "D" V 1470 3804 50  0000 L CNN
F 2 "Diode_SMD:D_SMA_Handsoldering" H 1425 3725 50  0001 C CNN
F 3 "~" H 1425 3725 50  0001 C CNN
	1    1425 3725
	0    1    1    0   
$EndComp
$Comp
L Device:D D12
U 1 1 614265C0
P 2675 3725
F 0 "D12" V 2629 3804 50  0000 L CNN
F 1 "D" V 2720 3804 50  0000 L CNN
F 2 "Diode_SMD:D_SMA_Handsoldering" H 2675 3725 50  0001 C CNN
F 3 "~" H 2675 3725 50  0001 C CNN
	1    2675 3725
	0    1    1    0   
$EndComp
Connection ~ 2675 3575
Wire Wire Line
	2675 3575 2900 3575
$Comp
L Device:D D13
U 1 1 614278A8
P 3950 3725
F 0 "D13" V 3904 3804 50  0000 L CNN
F 1 "D" V 3995 3804 50  0000 L CNN
F 2 "Diode_SMD:D_SMA_Handsoldering" H 3950 3725 50  0001 C CNN
F 3 "~" H 3950 3725 50  0001 C CNN
	1    3950 3725
	0    1    1    0   
$EndComp
Connection ~ 3950 3575
Wire Wire Line
	3950 3575 4175 3575
$Comp
L Device:D D15
U 1 1 61428CD0
P 2700 5100
F 0 "D15" V 2654 5179 50  0000 L CNN
F 1 "D" V 2745 5179 50  0000 L CNN
F 2 "Diode_SMD:D_SMA_Handsoldering" H 2700 5100 50  0001 C CNN
F 3 "~" H 2700 5100 50  0001 C CNN
	1    2700 5100
	0    1    1    0   
$EndComp
Connection ~ 2700 4950
Wire Wire Line
	2700 4950 2925 4950
$Comp
L Device:D D14
U 1 1 6142A125
P 1500 5100
F 0 "D14" V 1454 5179 50  0000 L CNN
F 1 "D" V 1545 5179 50  0000 L CNN
F 2 "Diode_SMD:D_SMA_Handsoldering" H 1500 5100 50  0001 C CNN
F 3 "~" H 1500 5100 50  0001 C CNN
	1    1500 5100
	0    1    1    0   
$EndComp
$Comp
L Device:D D16
U 1 1 6142B52A
P 1450 6525
F 0 "D16" V 1404 6604 50  0000 L CNN
F 1 "D" V 1495 6604 50  0000 L CNN
F 2 "Diode_SMD:D_SMA_Handsoldering" H 1450 6525 50  0001 C CNN
F 3 "~" H 1450 6525 50  0001 C CNN
	1    1450 6525
	0    1    1    0   
$EndComp
$Comp
L Device:D D17
U 1 1 6142C862
P 2650 6525
F 0 "D17" V 2604 6604 50  0000 L CNN
F 1 "D" V 2695 6604 50  0000 L CNN
F 2 "Diode_SMD:D_SMA_Handsoldering" H 2650 6525 50  0001 C CNN
F 3 "~" H 2650 6525 50  0001 C CNN
	1    2650 6525
	0    1    1    0   
$EndComp
Connection ~ 2650 6375
Wire Wire Line
	2650 6375 2875 6375
$Comp
L Device:D D18
U 1 1 6142DAFF
P 4000 6525
F 0 "D18" V 3954 6604 50  0000 L CNN
F 1 "D" V 4045 6604 50  0000 L CNN
F 2 "Diode_SMD:D_SMA_Handsoldering" H 4000 6525 50  0001 C CNN
F 3 "~" H 4000 6525 50  0001 C CNN
	1    4000 6525
	0    1    1    0   
$EndComp
Connection ~ 4000 6375
Wire Wire Line
	4000 6375 4225 6375
Wire Wire Line
	2875 6375 4000 6375
Wire Wire Line
	1675 6375 2650 6375
Wire Wire Line
	1725 4950 2700 4950
Wire Wire Line
	1650 3575 2675 3575
Wire Wire Line
	2900 3575 3950 3575
Wire Wire Line
	4325 1975 5300 1975
Wire Wire Line
	5525 1975 6550 1975
Wire Wire Line
	2850 1975 4100 1975
Wire Wire Line
	1650 1975 2625 1975
Wire Wire Line
	675  675  1500 675 
Wire Wire Line
	1725 675  2700 675 
Wire Wire Line
	2925 675  4175 675 
Wire Wire Line
	4400 675  5375 675 
$Comp
L Device:D D4
U 1 1 6141C650
P 5375 825
F 0 "D4" V 5329 904 50  0000 L CNN
F 1 "D" V 5420 904 50  0000 L CNN
F 2 "Diode_SMD:D_SMA_Handsoldering" H 5375 825 50  0001 C CNN
F 3 "~" H 5375 825 50  0001 C CNN
	1    5375 825 
	0    1    1    0   
$EndComp
Wire Wire Line
	5600 675  6575 675 
$Comp
L Device:D D5
U 1 1 6141D9DD
P 6575 825
F 0 "D5" V 6529 904 50  0000 L CNN
F 1 "D" V 6620 904 50  0000 L CNN
F 2 "Diode_SMD:D_SMA_Handsoldering" H 6575 825 50  0001 C CNN
F 3 "~" H 6575 825 50  0001 C CNN
	1    6575 825 
	0    1    1    0   
$EndComp
Text Label 8325 950  3    50   ~ 0
M2_thumb2
Text Label 8425 950  3    50   ~ 0
M4_pointer2
Text Label 8525 950  3    50   ~ 0
M6_middle2
Text Label 8725 950  3    50   ~ 0
M10_little2
Text Label 8625 950  3    50   ~ 0
M8_ring2
Text Label 8325 2575 1    50   ~ 0
M1_thumb1
Text Label 8425 2575 1    50   ~ 0
M3_pointer1
Text Label 8525 2575 1    50   ~ 0
M5_middle1
Text Label 8625 2575 1    50   ~ 0
M7_ring1
Text Label 8725 2575 1    50   ~ 0
M9_little1
Text Label 4825 975  0    50   ~ 0
M13_upPalm3
Text Label 3325 3875 0    50   ~ 0
M18_back3
Wire Wire Line
	8725 2025 8725 2575
Wire Wire Line
	8625 1525 8625 950 
Wire Wire Line
	8625 2025 8625 2575
Wire Wire Line
	8525 1525 8525 950 
Wire Wire Line
	8525 2025 8525 2575
Wire Wire Line
	8425 1525 8425 950 
Wire Wire Line
	8425 2025 8425 2575
Wire Wire Line
	8325 1525 8325 950 
NoConn ~ 9225 1525
Wire Wire Line
	8725 1525 8725 950 
Wire Wire Line
	8325 2025 8325 2575
$Comp
L Connector_Generic:Conn_02x10_Odd_Even J1
U 1 1 607E280B
P 8725 1825
F 0 "J1" V 8725 1025 50  0000 C CNN
F 1 "IDC_2x10" V 8800 1025 50  0000 C CNN
F 2 "custom-footprints:IDC_Header_2x10_P2.54mm_Vertical_SMD" H 8725 1825 50  0001 C CNN
F 3 "~" H 8725 1825 50  0001 C CNN
	1    8725 1825
	0    -1   -1   0   
$EndComp
Wire Wire Line
	8925 2025 8925 2575
Text Label 8825 950  3    50   ~ 0
M15_dwPalm2
Text Label 9125 950  3    50   ~ 0
M12_upPalm2
Wire Wire Line
	8825 2025 8825 2575
Text Label 8925 950  3    50   ~ 0
M17_back2
Wire Wire Line
	9025 2025 9025 2575
Text Label 9025 950  3    50   ~ 0
M14_dwPalm1
Wire Wire Line
	9125 2025 9125 2575
Wire Wire Line
	8825 1525 8825 950 
Wire Wire Line
	9125 1525 9125 950 
Wire Wire Line
	9025 1525 9025 950 
Wire Wire Line
	8925 1525 8925 950 
Text Label 9025 2575 1    50   ~ 0
M18_back3
Text Label 9125 2575 1    50   ~ 0
M11_upPalm1
Text Label 8825 2575 1    50   ~ 0
M13_upPalm3
Text Label 8925 2575 1    50   ~ 0
M16_back1
Wire Wire Line
	9225 2025 9225 2575
Text Label 9225 2575 1    50   ~ 0
Motor-BAT
Text Label 4750 2275 0    50   ~ 0
M15_dwPalm2
Text Label 6050 2275 0    50   ~ 0
M10_little2
Text Label 1900 2875 1    50   ~ 0
IO25-A1
Connection ~ 6575 5050
Connection ~ 6575 4950
Text Label 2075 6675 0    50   ~ 0
M11_upPalm1
Text Label 3500 2275 0    50   ~ 0
M14_dwPalm1
Text Label 3400 6675 0    50   ~ 0
M12_upPalm2
Text Notes 8175 825  0    50   ~ 10
// for Righ-Hand Order
$EndSCHEMATC
