%TF.GenerationSoftware,KiCad,Pcbnew,(5.1.5-0)*%
%TF.CreationDate,2021-05-02T13:23:58+03:00*%
%TF.ProjectId,KiCad-Adafruit_ESP32_LiPo_18_Vibration_with_R_C_NPN_Shield,4b694361-642d-4416-9461-66727569745f,rev?*%
%TF.SameCoordinates,Original*%
%TF.FileFunction,Profile,NP*%
%FSLAX46Y46*%
G04 Gerber Fmt 4.6, Leading zero omitted, Abs format (unit mm)*
G04 Created by KiCad (PCBNEW (5.1.5-0)) date 2021-05-02 13:23:58*
%MOMM*%
%LPD*%
G04 APERTURE LIST*
%TA.AperFunction,Profile*%
%ADD10C,0.050000*%
%TD*%
G04 APERTURE END LIST*
D10*
X142875000Y-42545000D02*
X142875000Y-42545000D01*
X136144000Y-163068000D02*
X136144000Y-40386000D01*
X192532000Y-163068000D02*
X136144000Y-163068000D01*
X192532000Y-40386000D02*
X192532000Y-163068000D01*
X136144000Y-40386000D02*
X192532000Y-40386000D01*
M02*
