%TF.GenerationSoftware,KiCad,Pcbnew,(5.1.5-0)*%
%TF.CreationDate,2021-05-02T13:23:58+03:00*%
%TF.ProjectId,KiCad-Adafruit_ESP32_LiPo_18_Vibration_with_R_C_NPN_Shield,4b694361-642d-4416-9461-66727569745f,rev?*%
%TF.SameCoordinates,Original*%
%TF.FileFunction,Copper,L2,Bot*%
%TF.FilePolarity,Positive*%
%FSLAX46Y46*%
G04 Gerber Fmt 4.6, Leading zero omitted, Abs format (unit mm)*
G04 Created by KiCad (PCBNEW (5.1.5-0)) date 2021-05-02 13:23:58*
%MOMM*%
%LPD*%
G04 APERTURE LIST*
%TA.AperFunction,Profile*%
%ADD10C,0.050000*%
%TD*%
%TA.AperFunction,ViaPad*%
%ADD11C,2.000000*%
%TD*%
%TA.AperFunction,ViaPad*%
%ADD12C,1.600000*%
%TD*%
%TA.AperFunction,Conductor*%
%ADD13C,0.400000*%
%TD*%
%TA.AperFunction,Conductor*%
%ADD14C,0.800000*%
%TD*%
%TA.AperFunction,Conductor*%
%ADD15C,0.254000*%
%TD*%
G04 APERTURE END LIST*
D10*
X142875000Y-42545000D02*
X142875000Y-42545000D01*
X136144000Y-163068000D02*
X136144000Y-40386000D01*
X192532000Y-163068000D02*
X136144000Y-163068000D01*
X192532000Y-40386000D02*
X192532000Y-163068000D01*
X136144000Y-40386000D02*
X192532000Y-40386000D01*
D11*
%TO.N,*%
%TO.C,REF\002A\002A*%
X138176000Y-144780000D03*
%TD*%
%TO.N,*%
%TO.C,REF\002A\002A*%
X138684000Y-74422000D03*
%TD*%
%TO.N,*%
%TO.C,REF\002A\002A*%
X190246000Y-42672000D03*
%TD*%
%TO.N,*%
%TO.C,REF\002A\002A*%
X138430000Y-159512000D03*
%TD*%
%TO.N,*%
%TO.C,REF\002A\002A*%
X138430000Y-42672000D03*
%TD*%
%TO.N,*%
%TO.C,REF\002A\002A*%
X190246000Y-160528000D03*
%TD*%
%TO.N,*%
%TO.C,REF\002A\002A*%
X190500000Y-131064000D03*
%TD*%
%TO.N,*%
%TO.C,REF\002A\002A*%
X189992000Y-74168000D03*
%TD*%
D12*
%TO.N,/IO22-SCL*%
X145033998Y-130302000D03*
X146304000Y-43434000D03*
%TO.N,/IO25-A1*%
X170688000Y-42418000D03*
X166116000Y-147320002D03*
%TO.N,/IO4-A5-T2-CS*%
X174752000Y-54102000D03*
X175514000Y-139446000D03*
%TO.N,/IO18-MOSI*%
X179501990Y-96774000D03*
X179323998Y-135382000D03*
%TO.N,/IO16-RX*%
X184150000Y-42672000D03*
X180216010Y-130048000D03*
%TO.N,/IO26-A0*%
X157734000Y-96774000D03*
X162306000Y-150114002D03*
%TO.N,/IO5-SCK*%
X164846000Y-134366000D03*
X165608000Y-97282000D03*
%TO.N,/IO19-MISO*%
X166115998Y-129540000D03*
X164592000Y-56388000D03*
%TO.N,/IO33-A9-T1*%
X146812000Y-132587996D03*
X146434008Y-58087994D03*
%TO.N,/IO12-A11*%
X159004000Y-42418000D03*
X154686000Y-139192000D03*
%TO.N,/IO27-A10-T2*%
X150621998Y-96774000D03*
X153285990Y-136398000D03*
%TO.N,/IO13-A12-T2*%
X159004000Y-55626000D03*
X156210000Y-142493996D03*
%TO.N,/Motor-BAT*%
X181102000Y-80772000D03*
X137668004Y-113792000D03*
X176784000Y-56134000D03*
X174244000Y-42418000D03*
X180848000Y-111252000D03*
X180848000Y-126492000D03*
X141986000Y-96520000D03*
%TO.N,GND*%
X189230000Y-52070002D03*
X151638000Y-88900004D03*
X164338000Y-65786000D03*
X139954000Y-101600000D03*
X151892000Y-51308000D03*
X176784000Y-66040000D03*
X164591996Y-51638010D03*
X187960000Y-93980000D03*
X189569979Y-102870000D03*
X146558004Y-68449990D03*
X164468010Y-86868000D03*
X177161990Y-88646000D03*
X151892000Y-65786000D03*
X165484010Y-100584000D03*
X139446000Y-52070000D03*
X178438010Y-101092000D03*
X169541990Y-116840000D03*
X188722000Y-128269992D03*
X142363990Y-112776000D03*
%TD*%
D13*
%TO.N,/IO22-SCL*%
X145033998Y-130302000D02*
X145033998Y-44704002D01*
X145033998Y-44704002D02*
X145504001Y-44233999D01*
X145504001Y-44233999D02*
X146304000Y-43434000D01*
%TO.N,/IO25-A1*%
X166915999Y-146520003D02*
X166116000Y-147320002D01*
X170688000Y-42418000D02*
X170942000Y-42672000D01*
X170942000Y-142494002D02*
X166915999Y-146520003D01*
X170942000Y-42672000D02*
X170942000Y-142494002D01*
%TO.N,/IO4-A5-T2-CS*%
X173952001Y-137884001D02*
X174714001Y-138646001D01*
X174714001Y-138646001D02*
X175514000Y-139446000D01*
X173952001Y-54901999D02*
X173952001Y-137884001D01*
X174752000Y-54102000D02*
X173952001Y-54901999D01*
%TO.N,/IO18-MOSI*%
X178308000Y-96774000D02*
X179324000Y-96774000D01*
X178308000Y-96774000D02*
X179501990Y-96774000D01*
X178523999Y-134582001D02*
X179323998Y-135382000D01*
X178308000Y-96774000D02*
X177000001Y-98081999D01*
X177000001Y-133058003D02*
X178523999Y-134582001D01*
X177000001Y-98081999D02*
X177000001Y-133058003D01*
%TO.N,/IO16-RX*%
X184150000Y-127245380D02*
X181347380Y-130048000D01*
X184150000Y-42672000D02*
X184150000Y-127245380D01*
X181347380Y-130048000D02*
X180216010Y-130048000D01*
%TO.N,/IO26-A0*%
X157734000Y-96774000D02*
X157734000Y-145542002D01*
X157734000Y-145542002D02*
X161506001Y-149314003D01*
X161506001Y-149314003D02*
X162306000Y-150114002D01*
%TO.N,/IO5-SCK*%
X163068000Y-132588000D02*
X164046001Y-133566001D01*
X163068000Y-99822000D02*
X163068000Y-132588000D01*
X164046001Y-133566001D02*
X164846000Y-134366000D01*
X165608000Y-97282000D02*
X163068000Y-99822000D01*
%TO.N,/IO19-MISO*%
X165391999Y-57187999D02*
X164592000Y-56388000D01*
X167640000Y-59436000D02*
X165391999Y-57187999D01*
X167640000Y-128015998D02*
X167640000Y-59436000D01*
X166115998Y-129540000D02*
X167640000Y-128015998D01*
%TO.N,/IO33-A9-T1*%
X147234007Y-58887993D02*
X146434008Y-58087994D01*
X148336000Y-131063996D02*
X148336000Y-59989986D01*
X148336000Y-59989986D02*
X147234007Y-58887993D01*
X146812000Y-132587996D02*
X148336000Y-131063996D01*
%TO.N,/IO12-A11*%
X154686000Y-46736000D02*
X154686000Y-139192000D01*
X159004000Y-42418000D02*
X154686000Y-46736000D01*
%TO.N,/IO27-A10-T2*%
X150621998Y-96774000D02*
X153285990Y-99437992D01*
X153285990Y-135266630D02*
X153285990Y-136398000D01*
X153285990Y-99437992D02*
X153285990Y-135266630D01*
%TO.N,/IO13-A12-T2*%
X159004000Y-55626000D02*
X156210000Y-58420000D01*
X156210000Y-58420000D02*
X156210000Y-142493996D01*
D14*
%TO.N,/Motor-BAT*%
X181102000Y-79640630D02*
X181102000Y-80772000D01*
X181102000Y-61583370D02*
X181102000Y-79640630D01*
X176784000Y-57265370D02*
X181102000Y-61583370D01*
X176784000Y-56134000D02*
X176784000Y-57265370D01*
X176784000Y-44958000D02*
X176784000Y-56134000D01*
X174244000Y-42418000D02*
X176784000Y-44958000D01*
X181102000Y-110998000D02*
X180848000Y-111252000D01*
X181102000Y-80772000D02*
X181102000Y-110998000D01*
X180848000Y-111252000D02*
X180848000Y-126492000D01*
X137668004Y-112660630D02*
X137668004Y-113792000D01*
X137668004Y-99313996D02*
X137668004Y-112660630D01*
X140462000Y-96520000D02*
X137668004Y-99313996D01*
X141986000Y-96520000D02*
X140462000Y-96520000D01*
%TD*%
D15*
%TO.N,GND*%
G36*
X191078311Y-72942072D02*
G01*
X191034252Y-72898013D01*
X190766463Y-72719082D01*
X190468912Y-72595832D01*
X190153033Y-72533000D01*
X189830967Y-72533000D01*
X189515088Y-72595832D01*
X189217537Y-72719082D01*
X188949748Y-72898013D01*
X188722013Y-73125748D01*
X188543082Y-73393537D01*
X188419832Y-73691088D01*
X188357000Y-74006967D01*
X188357000Y-74329033D01*
X188419832Y-74644912D01*
X188543082Y-74942463D01*
X188722013Y-75210252D01*
X188949748Y-75437987D01*
X189217537Y-75616918D01*
X189515088Y-75740168D01*
X189830967Y-75803000D01*
X190153033Y-75803000D01*
X190468912Y-75740168D01*
X190766463Y-75616918D01*
X191034252Y-75437987D01*
X191072360Y-75399879D01*
X190941404Y-129484769D01*
X190661033Y-129429000D01*
X190338967Y-129429000D01*
X190023088Y-129491832D01*
X189725537Y-129615082D01*
X189457748Y-129794013D01*
X189230013Y-130021748D01*
X189051082Y-130289537D01*
X188927832Y-130587088D01*
X188865000Y-130902967D01*
X188865000Y-131225033D01*
X188927832Y-131540912D01*
X189051082Y-131838463D01*
X189230013Y-132106252D01*
X189457748Y-132333987D01*
X189725537Y-132512918D01*
X190023088Y-132636168D01*
X190338967Y-132699000D01*
X190661033Y-132699000D01*
X190933753Y-132644753D01*
X190881308Y-154304386D01*
X138557926Y-154051616D01*
X138614070Y-146359894D01*
X138652912Y-146352168D01*
X138950463Y-146228918D01*
X139218252Y-146049987D01*
X139445987Y-145822252D01*
X139624918Y-145554463D01*
X139748168Y-145256912D01*
X139811000Y-144941033D01*
X139811000Y-144618967D01*
X139748168Y-144303088D01*
X139624918Y-144005537D01*
X139445987Y-143737748D01*
X139218252Y-143510013D01*
X138950463Y-143331082D01*
X138652912Y-143207832D01*
X138637101Y-143204687D01*
X138845805Y-114612228D01*
X138939684Y-114471727D01*
X139047857Y-114210574D01*
X139103004Y-113933335D01*
X139103004Y-113650665D01*
X139047857Y-113373426D01*
X138939684Y-113112273D01*
X138857649Y-112989499D01*
X138956189Y-99489521D01*
X140890711Y-97555000D01*
X140991604Y-97555000D01*
X141071241Y-97634637D01*
X141306273Y-97791680D01*
X141567426Y-97899853D01*
X141844665Y-97955000D01*
X142127335Y-97955000D01*
X142404574Y-97899853D01*
X142665727Y-97791680D01*
X142900759Y-97634637D01*
X143100637Y-97434759D01*
X143257680Y-97199727D01*
X143365853Y-96938574D01*
X143421000Y-96661335D01*
X143421000Y-96378665D01*
X143365853Y-96101426D01*
X143257680Y-95840273D01*
X143100637Y-95605241D01*
X142900759Y-95405363D01*
X142665727Y-95248320D01*
X142404574Y-95140147D01*
X142127335Y-95085000D01*
X141844665Y-95085000D01*
X141567426Y-95140147D01*
X141306273Y-95248320D01*
X141071241Y-95405363D01*
X140991604Y-95485000D01*
X140512827Y-95485000D01*
X140461999Y-95479994D01*
X140411171Y-95485000D01*
X140411162Y-95485000D01*
X140259105Y-95499976D01*
X140064007Y-95559159D01*
X139980309Y-95603896D01*
X139884202Y-95655266D01*
X139766092Y-95752197D01*
X139726604Y-95784604D01*
X139694197Y-95824092D01*
X138977715Y-96540575D01*
X139127640Y-76000786D01*
X139160912Y-75994168D01*
X139458463Y-75870918D01*
X139726252Y-75691987D01*
X139953987Y-75464252D01*
X140132918Y-75196463D01*
X140256168Y-74898912D01*
X140319000Y-74583033D01*
X140319000Y-74260967D01*
X140256168Y-73945088D01*
X140132918Y-73647537D01*
X139953987Y-73379748D01*
X139726252Y-73152013D01*
X139458463Y-72973082D01*
X139160912Y-72849832D01*
X139150655Y-72847792D01*
X139318081Y-49910386D01*
X144198999Y-49886577D01*
X144198998Y-129134070D01*
X144119239Y-129187363D01*
X143919361Y-129387241D01*
X143762318Y-129622273D01*
X143654145Y-129883426D01*
X143598998Y-130160665D01*
X143598998Y-130443335D01*
X143654145Y-130720574D01*
X143762318Y-130981727D01*
X143919361Y-131216759D01*
X144119239Y-131416637D01*
X144354271Y-131573680D01*
X144615424Y-131681853D01*
X144892663Y-131737000D01*
X145175333Y-131737000D01*
X145452572Y-131681853D01*
X145713725Y-131573680D01*
X145948757Y-131416637D01*
X146148635Y-131216759D01*
X146305678Y-130981727D01*
X146413851Y-130720574D01*
X146468998Y-130443335D01*
X146468998Y-130160665D01*
X146413851Y-129883426D01*
X146305678Y-129622273D01*
X146148635Y-129387241D01*
X145948757Y-129187363D01*
X145868998Y-129134070D01*
X145868998Y-59407191D01*
X146015434Y-59467847D01*
X146292673Y-59522994D01*
X146575343Y-59522994D01*
X146669426Y-59504280D01*
X146672577Y-59507431D01*
X146672582Y-59507435D01*
X147501001Y-60335855D01*
X147501000Y-130718128D01*
X147047418Y-131171711D01*
X146953335Y-131152996D01*
X146670665Y-131152996D01*
X146393426Y-131208143D01*
X146132273Y-131316316D01*
X145897241Y-131473359D01*
X145697363Y-131673237D01*
X145540320Y-131908269D01*
X145432147Y-132169422D01*
X145377000Y-132446661D01*
X145377000Y-132729331D01*
X145432147Y-133006570D01*
X145540320Y-133267723D01*
X145697363Y-133502755D01*
X145897241Y-133702633D01*
X146132273Y-133859676D01*
X146393426Y-133967849D01*
X146670665Y-134022996D01*
X146953335Y-134022996D01*
X147230574Y-133967849D01*
X147491727Y-133859676D01*
X147726759Y-133702633D01*
X147926637Y-133502755D01*
X148083680Y-133267723D01*
X148191853Y-133006570D01*
X148247000Y-132729331D01*
X148247000Y-132446661D01*
X148228285Y-132352578D01*
X148897428Y-131683436D01*
X148929291Y-131657287D01*
X149033636Y-131530142D01*
X149111172Y-131385083D01*
X149158918Y-131227685D01*
X149171000Y-131105015D01*
X149171000Y-131105005D01*
X149175039Y-131063997D01*
X149171000Y-131022989D01*
X149171000Y-60030993D01*
X149175039Y-59989985D01*
X149171000Y-59948977D01*
X149171000Y-59948967D01*
X149158918Y-59826297D01*
X149111172Y-59668899D01*
X149033636Y-59523840D01*
X148929291Y-59396695D01*
X148897426Y-59370544D01*
X147853449Y-58326568D01*
X147853445Y-58326563D01*
X147850294Y-58323412D01*
X147869008Y-58229329D01*
X147869008Y-57946659D01*
X147813861Y-57669420D01*
X147705688Y-57408267D01*
X147548645Y-57173235D01*
X147348767Y-56973357D01*
X147113735Y-56816314D01*
X146852582Y-56708141D01*
X146575343Y-56652994D01*
X146292673Y-56652994D01*
X146015434Y-56708141D01*
X145868998Y-56768797D01*
X145868998Y-49878430D01*
X153851000Y-49839494D01*
X153851001Y-98821492D01*
X153847423Y-98818556D01*
X152038284Y-97009418D01*
X152056998Y-96915335D01*
X152056998Y-96632665D01*
X152001851Y-96355426D01*
X151893678Y-96094273D01*
X151736635Y-95859241D01*
X151536757Y-95659363D01*
X151301725Y-95502320D01*
X151040572Y-95394147D01*
X150763333Y-95339000D01*
X150480663Y-95339000D01*
X150203424Y-95394147D01*
X149942271Y-95502320D01*
X149707239Y-95659363D01*
X149507361Y-95859241D01*
X149350318Y-96094273D01*
X149242145Y-96355426D01*
X149186998Y-96632665D01*
X149186998Y-96915335D01*
X149242145Y-97192574D01*
X149350318Y-97453727D01*
X149507361Y-97688759D01*
X149707239Y-97888637D01*
X149942271Y-98045680D01*
X150203424Y-98153853D01*
X150480663Y-98209000D01*
X150763333Y-98209000D01*
X150857416Y-98190286D01*
X152450990Y-99783861D01*
X152450991Y-135225602D01*
X152450990Y-135225612D01*
X152450990Y-135230070D01*
X152371231Y-135283363D01*
X152171353Y-135483241D01*
X152014310Y-135718273D01*
X151906137Y-135979426D01*
X151850990Y-136256665D01*
X151850990Y-136539335D01*
X151906137Y-136816574D01*
X152014310Y-137077727D01*
X152171353Y-137312759D01*
X152371231Y-137512637D01*
X152606263Y-137669680D01*
X152867416Y-137777853D01*
X153144655Y-137833000D01*
X153427325Y-137833000D01*
X153704564Y-137777853D01*
X153851001Y-137717197D01*
X153851001Y-138024069D01*
X153771241Y-138077363D01*
X153571363Y-138277241D01*
X153414320Y-138512273D01*
X153306147Y-138773426D01*
X153251000Y-139050665D01*
X153251000Y-139333335D01*
X153306147Y-139610574D01*
X153414320Y-139871727D01*
X153571363Y-140106759D01*
X153771241Y-140306637D01*
X154006273Y-140463680D01*
X154267426Y-140571853D01*
X154544665Y-140627000D01*
X154827335Y-140627000D01*
X155104574Y-140571853D01*
X155365727Y-140463680D01*
X155375001Y-140457483D01*
X155375001Y-141326065D01*
X155295241Y-141379359D01*
X155095363Y-141579237D01*
X154938320Y-141814269D01*
X154830147Y-142075422D01*
X154775000Y-142352661D01*
X154775000Y-142635331D01*
X154830147Y-142912570D01*
X154938320Y-143173723D01*
X155095363Y-143408755D01*
X155295241Y-143608633D01*
X155530273Y-143765676D01*
X155791426Y-143873849D01*
X156068665Y-143928996D01*
X156351335Y-143928996D01*
X156628574Y-143873849D01*
X156889727Y-143765676D01*
X156899001Y-143759479D01*
X156899001Y-145500973D01*
X156894960Y-145542002D01*
X156911082Y-145705690D01*
X156958828Y-145863088D01*
X157009867Y-145958574D01*
X157036365Y-146008148D01*
X157140710Y-146135293D01*
X157172574Y-146161443D01*
X160889714Y-149878584D01*
X160871000Y-149972667D01*
X160871000Y-150255337D01*
X160926147Y-150532576D01*
X161034320Y-150793729D01*
X161191363Y-151028761D01*
X161391241Y-151228639D01*
X161626273Y-151385682D01*
X161887426Y-151493855D01*
X162164665Y-151549002D01*
X162447335Y-151549002D01*
X162724574Y-151493855D01*
X162985727Y-151385682D01*
X163220759Y-151228639D01*
X163420637Y-151028761D01*
X163577680Y-150793729D01*
X163685853Y-150532576D01*
X163741000Y-150255337D01*
X163741000Y-149972667D01*
X163685853Y-149695428D01*
X163577680Y-149434275D01*
X163420637Y-149199243D01*
X163220759Y-148999365D01*
X162985727Y-148842322D01*
X162724574Y-148734149D01*
X162447335Y-148679002D01*
X162164665Y-148679002D01*
X162070582Y-148697716D01*
X158569000Y-145196135D01*
X158569000Y-99822000D01*
X162228960Y-99822000D01*
X162233000Y-99863018D01*
X162233001Y-132546971D01*
X162228960Y-132588000D01*
X162245082Y-132751688D01*
X162292828Y-132909086D01*
X162343866Y-133004571D01*
X162370365Y-133054146D01*
X162474710Y-133181291D01*
X162506574Y-133207441D01*
X163429714Y-134130582D01*
X163411000Y-134224665D01*
X163411000Y-134507335D01*
X163466147Y-134784574D01*
X163574320Y-135045727D01*
X163731363Y-135280759D01*
X163931241Y-135480637D01*
X164166273Y-135637680D01*
X164427426Y-135745853D01*
X164704665Y-135801000D01*
X164987335Y-135801000D01*
X165264574Y-135745853D01*
X165525727Y-135637680D01*
X165760759Y-135480637D01*
X165960637Y-135280759D01*
X166117680Y-135045727D01*
X166225853Y-134784574D01*
X166281000Y-134507335D01*
X166281000Y-134224665D01*
X166225853Y-133947426D01*
X166117680Y-133686273D01*
X165960637Y-133451241D01*
X165760759Y-133251363D01*
X165525727Y-133094320D01*
X165264574Y-132986147D01*
X164987335Y-132931000D01*
X164704665Y-132931000D01*
X164610582Y-132949714D01*
X163903000Y-132242133D01*
X163903000Y-100167867D01*
X165372582Y-98698286D01*
X165466665Y-98717000D01*
X165749335Y-98717000D01*
X166026574Y-98661853D01*
X166287727Y-98553680D01*
X166522759Y-98396637D01*
X166722637Y-98196759D01*
X166805000Y-98073493D01*
X166805000Y-127670130D01*
X166351416Y-128123715D01*
X166257333Y-128105000D01*
X165974663Y-128105000D01*
X165697424Y-128160147D01*
X165436271Y-128268320D01*
X165201239Y-128425363D01*
X165001361Y-128625241D01*
X164844318Y-128860273D01*
X164736145Y-129121426D01*
X164680998Y-129398665D01*
X164680998Y-129681335D01*
X164736145Y-129958574D01*
X164844318Y-130219727D01*
X165001361Y-130454759D01*
X165201239Y-130654637D01*
X165436271Y-130811680D01*
X165697424Y-130919853D01*
X165974663Y-130975000D01*
X166257333Y-130975000D01*
X166534572Y-130919853D01*
X166795725Y-130811680D01*
X167030757Y-130654637D01*
X167230635Y-130454759D01*
X167387678Y-130219727D01*
X167495851Y-129958574D01*
X167550998Y-129681335D01*
X167550998Y-129398665D01*
X167532283Y-129304582D01*
X168201428Y-128635438D01*
X168233291Y-128609289D01*
X168337636Y-128482144D01*
X168415172Y-128337085D01*
X168462918Y-128179687D01*
X168475000Y-128057017D01*
X168475000Y-128057007D01*
X168479039Y-128015999D01*
X168475000Y-127974991D01*
X168475000Y-59477018D01*
X168479040Y-59436000D01*
X168475000Y-59394981D01*
X168462918Y-59272311D01*
X168415172Y-59114913D01*
X168337636Y-58969854D01*
X168233291Y-58842709D01*
X168201427Y-58816559D01*
X166011441Y-56626574D01*
X166011437Y-56626569D01*
X166008286Y-56623418D01*
X166027000Y-56529335D01*
X166027000Y-56246665D01*
X165971853Y-55969426D01*
X165863680Y-55708273D01*
X165706637Y-55473241D01*
X165506759Y-55273363D01*
X165271727Y-55116320D01*
X165010574Y-55008147D01*
X164733335Y-54953000D01*
X164450665Y-54953000D01*
X164173426Y-55008147D01*
X163912273Y-55116320D01*
X163677241Y-55273363D01*
X163477363Y-55473241D01*
X163320320Y-55708273D01*
X163212147Y-55969426D01*
X163157000Y-56246665D01*
X163157000Y-56529335D01*
X163212147Y-56806574D01*
X163320320Y-57067727D01*
X163477363Y-57302759D01*
X163677241Y-57502637D01*
X163912273Y-57659680D01*
X164173426Y-57767853D01*
X164450665Y-57823000D01*
X164733335Y-57823000D01*
X164827418Y-57804286D01*
X164830569Y-57807437D01*
X164830574Y-57807441D01*
X166805001Y-59781869D01*
X166805000Y-96490507D01*
X166722637Y-96367241D01*
X166522759Y-96167363D01*
X166287727Y-96010320D01*
X166026574Y-95902147D01*
X165749335Y-95847000D01*
X165466665Y-95847000D01*
X165189426Y-95902147D01*
X164928273Y-96010320D01*
X164693241Y-96167363D01*
X164493363Y-96367241D01*
X164336320Y-96602273D01*
X164228147Y-96863426D01*
X164173000Y-97140665D01*
X164173000Y-97423335D01*
X164191714Y-97517418D01*
X162506579Y-99202554D01*
X162474709Y-99228709D01*
X162370365Y-99355854D01*
X162370364Y-99355855D01*
X162292828Y-99500914D01*
X162245082Y-99658312D01*
X162228960Y-99822000D01*
X158569000Y-99822000D01*
X158569000Y-97941930D01*
X158648759Y-97888637D01*
X158848637Y-97688759D01*
X159005680Y-97453727D01*
X159113853Y-97192574D01*
X159169000Y-96915335D01*
X159169000Y-96632665D01*
X159113853Y-96355426D01*
X159005680Y-96094273D01*
X158848637Y-95859241D01*
X158648759Y-95659363D01*
X158413727Y-95502320D01*
X158152574Y-95394147D01*
X157875335Y-95339000D01*
X157592665Y-95339000D01*
X157315426Y-95394147D01*
X157054273Y-95502320D01*
X157045000Y-95508516D01*
X157045000Y-58765867D01*
X158768583Y-57042286D01*
X158862665Y-57061000D01*
X159145335Y-57061000D01*
X159422574Y-57005853D01*
X159683727Y-56897680D01*
X159918759Y-56740637D01*
X160118637Y-56540759D01*
X160275680Y-56305727D01*
X160383853Y-56044574D01*
X160439000Y-55767335D01*
X160439000Y-55484665D01*
X160383853Y-55207426D01*
X160275680Y-54946273D01*
X160118637Y-54711241D01*
X159918759Y-54511363D01*
X159683727Y-54354320D01*
X159422574Y-54246147D01*
X159145335Y-54191000D01*
X158862665Y-54191000D01*
X158585426Y-54246147D01*
X158324273Y-54354320D01*
X158089241Y-54511363D01*
X157889363Y-54711241D01*
X157732320Y-54946273D01*
X157624147Y-55207426D01*
X157569000Y-55484665D01*
X157569000Y-55767335D01*
X157587714Y-55861417D01*
X155648579Y-57800554D01*
X155616709Y-57826709D01*
X155536614Y-57924306D01*
X155521000Y-57943332D01*
X155521000Y-49831347D01*
X170107000Y-49760196D01*
X170107001Y-142148133D01*
X166351418Y-145903716D01*
X166257335Y-145885002D01*
X165974665Y-145885002D01*
X165697426Y-145940149D01*
X165436273Y-146048322D01*
X165201241Y-146205365D01*
X165001363Y-146405243D01*
X164844320Y-146640275D01*
X164736147Y-146901428D01*
X164681000Y-147178667D01*
X164681000Y-147461337D01*
X164736147Y-147738576D01*
X164844320Y-147999729D01*
X165001363Y-148234761D01*
X165201241Y-148434639D01*
X165436273Y-148591682D01*
X165697426Y-148699855D01*
X165974665Y-148755002D01*
X166257335Y-148755002D01*
X166534574Y-148699855D01*
X166795727Y-148591682D01*
X167030759Y-148434639D01*
X167230637Y-148234761D01*
X167387680Y-147999729D01*
X167495853Y-147738576D01*
X167551000Y-147461337D01*
X167551000Y-147178667D01*
X167532286Y-147084584D01*
X171503427Y-143113443D01*
X171535291Y-143087293D01*
X171639636Y-142960148D01*
X171717172Y-142815089D01*
X171764918Y-142657691D01*
X171777000Y-142535021D01*
X171777000Y-142535015D01*
X171781040Y-142494003D01*
X171777000Y-142452987D01*
X171777000Y-49752050D01*
X175749001Y-49732674D01*
X175749001Y-53069605D01*
X175666759Y-52987363D01*
X175431727Y-52830320D01*
X175170574Y-52722147D01*
X174893335Y-52667000D01*
X174610665Y-52667000D01*
X174333426Y-52722147D01*
X174072273Y-52830320D01*
X173837241Y-52987363D01*
X173637363Y-53187241D01*
X173480320Y-53422273D01*
X173372147Y-53683426D01*
X173317000Y-53960665D01*
X173317000Y-54243335D01*
X173335604Y-54336863D01*
X173264843Y-54423087D01*
X173254365Y-54435854D01*
X173176829Y-54580913D01*
X173129083Y-54738311D01*
X173112961Y-54901999D01*
X173117001Y-54943017D01*
X173117002Y-137842972D01*
X173112961Y-137884001D01*
X173129083Y-138047689D01*
X173176829Y-138205087D01*
X173254365Y-138350146D01*
X173254366Y-138350147D01*
X173358711Y-138477292D01*
X173390575Y-138503442D01*
X174097714Y-139210583D01*
X174079000Y-139304665D01*
X174079000Y-139587335D01*
X174134147Y-139864574D01*
X174242320Y-140125727D01*
X174399363Y-140360759D01*
X174599241Y-140560637D01*
X174834273Y-140717680D01*
X175095426Y-140825853D01*
X175372665Y-140881000D01*
X175655335Y-140881000D01*
X175932574Y-140825853D01*
X176193727Y-140717680D01*
X176428759Y-140560637D01*
X176628637Y-140360759D01*
X176785680Y-140125727D01*
X176893853Y-139864574D01*
X176949000Y-139587335D01*
X176949000Y-139304665D01*
X176893853Y-139027426D01*
X176785680Y-138766273D01*
X176628637Y-138531241D01*
X176428759Y-138331363D01*
X176193727Y-138174320D01*
X175932574Y-138066147D01*
X175655335Y-138011000D01*
X175372665Y-138011000D01*
X175278583Y-138029714D01*
X174787001Y-137538133D01*
X174787001Y-55537000D01*
X174893335Y-55537000D01*
X175170574Y-55481853D01*
X175431727Y-55373680D01*
X175666759Y-55216637D01*
X175749001Y-55134395D01*
X175749001Y-55139603D01*
X175669363Y-55219241D01*
X175512320Y-55454273D01*
X175404147Y-55715426D01*
X175349000Y-55992665D01*
X175349000Y-56275335D01*
X175404147Y-56552574D01*
X175512320Y-56813727D01*
X175669363Y-57048759D01*
X175749001Y-57128397D01*
X175749001Y-57214533D01*
X175743994Y-57265370D01*
X175763977Y-57468265D01*
X175823160Y-57663363D01*
X175919266Y-57843167D01*
X176010105Y-57953854D01*
X176048605Y-58000766D01*
X176088092Y-58033173D01*
X180067000Y-62012081D01*
X180067001Y-79589783D01*
X180067000Y-79589793D01*
X180067000Y-79777604D01*
X179987363Y-79857241D01*
X179830320Y-80092273D01*
X179722147Y-80353426D01*
X179667000Y-80630665D01*
X179667000Y-80913335D01*
X179722147Y-81190574D01*
X179830320Y-81451727D01*
X179987363Y-81686759D01*
X180067000Y-81766396D01*
X180067000Y-95454803D01*
X179920564Y-95394147D01*
X179643325Y-95339000D01*
X179360655Y-95339000D01*
X179083416Y-95394147D01*
X178822263Y-95502320D01*
X178587231Y-95659363D01*
X178387353Y-95859241D01*
X178334984Y-95937618D01*
X178308000Y-95934960D01*
X178144311Y-95951082D01*
X177986913Y-95998828D01*
X177841854Y-96076364D01*
X177786238Y-96122007D01*
X177714709Y-96180709D01*
X177688563Y-96212568D01*
X176438579Y-97462553D01*
X176406710Y-97488708D01*
X176317905Y-97596918D01*
X176302365Y-97615854D01*
X176224829Y-97760913D01*
X176177083Y-97918311D01*
X176160961Y-98081999D01*
X176165001Y-98123017D01*
X176165002Y-133016974D01*
X176160961Y-133058003D01*
X176177083Y-133221691D01*
X176224829Y-133379089D01*
X176302365Y-133524148D01*
X176302366Y-133524149D01*
X176406711Y-133651294D01*
X176438575Y-133677444D01*
X177907712Y-135146583D01*
X177888998Y-135240665D01*
X177888998Y-135523335D01*
X177944145Y-135800574D01*
X178052318Y-136061727D01*
X178209361Y-136296759D01*
X178409239Y-136496637D01*
X178644271Y-136653680D01*
X178905424Y-136761853D01*
X179182663Y-136817000D01*
X179465333Y-136817000D01*
X179742572Y-136761853D01*
X180003725Y-136653680D01*
X180238757Y-136496637D01*
X180438635Y-136296759D01*
X180595678Y-136061727D01*
X180703851Y-135800574D01*
X180758998Y-135523335D01*
X180758998Y-135240665D01*
X180703851Y-134963426D01*
X180595678Y-134702273D01*
X180438635Y-134467241D01*
X180238757Y-134267363D01*
X180003725Y-134110320D01*
X179742572Y-134002147D01*
X179465333Y-133947000D01*
X179182663Y-133947000D01*
X179088581Y-133965714D01*
X177835001Y-132712136D01*
X177835001Y-98427866D01*
X178480731Y-97782137D01*
X178587231Y-97888637D01*
X178822263Y-98045680D01*
X179083416Y-98153853D01*
X179360655Y-98209000D01*
X179643325Y-98209000D01*
X179920564Y-98153853D01*
X180067001Y-98093197D01*
X180067001Y-110047988D01*
X179933241Y-110137363D01*
X179733363Y-110337241D01*
X179576320Y-110572273D01*
X179468147Y-110833426D01*
X179413000Y-111110665D01*
X179413000Y-111393335D01*
X179468147Y-111670574D01*
X179576320Y-111931727D01*
X179733363Y-112166759D01*
X179813000Y-112246396D01*
X179813001Y-125497603D01*
X179733363Y-125577241D01*
X179576320Y-125812273D01*
X179468147Y-126073426D01*
X179413000Y-126350665D01*
X179413000Y-126633335D01*
X179468147Y-126910574D01*
X179576320Y-127171727D01*
X179733363Y-127406759D01*
X179933241Y-127606637D01*
X180168273Y-127763680D01*
X180429426Y-127871853D01*
X180706665Y-127927000D01*
X180989335Y-127927000D01*
X181266574Y-127871853D01*
X181527727Y-127763680D01*
X181762759Y-127606637D01*
X181962637Y-127406759D01*
X182119680Y-127171727D01*
X182227853Y-126910574D01*
X182283000Y-126633335D01*
X182283000Y-126350665D01*
X182227853Y-126073426D01*
X182119680Y-125812273D01*
X181962637Y-125577241D01*
X181883000Y-125497604D01*
X181883000Y-112246396D01*
X181962637Y-112166759D01*
X182119680Y-111931727D01*
X182227853Y-111670574D01*
X182283000Y-111393335D01*
X182283000Y-111110665D01*
X182227853Y-110833426D01*
X182137000Y-110614087D01*
X182137000Y-81766396D01*
X182216637Y-81686759D01*
X182373680Y-81451727D01*
X182481853Y-81190574D01*
X182537000Y-80913335D01*
X182537000Y-80630665D01*
X182481853Y-80353426D01*
X182373680Y-80092273D01*
X182216637Y-79857241D01*
X182137000Y-79777604D01*
X182137000Y-61634197D01*
X182142006Y-61583369D01*
X182137000Y-61532541D01*
X182137000Y-61532532D01*
X182122024Y-61380475D01*
X182062841Y-61185377D01*
X182018104Y-61101679D01*
X181966734Y-61005572D01*
X181869803Y-60887462D01*
X181837396Y-60847974D01*
X181797908Y-60815567D01*
X177951694Y-56969354D01*
X178055680Y-56813727D01*
X178163853Y-56552574D01*
X178219000Y-56275335D01*
X178219000Y-55992665D01*
X178163853Y-55715426D01*
X178055680Y-55454273D01*
X177898637Y-55219241D01*
X177819000Y-55139604D01*
X177819000Y-49722577D01*
X183315000Y-49695767D01*
X183315001Y-126899511D01*
X181205959Y-129008553D01*
X181130769Y-128933363D01*
X180895737Y-128776320D01*
X180634584Y-128668147D01*
X180357345Y-128613000D01*
X180074675Y-128613000D01*
X179797436Y-128668147D01*
X179536283Y-128776320D01*
X179301251Y-128933363D01*
X179101373Y-129133241D01*
X178944330Y-129368273D01*
X178836157Y-129629426D01*
X178781010Y-129906665D01*
X178781010Y-130189335D01*
X178836157Y-130466574D01*
X178944330Y-130727727D01*
X179101373Y-130962759D01*
X179301251Y-131162637D01*
X179536283Y-131319680D01*
X179797436Y-131427853D01*
X180074675Y-131483000D01*
X180357345Y-131483000D01*
X180634584Y-131427853D01*
X180895737Y-131319680D01*
X181130769Y-131162637D01*
X181330647Y-130962759D01*
X181383626Y-130883470D01*
X181388398Y-130883000D01*
X181388399Y-130883000D01*
X181511069Y-130870918D01*
X181668467Y-130823172D01*
X181813526Y-130745636D01*
X181940671Y-130641291D01*
X181966826Y-130609421D01*
X184711427Y-127864821D01*
X184743291Y-127838671D01*
X184847636Y-127711526D01*
X184925172Y-127566467D01*
X184972918Y-127409069D01*
X184985000Y-127286399D01*
X184985000Y-127286397D01*
X184989040Y-127245381D01*
X184985000Y-127204365D01*
X184985000Y-49687620D01*
X191134690Y-49657622D01*
X191078311Y-72942072D01*
G37*
X191078311Y-72942072D02*
X191034252Y-72898013D01*
X190766463Y-72719082D01*
X190468912Y-72595832D01*
X190153033Y-72533000D01*
X189830967Y-72533000D01*
X189515088Y-72595832D01*
X189217537Y-72719082D01*
X188949748Y-72898013D01*
X188722013Y-73125748D01*
X188543082Y-73393537D01*
X188419832Y-73691088D01*
X188357000Y-74006967D01*
X188357000Y-74329033D01*
X188419832Y-74644912D01*
X188543082Y-74942463D01*
X188722013Y-75210252D01*
X188949748Y-75437987D01*
X189217537Y-75616918D01*
X189515088Y-75740168D01*
X189830967Y-75803000D01*
X190153033Y-75803000D01*
X190468912Y-75740168D01*
X190766463Y-75616918D01*
X191034252Y-75437987D01*
X191072360Y-75399879D01*
X190941404Y-129484769D01*
X190661033Y-129429000D01*
X190338967Y-129429000D01*
X190023088Y-129491832D01*
X189725537Y-129615082D01*
X189457748Y-129794013D01*
X189230013Y-130021748D01*
X189051082Y-130289537D01*
X188927832Y-130587088D01*
X188865000Y-130902967D01*
X188865000Y-131225033D01*
X188927832Y-131540912D01*
X189051082Y-131838463D01*
X189230013Y-132106252D01*
X189457748Y-132333987D01*
X189725537Y-132512918D01*
X190023088Y-132636168D01*
X190338967Y-132699000D01*
X190661033Y-132699000D01*
X190933753Y-132644753D01*
X190881308Y-154304386D01*
X138557926Y-154051616D01*
X138614070Y-146359894D01*
X138652912Y-146352168D01*
X138950463Y-146228918D01*
X139218252Y-146049987D01*
X139445987Y-145822252D01*
X139624918Y-145554463D01*
X139748168Y-145256912D01*
X139811000Y-144941033D01*
X139811000Y-144618967D01*
X139748168Y-144303088D01*
X139624918Y-144005537D01*
X139445987Y-143737748D01*
X139218252Y-143510013D01*
X138950463Y-143331082D01*
X138652912Y-143207832D01*
X138637101Y-143204687D01*
X138845805Y-114612228D01*
X138939684Y-114471727D01*
X139047857Y-114210574D01*
X139103004Y-113933335D01*
X139103004Y-113650665D01*
X139047857Y-113373426D01*
X138939684Y-113112273D01*
X138857649Y-112989499D01*
X138956189Y-99489521D01*
X140890711Y-97555000D01*
X140991604Y-97555000D01*
X141071241Y-97634637D01*
X141306273Y-97791680D01*
X141567426Y-97899853D01*
X141844665Y-97955000D01*
X142127335Y-97955000D01*
X142404574Y-97899853D01*
X142665727Y-97791680D01*
X142900759Y-97634637D01*
X143100637Y-97434759D01*
X143257680Y-97199727D01*
X143365853Y-96938574D01*
X143421000Y-96661335D01*
X143421000Y-96378665D01*
X143365853Y-96101426D01*
X143257680Y-95840273D01*
X143100637Y-95605241D01*
X142900759Y-95405363D01*
X142665727Y-95248320D01*
X142404574Y-95140147D01*
X142127335Y-95085000D01*
X141844665Y-95085000D01*
X141567426Y-95140147D01*
X141306273Y-95248320D01*
X141071241Y-95405363D01*
X140991604Y-95485000D01*
X140512827Y-95485000D01*
X140461999Y-95479994D01*
X140411171Y-95485000D01*
X140411162Y-95485000D01*
X140259105Y-95499976D01*
X140064007Y-95559159D01*
X139980309Y-95603896D01*
X139884202Y-95655266D01*
X139766092Y-95752197D01*
X139726604Y-95784604D01*
X139694197Y-95824092D01*
X138977715Y-96540575D01*
X139127640Y-76000786D01*
X139160912Y-75994168D01*
X139458463Y-75870918D01*
X139726252Y-75691987D01*
X139953987Y-75464252D01*
X140132918Y-75196463D01*
X140256168Y-74898912D01*
X140319000Y-74583033D01*
X140319000Y-74260967D01*
X140256168Y-73945088D01*
X140132918Y-73647537D01*
X139953987Y-73379748D01*
X139726252Y-73152013D01*
X139458463Y-72973082D01*
X139160912Y-72849832D01*
X139150655Y-72847792D01*
X139318081Y-49910386D01*
X144198999Y-49886577D01*
X144198998Y-129134070D01*
X144119239Y-129187363D01*
X143919361Y-129387241D01*
X143762318Y-129622273D01*
X143654145Y-129883426D01*
X143598998Y-130160665D01*
X143598998Y-130443335D01*
X143654145Y-130720574D01*
X143762318Y-130981727D01*
X143919361Y-131216759D01*
X144119239Y-131416637D01*
X144354271Y-131573680D01*
X144615424Y-131681853D01*
X144892663Y-131737000D01*
X145175333Y-131737000D01*
X145452572Y-131681853D01*
X145713725Y-131573680D01*
X145948757Y-131416637D01*
X146148635Y-131216759D01*
X146305678Y-130981727D01*
X146413851Y-130720574D01*
X146468998Y-130443335D01*
X146468998Y-130160665D01*
X146413851Y-129883426D01*
X146305678Y-129622273D01*
X146148635Y-129387241D01*
X145948757Y-129187363D01*
X145868998Y-129134070D01*
X145868998Y-59407191D01*
X146015434Y-59467847D01*
X146292673Y-59522994D01*
X146575343Y-59522994D01*
X146669426Y-59504280D01*
X146672577Y-59507431D01*
X146672582Y-59507435D01*
X147501001Y-60335855D01*
X147501000Y-130718128D01*
X147047418Y-131171711D01*
X146953335Y-131152996D01*
X146670665Y-131152996D01*
X146393426Y-131208143D01*
X146132273Y-131316316D01*
X145897241Y-131473359D01*
X145697363Y-131673237D01*
X145540320Y-131908269D01*
X145432147Y-132169422D01*
X145377000Y-132446661D01*
X145377000Y-132729331D01*
X145432147Y-133006570D01*
X145540320Y-133267723D01*
X145697363Y-133502755D01*
X145897241Y-133702633D01*
X146132273Y-133859676D01*
X146393426Y-133967849D01*
X146670665Y-134022996D01*
X146953335Y-134022996D01*
X147230574Y-133967849D01*
X147491727Y-133859676D01*
X147726759Y-133702633D01*
X147926637Y-133502755D01*
X148083680Y-133267723D01*
X148191853Y-133006570D01*
X148247000Y-132729331D01*
X148247000Y-132446661D01*
X148228285Y-132352578D01*
X148897428Y-131683436D01*
X148929291Y-131657287D01*
X149033636Y-131530142D01*
X149111172Y-131385083D01*
X149158918Y-131227685D01*
X149171000Y-131105015D01*
X149171000Y-131105005D01*
X149175039Y-131063997D01*
X149171000Y-131022989D01*
X149171000Y-60030993D01*
X149175039Y-59989985D01*
X149171000Y-59948977D01*
X149171000Y-59948967D01*
X149158918Y-59826297D01*
X149111172Y-59668899D01*
X149033636Y-59523840D01*
X148929291Y-59396695D01*
X148897426Y-59370544D01*
X147853449Y-58326568D01*
X147853445Y-58326563D01*
X147850294Y-58323412D01*
X147869008Y-58229329D01*
X147869008Y-57946659D01*
X147813861Y-57669420D01*
X147705688Y-57408267D01*
X147548645Y-57173235D01*
X147348767Y-56973357D01*
X147113735Y-56816314D01*
X146852582Y-56708141D01*
X146575343Y-56652994D01*
X146292673Y-56652994D01*
X146015434Y-56708141D01*
X145868998Y-56768797D01*
X145868998Y-49878430D01*
X153851000Y-49839494D01*
X153851001Y-98821492D01*
X153847423Y-98818556D01*
X152038284Y-97009418D01*
X152056998Y-96915335D01*
X152056998Y-96632665D01*
X152001851Y-96355426D01*
X151893678Y-96094273D01*
X151736635Y-95859241D01*
X151536757Y-95659363D01*
X151301725Y-95502320D01*
X151040572Y-95394147D01*
X150763333Y-95339000D01*
X150480663Y-95339000D01*
X150203424Y-95394147D01*
X149942271Y-95502320D01*
X149707239Y-95659363D01*
X149507361Y-95859241D01*
X149350318Y-96094273D01*
X149242145Y-96355426D01*
X149186998Y-96632665D01*
X149186998Y-96915335D01*
X149242145Y-97192574D01*
X149350318Y-97453727D01*
X149507361Y-97688759D01*
X149707239Y-97888637D01*
X149942271Y-98045680D01*
X150203424Y-98153853D01*
X150480663Y-98209000D01*
X150763333Y-98209000D01*
X150857416Y-98190286D01*
X152450990Y-99783861D01*
X152450991Y-135225602D01*
X152450990Y-135225612D01*
X152450990Y-135230070D01*
X152371231Y-135283363D01*
X152171353Y-135483241D01*
X152014310Y-135718273D01*
X151906137Y-135979426D01*
X151850990Y-136256665D01*
X151850990Y-136539335D01*
X151906137Y-136816574D01*
X152014310Y-137077727D01*
X152171353Y-137312759D01*
X152371231Y-137512637D01*
X152606263Y-137669680D01*
X152867416Y-137777853D01*
X153144655Y-137833000D01*
X153427325Y-137833000D01*
X153704564Y-137777853D01*
X153851001Y-137717197D01*
X153851001Y-138024069D01*
X153771241Y-138077363D01*
X153571363Y-138277241D01*
X153414320Y-138512273D01*
X153306147Y-138773426D01*
X153251000Y-139050665D01*
X153251000Y-139333335D01*
X153306147Y-139610574D01*
X153414320Y-139871727D01*
X153571363Y-140106759D01*
X153771241Y-140306637D01*
X154006273Y-140463680D01*
X154267426Y-140571853D01*
X154544665Y-140627000D01*
X154827335Y-140627000D01*
X155104574Y-140571853D01*
X155365727Y-140463680D01*
X155375001Y-140457483D01*
X155375001Y-141326065D01*
X155295241Y-141379359D01*
X155095363Y-141579237D01*
X154938320Y-141814269D01*
X154830147Y-142075422D01*
X154775000Y-142352661D01*
X154775000Y-142635331D01*
X154830147Y-142912570D01*
X154938320Y-143173723D01*
X155095363Y-143408755D01*
X155295241Y-143608633D01*
X155530273Y-143765676D01*
X155791426Y-143873849D01*
X156068665Y-143928996D01*
X156351335Y-143928996D01*
X156628574Y-143873849D01*
X156889727Y-143765676D01*
X156899001Y-143759479D01*
X156899001Y-145500973D01*
X156894960Y-145542002D01*
X156911082Y-145705690D01*
X156958828Y-145863088D01*
X157009867Y-145958574D01*
X157036365Y-146008148D01*
X157140710Y-146135293D01*
X157172574Y-146161443D01*
X160889714Y-149878584D01*
X160871000Y-149972667D01*
X160871000Y-150255337D01*
X160926147Y-150532576D01*
X161034320Y-150793729D01*
X161191363Y-151028761D01*
X161391241Y-151228639D01*
X161626273Y-151385682D01*
X161887426Y-151493855D01*
X162164665Y-151549002D01*
X162447335Y-151549002D01*
X162724574Y-151493855D01*
X162985727Y-151385682D01*
X163220759Y-151228639D01*
X163420637Y-151028761D01*
X163577680Y-150793729D01*
X163685853Y-150532576D01*
X163741000Y-150255337D01*
X163741000Y-149972667D01*
X163685853Y-149695428D01*
X163577680Y-149434275D01*
X163420637Y-149199243D01*
X163220759Y-148999365D01*
X162985727Y-148842322D01*
X162724574Y-148734149D01*
X162447335Y-148679002D01*
X162164665Y-148679002D01*
X162070582Y-148697716D01*
X158569000Y-145196135D01*
X158569000Y-99822000D01*
X162228960Y-99822000D01*
X162233000Y-99863018D01*
X162233001Y-132546971D01*
X162228960Y-132588000D01*
X162245082Y-132751688D01*
X162292828Y-132909086D01*
X162343866Y-133004571D01*
X162370365Y-133054146D01*
X162474710Y-133181291D01*
X162506574Y-133207441D01*
X163429714Y-134130582D01*
X163411000Y-134224665D01*
X163411000Y-134507335D01*
X163466147Y-134784574D01*
X163574320Y-135045727D01*
X163731363Y-135280759D01*
X163931241Y-135480637D01*
X164166273Y-135637680D01*
X164427426Y-135745853D01*
X164704665Y-135801000D01*
X164987335Y-135801000D01*
X165264574Y-135745853D01*
X165525727Y-135637680D01*
X165760759Y-135480637D01*
X165960637Y-135280759D01*
X166117680Y-135045727D01*
X166225853Y-134784574D01*
X166281000Y-134507335D01*
X166281000Y-134224665D01*
X166225853Y-133947426D01*
X166117680Y-133686273D01*
X165960637Y-133451241D01*
X165760759Y-133251363D01*
X165525727Y-133094320D01*
X165264574Y-132986147D01*
X164987335Y-132931000D01*
X164704665Y-132931000D01*
X164610582Y-132949714D01*
X163903000Y-132242133D01*
X163903000Y-100167867D01*
X165372582Y-98698286D01*
X165466665Y-98717000D01*
X165749335Y-98717000D01*
X166026574Y-98661853D01*
X166287727Y-98553680D01*
X166522759Y-98396637D01*
X166722637Y-98196759D01*
X166805000Y-98073493D01*
X166805000Y-127670130D01*
X166351416Y-128123715D01*
X166257333Y-128105000D01*
X165974663Y-128105000D01*
X165697424Y-128160147D01*
X165436271Y-128268320D01*
X165201239Y-128425363D01*
X165001361Y-128625241D01*
X164844318Y-128860273D01*
X164736145Y-129121426D01*
X164680998Y-129398665D01*
X164680998Y-129681335D01*
X164736145Y-129958574D01*
X164844318Y-130219727D01*
X165001361Y-130454759D01*
X165201239Y-130654637D01*
X165436271Y-130811680D01*
X165697424Y-130919853D01*
X165974663Y-130975000D01*
X166257333Y-130975000D01*
X166534572Y-130919853D01*
X166795725Y-130811680D01*
X167030757Y-130654637D01*
X167230635Y-130454759D01*
X167387678Y-130219727D01*
X167495851Y-129958574D01*
X167550998Y-129681335D01*
X167550998Y-129398665D01*
X167532283Y-129304582D01*
X168201428Y-128635438D01*
X168233291Y-128609289D01*
X168337636Y-128482144D01*
X168415172Y-128337085D01*
X168462918Y-128179687D01*
X168475000Y-128057017D01*
X168475000Y-128057007D01*
X168479039Y-128015999D01*
X168475000Y-127974991D01*
X168475000Y-59477018D01*
X168479040Y-59436000D01*
X168475000Y-59394981D01*
X168462918Y-59272311D01*
X168415172Y-59114913D01*
X168337636Y-58969854D01*
X168233291Y-58842709D01*
X168201427Y-58816559D01*
X166011441Y-56626574D01*
X166011437Y-56626569D01*
X166008286Y-56623418D01*
X166027000Y-56529335D01*
X166027000Y-56246665D01*
X165971853Y-55969426D01*
X165863680Y-55708273D01*
X165706637Y-55473241D01*
X165506759Y-55273363D01*
X165271727Y-55116320D01*
X165010574Y-55008147D01*
X164733335Y-54953000D01*
X164450665Y-54953000D01*
X164173426Y-55008147D01*
X163912273Y-55116320D01*
X163677241Y-55273363D01*
X163477363Y-55473241D01*
X163320320Y-55708273D01*
X163212147Y-55969426D01*
X163157000Y-56246665D01*
X163157000Y-56529335D01*
X163212147Y-56806574D01*
X163320320Y-57067727D01*
X163477363Y-57302759D01*
X163677241Y-57502637D01*
X163912273Y-57659680D01*
X164173426Y-57767853D01*
X164450665Y-57823000D01*
X164733335Y-57823000D01*
X164827418Y-57804286D01*
X164830569Y-57807437D01*
X164830574Y-57807441D01*
X166805001Y-59781869D01*
X166805000Y-96490507D01*
X166722637Y-96367241D01*
X166522759Y-96167363D01*
X166287727Y-96010320D01*
X166026574Y-95902147D01*
X165749335Y-95847000D01*
X165466665Y-95847000D01*
X165189426Y-95902147D01*
X164928273Y-96010320D01*
X164693241Y-96167363D01*
X164493363Y-96367241D01*
X164336320Y-96602273D01*
X164228147Y-96863426D01*
X164173000Y-97140665D01*
X164173000Y-97423335D01*
X164191714Y-97517418D01*
X162506579Y-99202554D01*
X162474709Y-99228709D01*
X162370365Y-99355854D01*
X162370364Y-99355855D01*
X162292828Y-99500914D01*
X162245082Y-99658312D01*
X162228960Y-99822000D01*
X158569000Y-99822000D01*
X158569000Y-97941930D01*
X158648759Y-97888637D01*
X158848637Y-97688759D01*
X159005680Y-97453727D01*
X159113853Y-97192574D01*
X159169000Y-96915335D01*
X159169000Y-96632665D01*
X159113853Y-96355426D01*
X159005680Y-96094273D01*
X158848637Y-95859241D01*
X158648759Y-95659363D01*
X158413727Y-95502320D01*
X158152574Y-95394147D01*
X157875335Y-95339000D01*
X157592665Y-95339000D01*
X157315426Y-95394147D01*
X157054273Y-95502320D01*
X157045000Y-95508516D01*
X157045000Y-58765867D01*
X158768583Y-57042286D01*
X158862665Y-57061000D01*
X159145335Y-57061000D01*
X159422574Y-57005853D01*
X159683727Y-56897680D01*
X159918759Y-56740637D01*
X160118637Y-56540759D01*
X160275680Y-56305727D01*
X160383853Y-56044574D01*
X160439000Y-55767335D01*
X160439000Y-55484665D01*
X160383853Y-55207426D01*
X160275680Y-54946273D01*
X160118637Y-54711241D01*
X159918759Y-54511363D01*
X159683727Y-54354320D01*
X159422574Y-54246147D01*
X159145335Y-54191000D01*
X158862665Y-54191000D01*
X158585426Y-54246147D01*
X158324273Y-54354320D01*
X158089241Y-54511363D01*
X157889363Y-54711241D01*
X157732320Y-54946273D01*
X157624147Y-55207426D01*
X157569000Y-55484665D01*
X157569000Y-55767335D01*
X157587714Y-55861417D01*
X155648579Y-57800554D01*
X155616709Y-57826709D01*
X155536614Y-57924306D01*
X155521000Y-57943332D01*
X155521000Y-49831347D01*
X170107000Y-49760196D01*
X170107001Y-142148133D01*
X166351418Y-145903716D01*
X166257335Y-145885002D01*
X165974665Y-145885002D01*
X165697426Y-145940149D01*
X165436273Y-146048322D01*
X165201241Y-146205365D01*
X165001363Y-146405243D01*
X164844320Y-146640275D01*
X164736147Y-146901428D01*
X164681000Y-147178667D01*
X164681000Y-147461337D01*
X164736147Y-147738576D01*
X164844320Y-147999729D01*
X165001363Y-148234761D01*
X165201241Y-148434639D01*
X165436273Y-148591682D01*
X165697426Y-148699855D01*
X165974665Y-148755002D01*
X166257335Y-148755002D01*
X166534574Y-148699855D01*
X166795727Y-148591682D01*
X167030759Y-148434639D01*
X167230637Y-148234761D01*
X167387680Y-147999729D01*
X167495853Y-147738576D01*
X167551000Y-147461337D01*
X167551000Y-147178667D01*
X167532286Y-147084584D01*
X171503427Y-143113443D01*
X171535291Y-143087293D01*
X171639636Y-142960148D01*
X171717172Y-142815089D01*
X171764918Y-142657691D01*
X171777000Y-142535021D01*
X171777000Y-142535015D01*
X171781040Y-142494003D01*
X171777000Y-142452987D01*
X171777000Y-49752050D01*
X175749001Y-49732674D01*
X175749001Y-53069605D01*
X175666759Y-52987363D01*
X175431727Y-52830320D01*
X175170574Y-52722147D01*
X174893335Y-52667000D01*
X174610665Y-52667000D01*
X174333426Y-52722147D01*
X174072273Y-52830320D01*
X173837241Y-52987363D01*
X173637363Y-53187241D01*
X173480320Y-53422273D01*
X173372147Y-53683426D01*
X173317000Y-53960665D01*
X173317000Y-54243335D01*
X173335604Y-54336863D01*
X173264843Y-54423087D01*
X173254365Y-54435854D01*
X173176829Y-54580913D01*
X173129083Y-54738311D01*
X173112961Y-54901999D01*
X173117001Y-54943017D01*
X173117002Y-137842972D01*
X173112961Y-137884001D01*
X173129083Y-138047689D01*
X173176829Y-138205087D01*
X173254365Y-138350146D01*
X173254366Y-138350147D01*
X173358711Y-138477292D01*
X173390575Y-138503442D01*
X174097714Y-139210583D01*
X174079000Y-139304665D01*
X174079000Y-139587335D01*
X174134147Y-139864574D01*
X174242320Y-140125727D01*
X174399363Y-140360759D01*
X174599241Y-140560637D01*
X174834273Y-140717680D01*
X175095426Y-140825853D01*
X175372665Y-140881000D01*
X175655335Y-140881000D01*
X175932574Y-140825853D01*
X176193727Y-140717680D01*
X176428759Y-140560637D01*
X176628637Y-140360759D01*
X176785680Y-140125727D01*
X176893853Y-139864574D01*
X176949000Y-139587335D01*
X176949000Y-139304665D01*
X176893853Y-139027426D01*
X176785680Y-138766273D01*
X176628637Y-138531241D01*
X176428759Y-138331363D01*
X176193727Y-138174320D01*
X175932574Y-138066147D01*
X175655335Y-138011000D01*
X175372665Y-138011000D01*
X175278583Y-138029714D01*
X174787001Y-137538133D01*
X174787001Y-55537000D01*
X174893335Y-55537000D01*
X175170574Y-55481853D01*
X175431727Y-55373680D01*
X175666759Y-55216637D01*
X175749001Y-55134395D01*
X175749001Y-55139603D01*
X175669363Y-55219241D01*
X175512320Y-55454273D01*
X175404147Y-55715426D01*
X175349000Y-55992665D01*
X175349000Y-56275335D01*
X175404147Y-56552574D01*
X175512320Y-56813727D01*
X175669363Y-57048759D01*
X175749001Y-57128397D01*
X175749001Y-57214533D01*
X175743994Y-57265370D01*
X175763977Y-57468265D01*
X175823160Y-57663363D01*
X175919266Y-57843167D01*
X176010105Y-57953854D01*
X176048605Y-58000766D01*
X176088092Y-58033173D01*
X180067000Y-62012081D01*
X180067001Y-79589783D01*
X180067000Y-79589793D01*
X180067000Y-79777604D01*
X179987363Y-79857241D01*
X179830320Y-80092273D01*
X179722147Y-80353426D01*
X179667000Y-80630665D01*
X179667000Y-80913335D01*
X179722147Y-81190574D01*
X179830320Y-81451727D01*
X179987363Y-81686759D01*
X180067000Y-81766396D01*
X180067000Y-95454803D01*
X179920564Y-95394147D01*
X179643325Y-95339000D01*
X179360655Y-95339000D01*
X179083416Y-95394147D01*
X178822263Y-95502320D01*
X178587231Y-95659363D01*
X178387353Y-95859241D01*
X178334984Y-95937618D01*
X178308000Y-95934960D01*
X178144311Y-95951082D01*
X177986913Y-95998828D01*
X177841854Y-96076364D01*
X177786238Y-96122007D01*
X177714709Y-96180709D01*
X177688563Y-96212568D01*
X176438579Y-97462553D01*
X176406710Y-97488708D01*
X176317905Y-97596918D01*
X176302365Y-97615854D01*
X176224829Y-97760913D01*
X176177083Y-97918311D01*
X176160961Y-98081999D01*
X176165001Y-98123017D01*
X176165002Y-133016974D01*
X176160961Y-133058003D01*
X176177083Y-133221691D01*
X176224829Y-133379089D01*
X176302365Y-133524148D01*
X176302366Y-133524149D01*
X176406711Y-133651294D01*
X176438575Y-133677444D01*
X177907712Y-135146583D01*
X177888998Y-135240665D01*
X177888998Y-135523335D01*
X177944145Y-135800574D01*
X178052318Y-136061727D01*
X178209361Y-136296759D01*
X178409239Y-136496637D01*
X178644271Y-136653680D01*
X178905424Y-136761853D01*
X179182663Y-136817000D01*
X179465333Y-136817000D01*
X179742572Y-136761853D01*
X180003725Y-136653680D01*
X180238757Y-136496637D01*
X180438635Y-136296759D01*
X180595678Y-136061727D01*
X180703851Y-135800574D01*
X180758998Y-135523335D01*
X180758998Y-135240665D01*
X180703851Y-134963426D01*
X180595678Y-134702273D01*
X180438635Y-134467241D01*
X180238757Y-134267363D01*
X180003725Y-134110320D01*
X179742572Y-134002147D01*
X179465333Y-133947000D01*
X179182663Y-133947000D01*
X179088581Y-133965714D01*
X177835001Y-132712136D01*
X177835001Y-98427866D01*
X178480731Y-97782137D01*
X178587231Y-97888637D01*
X178822263Y-98045680D01*
X179083416Y-98153853D01*
X179360655Y-98209000D01*
X179643325Y-98209000D01*
X179920564Y-98153853D01*
X180067001Y-98093197D01*
X180067001Y-110047988D01*
X179933241Y-110137363D01*
X179733363Y-110337241D01*
X179576320Y-110572273D01*
X179468147Y-110833426D01*
X179413000Y-111110665D01*
X179413000Y-111393335D01*
X179468147Y-111670574D01*
X179576320Y-111931727D01*
X179733363Y-112166759D01*
X179813000Y-112246396D01*
X179813001Y-125497603D01*
X179733363Y-125577241D01*
X179576320Y-125812273D01*
X179468147Y-126073426D01*
X179413000Y-126350665D01*
X179413000Y-126633335D01*
X179468147Y-126910574D01*
X179576320Y-127171727D01*
X179733363Y-127406759D01*
X179933241Y-127606637D01*
X180168273Y-127763680D01*
X180429426Y-127871853D01*
X180706665Y-127927000D01*
X180989335Y-127927000D01*
X181266574Y-127871853D01*
X181527727Y-127763680D01*
X181762759Y-127606637D01*
X181962637Y-127406759D01*
X182119680Y-127171727D01*
X182227853Y-126910574D01*
X182283000Y-126633335D01*
X182283000Y-126350665D01*
X182227853Y-126073426D01*
X182119680Y-125812273D01*
X181962637Y-125577241D01*
X181883000Y-125497604D01*
X181883000Y-112246396D01*
X181962637Y-112166759D01*
X182119680Y-111931727D01*
X182227853Y-111670574D01*
X182283000Y-111393335D01*
X182283000Y-111110665D01*
X182227853Y-110833426D01*
X182137000Y-110614087D01*
X182137000Y-81766396D01*
X182216637Y-81686759D01*
X182373680Y-81451727D01*
X182481853Y-81190574D01*
X182537000Y-80913335D01*
X182537000Y-80630665D01*
X182481853Y-80353426D01*
X182373680Y-80092273D01*
X182216637Y-79857241D01*
X182137000Y-79777604D01*
X182137000Y-61634197D01*
X182142006Y-61583369D01*
X182137000Y-61532541D01*
X182137000Y-61532532D01*
X182122024Y-61380475D01*
X182062841Y-61185377D01*
X182018104Y-61101679D01*
X181966734Y-61005572D01*
X181869803Y-60887462D01*
X181837396Y-60847974D01*
X181797908Y-60815567D01*
X177951694Y-56969354D01*
X178055680Y-56813727D01*
X178163853Y-56552574D01*
X178219000Y-56275335D01*
X178219000Y-55992665D01*
X178163853Y-55715426D01*
X178055680Y-55454273D01*
X177898637Y-55219241D01*
X177819000Y-55139604D01*
X177819000Y-49722577D01*
X183315000Y-49695767D01*
X183315001Y-126899511D01*
X181205959Y-129008553D01*
X181130769Y-128933363D01*
X180895737Y-128776320D01*
X180634584Y-128668147D01*
X180357345Y-128613000D01*
X180074675Y-128613000D01*
X179797436Y-128668147D01*
X179536283Y-128776320D01*
X179301251Y-128933363D01*
X179101373Y-129133241D01*
X178944330Y-129368273D01*
X178836157Y-129629426D01*
X178781010Y-129906665D01*
X178781010Y-130189335D01*
X178836157Y-130466574D01*
X178944330Y-130727727D01*
X179101373Y-130962759D01*
X179301251Y-131162637D01*
X179536283Y-131319680D01*
X179797436Y-131427853D01*
X180074675Y-131483000D01*
X180357345Y-131483000D01*
X180634584Y-131427853D01*
X180895737Y-131319680D01*
X181130769Y-131162637D01*
X181330647Y-130962759D01*
X181383626Y-130883470D01*
X181388398Y-130883000D01*
X181388399Y-130883000D01*
X181511069Y-130870918D01*
X181668467Y-130823172D01*
X181813526Y-130745636D01*
X181940671Y-130641291D01*
X181966826Y-130609421D01*
X184711427Y-127864821D01*
X184743291Y-127838671D01*
X184847636Y-127711526D01*
X184925172Y-127566467D01*
X184972918Y-127409069D01*
X184985000Y-127286399D01*
X184985000Y-127286397D01*
X184989040Y-127245381D01*
X184985000Y-127204365D01*
X184985000Y-49687620D01*
X191134690Y-49657622D01*
X191078311Y-72942072D01*
%TD*%
M02*
